<?xml version="1.0"?>
<VTKFile type="PolyData" version="0.1" byte_order="LittleEndian">
  <PolyData>
    <Piece NumberOfPoints="     22" NumberOfVerts="  0" NumberOfLines="     21"
           NumberOfStrips="  0" NumberOfPolys="      0">
      <Points>
        <DataArray type="Float32" NumberOfComponents="3" format="ascii">
                       0.00002                      -0.00001                       2.19000
                       0.00023                      -0.00008                       6.57000
                       0.00068                      -0.00021                      10.95000
                       0.00139                      -0.00039                      15.33000
                       0.00235                      -0.00063                      19.71000
                       0.00354                      -0.00091                      24.09000
                       0.00496                      -0.00124                      28.47000
                       0.00658                      -0.00161                      32.85000
                       0.00839                      -0.00203                      37.23000
                       0.01036                      -0.00250                      41.61000
                       0.01250                      -0.00302                      45.99000
                       0.01479                      -0.00359                      50.37000
                       0.01725                      -0.00421                      54.75000
                       0.01987                      -0.00487                      59.13000
                       0.02266                      -0.00557                      63.50999
                       0.02559                      -0.00631                      67.88999
                       0.02865                      -0.00708                      72.26999
                       0.03179                      -0.00788                      76.64999
                       0.03494                      -0.00870                      81.02999
                       0.03799                      -0.00954                      85.40999
                       0.03943                      -0.00996                      87.59999
                       0.00000                       0.00000                       0.00000
        </DataArray>
      </Points>
      <PointData>
        <DataArray type="Float32" Name="TranslationalVelocity" NumberOfComponents="3" format="ascii">
                      -0.00000                       0.00001                       0.00000
                      -0.00003                       0.00005                       0.00000
                      -0.00011                       0.00012                       0.00000
                      -0.00026                       0.00023                       0.00000
                      -0.00049                       0.00036                       0.00000
                      -0.00083                       0.00052                       0.00000
                      -0.00128                       0.00071                       0.00000
                      -0.00187                       0.00092                       0.00000
                      -0.00262                       0.00116                       0.00000
                      -0.00357                       0.00143                       0.00000
                      -0.00473                       0.00172                       0.00000
                      -0.00614                       0.00204                       0.00000
                      -0.00783                       0.00239                       0.00000
                      -0.00982                       0.00276                       0.00001
                      -0.01213                       0.00316                       0.00001
                      -0.01476                       0.00357                       0.00001
                      -0.01770                       0.00400                       0.00001
                      -0.02089                       0.00445                       0.00001
                      -0.02426                       0.00491                       0.00002
                      -0.02771                       0.00538                       0.00002
                      -0.02940                       0.00561                       0.00002
                       0.00000                      -0.00000                       0.00000
        </DataArray>
        <DataArray type="Float32" Name="RotationalVelocity" NumberOfComponents="3" format="ascii">
                      -0.00000                      -0.00000                       0.00000
                      -0.00001                      -0.00001                       0.00000
                      -0.00002                      -0.00003                       0.00000
                      -0.00003                      -0.00004                       0.00000
                      -0.00003                      -0.00006                       0.00000
                      -0.00004                      -0.00009                       0.00000
                      -0.00005                      -0.00012                       0.00000
                      -0.00005                      -0.00015                       0.00000
                      -0.00006                      -0.00019                       0.00000
                      -0.00006                      -0.00024                       0.00000
                      -0.00007                      -0.00029                       0.00000
                      -0.00008                      -0.00035                       0.00000
                      -0.00008                      -0.00042                       0.00000
                      -0.00009                      -0.00049                       0.00000
                      -0.00009                      -0.00056                       0.00000
                      -0.00010                      -0.00064                       0.00000
                      -0.00010                      -0.00070                       0.00000
                      -0.00010                      -0.00075                       0.00000
                      -0.00011                      -0.00078                       0.00000
                      -0.00011                      -0.00078                       0.00000
                      -0.00011                      -0.00077                       0.00000
                       0.00000                      -0.00000                       0.00000
        </DataArray>
        <DataArray type="Float32" Name="TranslationalAcceleration" NumberOfComponents="3" format="ascii">
                      -0.00014                       0.00002                       0.00000
                      -0.00135                       0.00020                       0.00000
                      -0.00383                       0.00052                       0.00000
                      -0.00755                       0.00097                       0.00000
                      -0.01239                       0.00153                       0.00000
                      -0.01814                       0.00219                       0.00000
                      -0.02456                       0.00295                       0.00001
                      -0.03140                       0.00379                       0.00001
                      -0.03835                       0.00471                       0.00001
                      -0.04516                       0.00571                       0.00001
                      -0.05157                       0.00678                       0.00002
                      -0.05735                       0.00790                       0.00002
                      -0.06230                       0.00906                       0.00002
                      -0.06627                       0.01025                       0.00002
                      -0.06915                       0.01147                       0.00002
                      -0.07086                       0.01268                       0.00002
                      -0.07136                       0.01390                       0.00002
                      -0.07065                       0.01510                       0.00002
                      -0.06876                       0.01628                       0.00002
                      -0.06571                       0.01744                       0.00001
                      -0.06377                       0.01802                       0.00001
                       0.00000                      -0.00000                       0.00000
        </DataArray>
        <DataArray type="Float32" Name="RotationalAcceleration" NumberOfComponents="3" format="ascii">
                      -0.00002                      -0.00013                       0.00000
                      -0.00006                      -0.00042                       0.00000
                      -0.00009                      -0.00071                       0.00000
                      -0.00012                      -0.00098                       0.00000
                      -0.00014                      -0.00122                       0.00000
                      -0.00016                      -0.00140                       0.00000
                      -0.00018                      -0.00152                       0.00000
                      -0.00020                      -0.00158                       0.00000
                      -0.00022                      -0.00158                       0.00000
                      -0.00024                      -0.00152                       0.00000
                      -0.00025                      -0.00140                       0.00000
                      -0.00026                      -0.00123                       0.00000
                      -0.00027                      -0.00102                       0.00000
                      -0.00028                      -0.00079                       0.00000
                      -0.00028                      -0.00053                       0.00000
                      -0.00028                      -0.00025                       0.00000
                      -0.00028                       0.00002                       0.00000
                      -0.00027                       0.00030                       0.00000
                      -0.00027                       0.00057                       0.00000
                      -0.00026                       0.00082                       0.00000
                      -0.00026                       0.00095                       0.00000
                       0.00000                      -0.00000                       0.00000
        </DataArray>
        <DataArray type="Float32" Name="OrientationX" NumberOfComponents="3" format="ascii">
                       1.00000                       0.00000                      -0.00002
                       1.00000                       0.00000                      -0.00007
                       1.00000                       0.00000                      -0.00013
                       1.00000                       0.00000                      -0.00019
                       1.00000                       0.00000                      -0.00025
                       1.00000                       0.00000                      -0.00030
                       1.00000                       0.00000                      -0.00035
                       1.00000                       0.00000                      -0.00039
                       1.00000                       0.00000                      -0.00043
                       1.00000                       0.00000                      -0.00047
                       1.00000                       0.00000                      -0.00051
                       1.00000                       0.00000                      -0.00054
                       1.00000                       0.00000                      -0.00058
                       1.00000                       0.00000                      -0.00062
                       1.00000                       0.00000                      -0.00065
                       1.00000                       0.00000                      -0.00069
                       1.00000                       0.00000                      -0.00071
                       1.00000                       0.00000                      -0.00072
                       1.00000                       0.00000                      -0.00071
                       1.00000                       0.00000                      -0.00067
                       1.00000                       0.00000                      -0.00064
                       1.00000                      -0.00000                       0.00000
        </DataArray>
        <DataArray type="Float32" Name="OrientationY" NumberOfComponents="3" format="ascii">
                       0.00000                       1.00000                       0.00001
                       0.00000                       1.00000                       0.00002
                       0.00000                       1.00000                       0.00004
                       0.00000                       1.00000                       0.00005
                       0.00000                       1.00000                       0.00006
                       0.00000                       1.00000                       0.00007
                       0.00000                       1.00000                       0.00008
                       0.00000                       1.00000                       0.00009
                       0.00000                       1.00000                       0.00010
                       0.00000                       1.00000                       0.00011
                       0.00000                       1.00000                       0.00012
                       0.00000                       1.00000                       0.00014
                       0.00000                       1.00000                       0.00015
                       0.00000                       1.00000                       0.00016
                       0.00000                       1.00000                       0.00016
                       0.00000                       1.00000                       0.00017
                       0.00000                       1.00000                       0.00018
                       0.00000                       1.00000                       0.00019
                       0.00000                       1.00000                       0.00019
                       0.00000                       1.00000                       0.00019
                       0.00000                       1.00000                       0.00019
                      -0.00000                       1.00000                      -0.00000
        </DataArray>
        <DataArray type="Float32" Name="OrientationZ" NumberOfComponents="3" format="ascii">
                       0.00002                      -0.00001                       1.00000
                       0.00007                      -0.00002                       1.00000
                       0.00013                      -0.00004                       1.00000
                       0.00019                      -0.00005                       1.00000
                       0.00025                      -0.00006                       1.00000
                       0.00030                      -0.00007                       1.00000
                       0.00035                      -0.00008                       1.00000
                       0.00039                      -0.00009                       1.00000
                       0.00043                      -0.00010                       1.00000
                       0.00047                      -0.00011                       1.00000
                       0.00051                      -0.00012                       1.00000
                       0.00054                      -0.00014                       1.00000
                       0.00058                      -0.00015                       1.00000
                       0.00062                      -0.00016                       1.00000
                       0.00065                      -0.00016                       1.00000
                       0.00069                      -0.00017                       1.00000
                       0.00071                      -0.00018                       1.00000
                       0.00072                      -0.00019                       1.00000
                       0.00071                      -0.00019                       1.00000
                       0.00067                      -0.00019                       1.00000
                       0.00064                      -0.00019                       1.00000
                       0.00000                      -0.00000                       1.00000
        </DataArray>
      </PointData>
      <Lines>
        <DataArray type="Int32" Name="connectivity" format="ascii">
      0      1
      1      2
      2      3
      3      4
      4      5
      5      6
      6      7
      7      8
      8      9
      9     10
     10     11
     11     12
     12     13
     13     14
     14     15
     15     16
     16     17
     17     18
     18     19
     19     20
     21      0
        </DataArray>
        <DataArray type="Int32" Name="offsets" format="ascii">
      2
      4
      6
      8
     10
     12
     14
     16
     18
     20
     22
     24
     26
     28
     30
     32
     34
     36
     38
     40
     42
        </DataArray>
      </Lines>
    </Piece>
  </PolyData>
</VTKFile>
