<?xml version="1.0"?>
<VTKFile type="PolyData" version="0.1" byte_order="LittleEndian">
  <PolyData>
    <Piece NumberOfPoints="     22" NumberOfVerts="  0" NumberOfLines="     21"
           NumberOfStrips="  0" NumberOfPolys="      0">
      <Points>
        <DataArray type="Float32" NumberOfComponents="3" format="ascii">
                       0.00003                      -0.00001                       2.19000
                       0.00027                      -0.00009                       6.57000
                       0.00081                      -0.00023                      10.95000
                       0.00166                      -0.00043                      15.33000
                       0.00282                      -0.00069                      19.71000
                       0.00428                      -0.00099                      24.09000
                       0.00602                      -0.00135                      28.47000
                       0.00802                      -0.00176                      32.85000
                       0.01028                      -0.00223                      37.23000
                       0.01277                      -0.00275                      41.61000
                       0.01551                      -0.00332                      45.99000
                       0.01848                      -0.00395                      50.37000
                       0.02171                      -0.00463                      54.74999
                       0.02520                      -0.00536                      59.12999
                       0.02894                      -0.00614                      63.50999
                       0.03294                      -0.00696                      67.88999
                       0.03715                      -0.00782                      72.26999
                       0.04151                      -0.00871                      76.64998
                       0.04593                      -0.00963                      81.02998
                       0.05025                      -0.01057                      85.40998
                       0.05231                      -0.01104                      87.59998
                       0.00000                       0.00000                       0.00000
        </DataArray>
      </Points>
      <PointData>
        <DataArray type="Float32" Name="TranslationalVelocity" NumberOfComponents="3" format="ascii">
                      -0.00003                      -0.00002                       0.00000
                      -0.00031                      -0.00015                       0.00000
                      -0.00083                      -0.00038                       0.00000
                      -0.00157                      -0.00070                       0.00000
                      -0.00246                      -0.00109                       0.00000
                      -0.00342                      -0.00153                       0.00000
                      -0.00437                      -0.00202                       0.00000
                      -0.00519                      -0.00253                       0.00000
                      -0.00577                      -0.00307                       0.00000
                      -0.00600                      -0.00360                       0.00000
                      -0.00575                      -0.00411                       0.00000
                      -0.00492                      -0.00458                       0.00000
                      -0.00340                      -0.00500                      -0.00000
                      -0.00111                      -0.00535                      -0.00000
                       0.00200                      -0.00562                      -0.00001
                       0.00595                      -0.00578                      -0.00001
                       0.01073                      -0.00583                      -0.00001
                       0.01627                      -0.00578                      -0.00002
                       0.02242                      -0.00562                      -0.00002
                       0.02900                      -0.00539                      -0.00003
                       0.03236                      -0.00525                      -0.00003
                       0.00000                      -0.00000                       0.00000
        </DataArray>
        <DataArray type="Float32" Name="RotationalVelocity" NumberOfComponents="3" format="ascii">
                       0.00002                      -0.00003                       0.00000
                       0.00004                      -0.00009                       0.00000
                       0.00006                      -0.00015                       0.00000
                       0.00008                      -0.00019                       0.00000
                       0.00010                      -0.00021                       0.00000
                       0.00011                      -0.00022                       0.00000
                       0.00012                      -0.00021                       0.00000
                       0.00012                      -0.00016                       0.00000
                       0.00012                      -0.00010                       0.00000
                       0.00012                      -0.00000                       0.00000
                       0.00011                       0.00012                       0.00000
                       0.00010                       0.00027                       0.00000
                       0.00009                       0.00043                       0.00000
                       0.00007                       0.00061                       0.00000
                       0.00005                       0.00081                       0.00000
                       0.00002                       0.00100                       0.00000
                      -0.00000                       0.00118                       0.00000
                      -0.00002                       0.00134                       0.00000
                      -0.00005                       0.00146                       0.00000
                      -0.00006                       0.00153                       0.00000
                      -0.00006                       0.00154                       0.00000
                       0.00000                      -0.00000                       0.00000
        </DataArray>
        <DataArray type="Float32" Name="TranslationalAcceleration" NumberOfComponents="3" format="ascii">
                       0.00058                      -0.00002                      -0.00000
                       0.00526                      -0.00013                      -0.00000
                       0.01457                      -0.00034                      -0.00000
                       0.02808                      -0.00059                      -0.00000
                       0.04500                      -0.00086                      -0.00001
                       0.06426                      -0.00111                      -0.00002
                       0.08459                      -0.00131                      -0.00002
                       0.10452                      -0.00139                      -0.00003
                       0.12253                      -0.00132                      -0.00004
                       0.13702                      -0.00104                      -0.00005
                       0.14648                      -0.00049                      -0.00006
                       0.14945                       0.00039                      -0.00006
                       0.14468                       0.00164                      -0.00006
                       0.13114                       0.00332                      -0.00005
                       0.10811                       0.00546                      -0.00003
                       0.07526                       0.00809                      -0.00000
                       0.03271                       0.01122                       0.00004
                      -0.01892                       0.01482                       0.00008
                      -0.07837                       0.01884                       0.00013
                      -0.14374                       0.02319                       0.00019
                      -0.17783                       0.02545                       0.00022
                       0.00000                      -0.00000                       0.00000
        </DataArray>
        <DataArray type="Float32" Name="RotationalAcceleration" NumberOfComponents="3" format="ascii">
                       0.00001                       0.00053                       0.00000
                       0.00004                       0.00161                       0.00000
                       0.00005                       0.00263                       0.00000
                       0.00006                       0.00351                       0.00000
                       0.00006                       0.00418                       0.00000
                       0.00005                       0.00457                       0.00000
                       0.00003                       0.00465                       0.00000
                       0.00000                       0.00439                       0.00000
                      -0.00004                       0.00377                       0.00000
                      -0.00009                       0.00279                       0.00000
                      -0.00016                       0.00147                       0.00000
                      -0.00024                      -0.00016                       0.00000
                      -0.00033                      -0.00206                       0.00000
                      -0.00044                      -0.00415                       0.00000
                      -0.00054                      -0.00637                       0.00000
                      -0.00066                      -0.00862                       0.00000
                      -0.00077                      -0.01079                       0.00000
                      -0.00087                      -0.01274                       0.00000
                      -0.00096                      -0.01434                       0.00000
                      -0.00102                      -0.01541                       0.00000
                      -0.00104                      -0.01570                       0.00000
                       0.00000                      -0.00000                       0.00000
        </DataArray>
        <DataArray type="Float32" Name="OrientationX" NumberOfComponents="3" format="ascii">
                       1.00000                       0.00000                      -0.00003
                       1.00000                       0.00000                      -0.00009
                       1.00000                       0.00000                      -0.00016
                       1.00000                       0.00000                      -0.00023
                       1.00000                       0.00000                      -0.00030
                       1.00000                       0.00000                      -0.00037
                       1.00000                       0.00000                      -0.00043
                       1.00000                       0.00000                      -0.00049
                       1.00000                       0.00000                      -0.00054
                       1.00000                       0.00000                      -0.00060
                       1.00000                       0.00000                      -0.00065
                       1.00000                       0.00000                      -0.00071
                       1.00000                       0.00000                      -0.00077
                       1.00000                       0.00000                      -0.00083
                       1.00000                       0.00000                      -0.00088
                       1.00000                       0.00000                      -0.00094
                       1.00000                       0.00000                      -0.00098
                       1.00000                       0.00000                      -0.00101
                       1.00000                       0.00000                      -0.00100
                       1.00000                       0.00000                      -0.00096
                       1.00000                       0.00000                      -0.00091
                       1.00000                      -0.00000                       0.00000
        </DataArray>
        <DataArray type="Float32" Name="OrientationY" NumberOfComponents="3" format="ascii">
                       0.00000                       1.00000                       0.00001
                       0.00000                       1.00000                       0.00003
                       0.00000                       1.00000                       0.00004
                       0.00000                       1.00000                       0.00005
                       0.00000                       1.00000                       0.00006
                       0.00000                       1.00000                       0.00008
                       0.00000                       1.00000                       0.00009
                       0.00000                       1.00000                       0.00010
                       0.00000                       1.00000                       0.00011
                       0.00000                       1.00000                       0.00012
                       0.00000                       1.00000                       0.00014
                       0.00000                       1.00000                       0.00015
                       0.00000                       1.00000                       0.00016
                       0.00000                       1.00000                       0.00017
                       0.00000                       1.00000                       0.00018
                       0.00000                       1.00000                       0.00019
                       0.00000                       1.00000                       0.00020
                       0.00000                       1.00000                       0.00021
                       0.00000                       1.00000                       0.00021
                       0.00000                       1.00000                       0.00022
                       0.00000                       1.00000                       0.00022
                      -0.00000                       1.00000                      -0.00000
        </DataArray>
        <DataArray type="Float32" Name="OrientationZ" NumberOfComponents="3" format="ascii">
                       0.00003                      -0.00001                       1.00000
                       0.00009                      -0.00003                       1.00000
                       0.00016                      -0.00004                       1.00000
                       0.00023                      -0.00005                       1.00000
                       0.00030                      -0.00006                       1.00000
                       0.00037                      -0.00008                       1.00000
                       0.00043                      -0.00009                       1.00000
                       0.00049                      -0.00010                       1.00000
                       0.00054                      -0.00011                       1.00000
                       0.00060                      -0.00012                       1.00000
                       0.00065                      -0.00014                       1.00000
                       0.00071                      -0.00015                       1.00000
                       0.00077                      -0.00016                       1.00000
                       0.00083                      -0.00017                       1.00000
                       0.00088                      -0.00018                       1.00000
                       0.00094                      -0.00019                       1.00000
                       0.00098                      -0.00020                       1.00000
                       0.00101                      -0.00021                       1.00000
                       0.00100                      -0.00021                       1.00000
                       0.00096                      -0.00022                       1.00000
                       0.00091                      -0.00022                       1.00000
                       0.00000                      -0.00000                       1.00000
        </DataArray>
      </PointData>
      <Lines>
        <DataArray type="Int32" Name="connectivity" format="ascii">
      0      1
      1      2
      2      3
      3      4
      4      5
      5      6
      6      7
      7      8
      8      9
      9     10
     10     11
     11     12
     12     13
     13     14
     14     15
     15     16
     16     17
     17     18
     18     19
     19     20
     21      0
        </DataArray>
        <DataArray type="Int32" Name="offsets" format="ascii">
      2
      4
      6
      8
     10
     12
     14
     16
     18
     20
     22
     24
     26
     28
     30
     32
     34
     36
     38
     40
     42
        </DataArray>
      </Lines>
    </Piece>
  </PolyData>
</VTKFile>
