<?xml version="1.0"?>
<VTKFile type="PolyData" version="0.1" byte_order="LittleEndian">
  <PolyData>
    <Piece NumberOfPoints="     19" NumberOfVerts="  0" NumberOfLines="     18"
           NumberOfStrips="  0" NumberOfPolys="      0">
      <Points>
        <DataArray type="Float32" NumberOfComponents="3" format="ascii">
                      -4.87822                      -0.02347                      91.50304
                      -4.81812                      -0.03742                      92.86833
                      -4.72003                      -0.16001                      95.59907
                      -4.63201                      -0.32749                      98.32991
                      -4.52735                      -0.56374                     101.74356
                      -4.34709                      -0.70440                     105.83854
                      -4.14041                      -0.71534                     109.93331
                      -3.93330                      -0.72401                     114.02805
                      -3.72300                      -0.72862                     118.12266
                      -3.51001                      -0.73108                     122.21713
                      -3.29540                      -0.73503                     126.31150
                      -3.07822                      -0.73895                     130.40572
                      -2.85898                      -0.74281                     134.49982
                      -2.63834                      -0.74661                     138.59385
                      -2.41457                      -0.75045                     142.68772
                      -2.22568                      -0.75365                     146.09920
                      -2.07329                      -0.74832                     148.82833
                      -1.92041                      -0.68796                     151.55793
                      -1.84432                      -0.69946                     152.92235
        </DataArray>
      </Points>
      <PointData>
        <DataArray type="Float32" Name="TranslationalVelocity" NumberOfComponents="3" format="ascii">
                      -0.02270                      -0.00988                       0.00238
                      -0.02208                      -0.02209                       0.00223
                      -0.02013                      -0.04661                       0.00107
                      -0.01743                      -0.07128                      -0.00053
                      -0.01322                      -0.10237                      -0.00280
                      -0.00693                      -0.14019                      -0.00439
                       0.00119                      -0.17868                      -0.00492
                       0.01217                      -0.21803                      -0.00558
                       0.02780                      -0.25842                      -0.00644
                       0.05059                      -0.30007                      -0.00765
                       0.08377                      -0.34315                      -0.00943
                       0.13132                      -0.38781                      -0.01199
                       0.19795                      -0.43413                      -0.01560
                       0.28913                      -0.48213                      -0.02056
                       0.41107                      -0.53178                      -0.02727
                       0.54194                      -0.57431                      -0.03456
                       0.66813                      -0.60894                      -0.04153
                       0.81702                      -0.64402                      -0.04910
                       0.89982                      -0.66167                      -0.05387
        </DataArray>
        <DataArray type="Float32" Name="RotationalVelocity" NumberOfComponents="3" format="ascii">
                       0.00891                       0.00050                      -0.00080
                       0.00892                       0.00057                      -0.00080
                       0.00896                       0.00076                      -0.00083
                       0.00902                       0.00101                      -0.00089
                       0.00912                       0.00135                      -0.00102
                       0.00925                       0.00182                      -0.00127
                       0.00942                       0.00242                      -0.00169
                       0.00961                       0.00330                      -0.00231
                       0.00983                       0.00467                      -0.00319
                       0.01008                       0.00673                      -0.00436
                       0.01036                       0.00972                      -0.00582
                       0.01066                       0.01381                      -0.00755
                       0.01097                       0.01917                      -0.00949
                       0.01126                       0.02588                      -0.01149
                       0.01153                       0.03393                      -0.01339
                       0.01170                       0.04154                      -0.01471
                       0.01179                       0.04816                      -0.01546
                       0.01181                       0.05513                      -0.01580
                       0.01179                       0.05870                      -0.01577
        </DataArray>
        <DataArray type="Float32" Name="TranslationalAcceleration" NumberOfComponents="3" format="ascii">
                      -0.17719                       0.01780                      -0.05254
                      -0.06737                      -0.00066                      -0.01520
                      -0.17394                      -0.00542                      -0.03726
                      -0.24823                      -0.01307                      -0.05038
                      -0.30770                      -0.02493                      -0.05807
                      -0.34056                      -0.04015                      -0.05792
                      -0.34033                      -0.05510                      -0.05386
                      -0.30698                      -0.07001                      -0.05106
                      -0.23787                      -0.08609                      -0.05203
                      -0.12965                      -0.10537                      -0.05780
                       0.01902                      -0.13045                      -0.06820
                       0.20398                      -0.16397                      -0.08220
                       0.41308                      -0.20858                      -0.09814
                       0.62329                      -0.26660                      -0.11409
                       0.79800                      -0.33893                      -0.12830
                       0.87680                      -0.41019                      -0.13768
                       0.86639                      -0.47384                      -0.14283
                       0.74574                      -0.54287                      -0.14394
                       0.65747                      -0.57919                      -0.14551
        </DataArray>
        <DataArray type="Float32" Name="OrientationX" NumberOfComponents="3" format="ascii">
                       0.97203                      -0.23049                      -0.04511
                       0.97203                      -0.23049                      -0.04515
                       0.97202                      -0.23050                      -0.04531
                       0.97200                      -0.23052                      -0.04553
                       0.97197                      -0.23058                      -0.04588
                       0.97879                      -0.19952                      -0.04647
                       0.98307                      -0.17709                      -0.04711
                       0.98636                      -0.15749                      -0.04781
                       0.98941                      -0.13677                      -0.04857
                       0.99209                      -0.11544                      -0.04938
                       0.99418                      -0.09529                      -0.05024
                       0.99585                      -0.07533                      -0.05113
                       0.99700                      -0.05730                      -0.05205
                       0.99764                      -0.04375                      -0.05299
                       0.99808                      -0.03041                      -0.05387
                       0.99833                      -0.01923                      -0.05453
                       0.99843                      -0.01091                      -0.05497
                       0.99845                      -0.00653                      -0.05533
                       0.99844                      -0.00663                      -0.05548
        </DataArray>
        <DataArray type="Float32" Name="OrientationY" NumberOfComponents="3" format="ascii">
                       0.23060                       0.97305                      -0.00280
                       0.23060                       0.97304                      -0.00281
                       0.23061                       0.97304                      -0.00283
                       0.23064                       0.97304                      -0.00285
                       0.23069                       0.97302                      -0.00290
                       0.19967                       0.97986                      -0.00148
                       0.17726                       0.98416                      -0.00045
                       0.15769                       0.98749                       0.00046
                       0.13700                       0.99057                       0.00143
                       0.11570                       0.99328                       0.00245
                       0.09558                       0.99542                       0.00344
                       0.07566                       0.99712                       0.00443
                       0.05765                       0.99832                       0.00535
                       0.04413                       0.99901                       0.00605
                       0.03082                       0.99950                       0.00676
                       0.01966                       0.99978                       0.00736
                       0.01135                       0.99991                       0.00781
                       0.00699                       0.99994                       0.00805
                       0.00708                       0.99994                       0.00804
        </DataArray>
        <DataArray type="Float32" Name="OrientationZ" NumberOfComponents="3" format="ascii">
                       0.04453                      -0.00768                       0.99898
                       0.04458                      -0.00768                       0.99898
                       0.04474                      -0.00770                       0.99897
                       0.04496                      -0.00773                       0.99896
                       0.04531                      -0.00777                       0.99894
                       0.04583                      -0.00784                       0.99892
                       0.04645                      -0.00791                       0.99889
                       0.04714                      -0.00799                       0.99886
                       0.04792                      -0.00807                       0.99882
                       0.04876                      -0.00815                       0.99878
                       0.04968                      -0.00822                       0.99873
                       0.05065                      -0.00828                       0.99868
                       0.05166                      -0.00834                       0.99863
                       0.05267                      -0.00838                       0.99858
                       0.05364                      -0.00841                       0.99852
                       0.05438                      -0.00842                       0.99848
                       0.05488                      -0.00842                       0.99846
                       0.05528                      -0.00842                       0.99844
                       0.05543                      -0.00842                       0.99843
        </DataArray>
        <DataArray type="Float32" Name="Force" NumberOfComponents="3" format="ascii">
                     111.23146                    -111.02027                      -5.81215
                     111.79841                    -111.43629                      -5.84604
                     122.84205                    -122.12731                      -6.43991
                      93.84385                     -93.06557                      -4.93866
                     512.63759                    -171.98765                     -24.57359
                     537.60594                    -151.55007                     -25.83038
                     520.42728                    -133.76638                     -25.22607
                     496.76432                    -114.10446                     -24.32171
                     473.00062                     -91.57003                     -23.39429
                     443.43680                     -76.08789                     -22.23419
                     431.38888                     -58.29835                     -21.90518
                     400.23388                     -45.79042                     -20.64902
                     368.50393                     -35.53949                     -19.33291
                     334.98325                     -27.80779                     -17.87898
                     300.70032                     -20.92095                     -16.30995
                     271.64938                     -15.77437                     -14.90977
                     241.04494                     -11.88242                     -13.33495
                     160.92867                      -7.21897                      -8.96096
                     159.32547                      -7.19252                      -8.89551
        </DataArray>
        <DataArray type="Float32" Name="Moment" NumberOfComponents="3" format="ascii">
                       0.00000                       0.00000                       0.00000
                       0.00000                       0.00000                       0.00000
                       0.00000                       0.00000                       0.00000
                       0.00000                       0.00000                       0.00000
                     -39.78722                       6.74396                    -877.21428
                     -41.72163                       6.99148                    -909.36932
                     -39.18925                       6.48047                    -842.85910
                     -36.76095                       5.98931                    -778.93093
                     -33.27520                       5.33398                    -693.65737
                     -29.74688                       4.68567                    -609.30401
                     -25.21153                       3.89830                    -506.87730
                     -22.23494                       3.37233                    -438.45149
                     -19.20028                       2.85551                    -371.22511
                     -16.39854                       2.39219                    -310.96601
                     -13.70990                       1.96400                    -255.28349
                     -11.57414                       1.63577                    -212.60639
                      -9.37565                       1.31299                    -170.64594
                      -4.30040                       0.59796                     -77.71212
                      -4.27383                       0.59269                     -77.02690
        </DataArray>
      </PointData>
      <Lines>
        <DataArray type="Int32" Name="connectivity" format="ascii">
      0      1
      1      2
      2      3
      3      4
      4      5
      5      6
      6      7
      7      8
      8      9
      9     10
     10     11
     11     12
     12     13
     13     14
     14     15
     15     16
     16     17
     17     18
        </DataArray>
        <DataArray type="Int32" Name="offsets" format="ascii">
      2
      4
      6
      8
     10
     12
     14
     16
     18
     20
     22
     24
     26
     28
     30
     32
     34
     36
        </DataArray>
      </Lines>
    </Piece>
  </PolyData>
</VTKFile>
