<?xml version="1.0"?>
<VTKFile type="PolyData" version="0.1" byte_order="LittleEndian">
  <PolyData>
    <Piece NumberOfPoints="     19" NumberOfVerts="  0" NumberOfLines="     18"
           NumberOfStrips="  0" NumberOfPolys="      0">
      <Points>
        <DataArray type="Float32" NumberOfComponents="3" format="ascii">
                      -5.07612                       1.28992                      89.27034
                      -5.19565                       2.47732                      88.60423
                      -5.44956                       4.89769                      87.35549
                      -5.71041                       7.33931                      86.14529
                      -6.04048                      10.40354                      84.65404
                      -6.39455                      14.00987                      82.73163
                      -6.73418                      17.55030                      80.69054
                      -7.07579                      21.08726                      78.64385
                      -7.41709                      24.62006                      76.59004
                      -7.75874                      28.14984                      74.53121
                      -8.10176                      31.67864                      72.47112
                      -8.44549                      35.20604                      70.40887
                      -8.79053                      38.73228                      68.34498
                      -9.13753                      42.25761                      66.27996
                      -9.48469                      45.78232                      64.21400
                      -9.77397                      48.71921                      62.49172
                     -10.00609                      51.06445                      61.10678
                     -10.24320                      53.38171                      59.67417
                     -10.35914                      54.56114                      58.99364
        </DataArray>
      </Points>
      <PointData>
        <DataArray type="Float32" Name="TranslationalVelocity" NumberOfComponents="3" format="ascii">
                       0.03581                       0.00062                       0.01782
                       0.03552                       0.00583                       0.02716
                       0.03493                       0.01562                       0.04628
                       0.03398                       0.02513                       0.06568
                       0.03188                       0.03680                       0.09016
                       0.02749                       0.05172                       0.11901
                       0.02111                       0.06737                       0.14721
                       0.01327                       0.08277                       0.17504
                       0.00456                       0.09780                       0.20218
                      -0.00422                       0.11234                       0.22834
                      -0.01213                       0.12627                       0.25325
                      -0.01817                       0.13954                       0.27666
                      -0.02131                       0.15210                       0.29836
                      -0.02058                       0.16398                       0.31827
                      -0.01514                       0.17527                       0.33640
                      -0.00643                       0.18431                       0.35023
                       0.00330                       0.19143                       0.36059
                       0.01549                       0.19875                       0.37034
                       0.02264                       0.20225                       0.37518
        </DataArray>
        <DataArray type="Float32" Name="RotationalVelocity" NumberOfComponents="3" format="ascii">
                       0.00767                       0.00154                      -0.00068
                       0.00768                       0.00156                      -0.00065
                       0.00772                       0.00162                      -0.00054
                       0.00774                       0.00173                      -0.00038
                       0.00775                       0.00189                      -0.00012
                       0.00772                       0.00210                       0.00023
                       0.00764                       0.00231                       0.00056
                       0.00750                       0.00248                       0.00081
                       0.00730                       0.00258                       0.00093
                       0.00703                       0.00258                       0.00087
                       0.00671                       0.00245                       0.00059
                       0.00633                       0.00220                       0.00008
                       0.00593                       0.00181                      -0.00066
                       0.00552                       0.00132                      -0.00159
                       0.00514                       0.00073                      -0.00265
                       0.00486                       0.00022                      -0.00358
                       0.00469                      -0.00017                      -0.00430
                       0.00457                      -0.00054                      -0.00493
                       0.00454                      -0.00069                      -0.00521
        </DataArray>
        <DataArray type="Float32" Name="TranslationalAcceleration" NumberOfComponents="3" format="ascii">
                      -0.20354                       0.03017                      -0.07627
                      -0.05091                       0.01096                      -0.02087
                      -0.11971                       0.02775                      -0.04960
                      -0.15603                       0.03881                      -0.06367
                      -0.17348                       0.04759                      -0.06592
                      -0.16853                       0.05534                      -0.05253
                      -0.14917                       0.06405                      -0.02918
                      -0.11923                       0.07605                      -0.00091
                      -0.07165                       0.09326                       0.02893
                       0.00634                       0.11674                       0.05832
                       0.13009                       0.14681                       0.08627
                       0.31408                       0.18314                       0.11228
                       0.56876                       0.22490                       0.13615
                       0.89736                       0.27086                       0.15756
                       1.29276                       0.31909                       0.17554
                       1.65941                       0.35952                       0.18662
                       1.96020                       0.39106                       0.19204
                       2.24435                       0.42162                       0.19363
                       2.38503                       0.43587                       0.19189
        </DataArray>
        <DataArray type="Float32" Name="OrientationX" NumberOfComponents="3" format="ascii">
                       0.98419                       0.15099                       0.09256
                       0.98419                       0.15099                       0.09256
                       0.98419                       0.15101                       0.09255
                       0.98419                       0.15103                       0.09254
                       0.98418                       0.15107                       0.09253
                       0.98860                       0.13585                       0.06487
                       0.99117                       0.12475                       0.04492
                       0.99299                       0.11497                       0.02752
                       0.99448                       0.10456                       0.00915
                       0.99555                       0.09376                      -0.00970
                       0.99613                       0.08347                      -0.02748
                       0.99630                       0.07321                      -0.04507
                       0.99610                       0.06385                      -0.06094
                       0.99573                       0.05670                      -0.07290
                       0.99517                       0.04964                      -0.08464
                       0.99457                       0.04373                      -0.09444
                       0.99403                       0.03932                      -0.10173
                       0.99372                       0.03692                      -0.10558
                       0.99373                       0.03689                      -0.10554
        </DataArray>
        <DataArray type="Float32" Name="OrientationY" NumberOfComponents="3" format="ascii">
                       0.15421                      -0.47368                      -0.86709
                       0.15423                      -0.47383                      -0.86701
                       0.15427                      -0.47422                      -0.86678
                       0.15433                      -0.47472                      -0.86650
                       0.15441                      -0.47542                      -0.86610
                       0.12304                      -0.48090                      -0.86810
                       0.10039                      -0.48478                      -0.86886
                       0.08059                      -0.48802                      -0.86911
                       0.05963                      -0.49109                      -0.86907
                       0.03805                      -0.49389                      -0.86869
                       0.01764                      -0.49626                      -0.86800
                      -0.00260                      -0.49830                      -0.86700
                      -0.02093                      -0.49994                      -0.86581
                      -0.03477                      -0.50107                      -0.86471
                      -0.04840                      -0.50204                      -0.86349
                      -0.05979                      -0.50273                      -0.86238
                      -0.06826                      -0.50318                      -0.86148
                      -0.07277                      -0.50341                      -0.86098
                      -0.07275                      -0.50343                      -0.86097
        </DataArray>
        <DataArray type="Float32" Name="OrientationZ" NumberOfComponents="3" format="ascii">
                      -0.08708                       0.86766                      -0.48948
                      -0.08706                       0.86758                      -0.48963
                      -0.08700                       0.86736                      -0.49002
                      -0.08693                       0.86708                      -0.49052
                      -0.08685                       0.86669                      -0.49123
                      -0.08673                       0.86619                      -0.49213
                      -0.08662                       0.86569                      -0.49302
                      -0.08650                       0.86523                      -0.49386
                      -0.08637                       0.86481                      -0.49461
                      -0.08624                       0.86445                      -0.49526
                      -0.08609                       0.86415                      -0.49581
                      -0.08593                       0.86391                      -0.49627
                      -0.08575                       0.86371                      -0.49665
                      -0.08556                       0.86355                      -0.49696
                      -0.08536                       0.86342                      -0.49721
                      -0.08519                       0.86334                      -0.49738
                      -0.08506                       0.86329                      -0.49749
                      -0.08494                       0.86326                      -0.49757
                      -0.08489                       0.86325                      -0.49759
        </DataArray>
        <DataArray type="Float32" Name="Force" NumberOfComponents="3" format="ascii">
                      72.74268                     -14.00845                     -37.77303
                      63.62817                     -13.42307                     -35.10879
                      68.27455                     -13.43022                     -35.93439
                      56.42369                     -10.55476                     -28.71915
                     469.41867                      96.60548                      88.09890
                     408.60875                      73.95084                      58.87049
                     393.39545                      66.47073                      48.45500
                     320.23887                      49.07702                      30.64945
                     268.34295                      35.70657                      16.18544
                     251.08502                      30.63153                      10.31763
                     221.26668                      22.40191                       1.04234
                     205.38464                      18.69368                      -2.67015
                     171.12462                      13.14682                      -6.45502
                     156.38508                      10.91851                      -7.77133
                     141.53873                       8.91139                      -8.68907
                     129.12868                       7.39357                      -9.18400
                     115.67701                       6.13383                      -9.06196
                      77.95663                       3.95317                      -6.40696
                      77.51884                       3.92646                      -6.37024
        </DataArray>
        <DataArray type="Float32" Name="Moment" NumberOfComponents="3" format="ascii">
                       0.00000                       0.00000                       0.00000
                       0.00000                       0.00000                       0.00000
                       0.00000                       0.00000                       0.00000
                       0.00000                       0.00000                       0.00000
                      25.08909                    -251.10208                     141.66519
                      26.26391                    -263.44087                     148.63154
                      24.43203                    -245.61742                     138.58052
                      22.73952                    -229.11427                     129.27374
                      20.18882                    -203.86645                     115.03206
                      17.76579                    -179.79836                     101.45509
                      14.16522                    -143.68442                      81.07986
                      12.28667                    -124.92248                      70.49522
                      10.39335                    -105.93214                      59.78101
                       8.72851                     -89.19118                      50.33550
                       7.20147                     -73.77953                      41.63952
                       6.03866                     -61.99935                      34.99219
                       4.88043                     -50.18924                      28.32732
                       2.23580                     -23.02634                      12.99659
                       2.22112                     -22.89004                      12.91979
        </DataArray>
      </PointData>
      <Lines>
        <DataArray type="Int32" Name="connectivity" format="ascii">
      0      1
      1      2
      2      3
      3      4
      4      5
      5      6
      6      7
      7      8
      8      9
      9     10
     10     11
     11     12
     12     13
     13     14
     14     15
     15     16
     16     17
     17     18
        </DataArray>
        <DataArray type="Int32" Name="offsets" format="ascii">
      2
      4
      6
      8
     10
     12
     14
     16
     18
     20
     22
     24
     26
     28
     30
     32
     34
     36
        </DataArray>
      </Lines>
    </Piece>
  </PolyData>
</VTKFile>
