<?xml version="1.0"?>
<VTKFile type="PolyData" version="0.1" byte_order="LittleEndian">
  <PolyData>
    <Piece NumberOfPoints="     22" NumberOfVerts="  0" NumberOfLines="     21"
           NumberOfStrips="  0" NumberOfPolys="      0">
      <Points>
        <DataArray type="Float32" NumberOfComponents="3" format="ascii">
                       0.00002                       0.00000                       2.19000
                       0.00020                       0.00000                       6.57000
                       0.00058                       0.00001                      10.95000
                       0.00117                       0.00001                      15.33000
                       0.00196                       0.00002                      19.71000
                       0.00293                       0.00003                      24.09000
                       0.00406                       0.00005                      28.47000
                       0.00531                       0.00007                      32.85000
                       0.00668                       0.00009                      37.23000
                       0.00814                       0.00013                      41.61000
                       0.00966                       0.00017                      45.99000
                       0.01123                       0.00022                      50.37000
                       0.01286                       0.00028                      54.75000
                       0.01451                       0.00035                      59.13000
                       0.01620                       0.00044                      63.51000
                       0.01791                       0.00054                      67.89000
                       0.01962                       0.00064                      72.27000
                       0.02132                       0.00076                      76.65000
                       0.02295                       0.00089                      81.03000
                       0.02447                       0.00103                      85.41000
                       0.02516                       0.00110                      87.60000
                       0.00000                       0.00000                       0.00000
        </DataArray>
      </Points>
      <PointData>
        <DataArray type="Float32" Name="TranslationalVelocity" NumberOfComponents="3" format="ascii">
                       0.00001                      -0.00001                      -0.00000
                       0.00011                      -0.00005                      -0.00000
                       0.00033                      -0.00013                      -0.00000
                       0.00068                      -0.00024                      -0.00000
                       0.00116                      -0.00038                      -0.00000
                       0.00177                      -0.00055                      -0.00000
                       0.00250                      -0.00075                      -0.00000
                       0.00334                      -0.00098                      -0.00000
                       0.00429                      -0.00124                      -0.00000
                       0.00535                      -0.00153                      -0.00000
                       0.00651                      -0.00186                      -0.00000
                       0.00780                      -0.00222                      -0.00000
                       0.00919                      -0.00261                      -0.00000
                       0.01071                      -0.00303                      -0.00000
                       0.01236                      -0.00349                      -0.00000
                       0.01412                      -0.00397                      -0.00000
                       0.01599                      -0.00448                      -0.00001
                       0.01793                      -0.00501                      -0.00001
                       0.01991                      -0.00556                      -0.00001
                       0.02185                      -0.00612                      -0.00001
                       0.02278                      -0.00641                      -0.00001
                       0.00000                      -0.00000                       0.00000
        </DataArray>
        <DataArray type="Float32" Name="RotationalVelocity" NumberOfComponents="3" format="ascii">
                       0.00001                       0.00001                       0.00000
                       0.00001                       0.00004                       0.00000
                       0.00002                       0.00006                       0.00000
                       0.00003                       0.00009                       0.00000
                       0.00004                       0.00012                       0.00000
                       0.00004                       0.00015                       0.00000
                       0.00005                       0.00018                       0.00000
                       0.00006                       0.00020                       0.00000
                       0.00006                       0.00023                       0.00000
                       0.00007                       0.00025                       0.00000
                       0.00008                       0.00028                       0.00000
                       0.00009                       0.00031                       0.00000
                       0.00009                       0.00033                       0.00000
                       0.00010                       0.00036                       0.00000
                       0.00011                       0.00039                       0.00000
                       0.00011                       0.00042                       0.00000
                       0.00012                       0.00044                       0.00000
                       0.00012                       0.00045                       0.00000
                       0.00013                       0.00045                       0.00000
                       0.00013                       0.00043                       0.00000
                       0.00013                       0.00041                       0.00000
                       0.00000                      -0.00000                       0.00000
        </DataArray>
        <DataArray type="Float32" Name="TranslationalAcceleration" NumberOfComponents="3" format="ascii">
                      -0.00001                      -0.00001                       0.00000
                      -0.00012                      -0.00006                       0.00000
                      -0.00034                      -0.00016                       0.00000
                      -0.00071                      -0.00030                       0.00000
                      -0.00120                      -0.00048                       0.00000
                      -0.00183                      -0.00070                       0.00000
                      -0.00259                      -0.00095                       0.00000
                      -0.00346                      -0.00125                       0.00000
                      -0.00445                      -0.00159                       0.00000
                      -0.00555                      -0.00196                       0.00000
                      -0.00676                      -0.00239                       0.00000
                      -0.00809                      -0.00285                       0.00000
                      -0.00955                      -0.00337                       0.00000
                      -0.01113                      -0.00392                       0.00000
                      -0.01285                      -0.00452                       0.00000
                      -0.01468                      -0.00516                       0.00000
                      -0.01663                      -0.00583                       0.00000
                      -0.01867                      -0.00654                       0.00000
                      -0.02073                      -0.00726                       0.00000
                      -0.02276                      -0.00801                       0.00000
                      -0.02373                      -0.00840                      -0.00000
                       0.00000                      -0.00000                       0.00000
        </DataArray>
        <DataArray type="Float32" Name="RotationalAcceleration" NumberOfComponents="3" format="ascii">
                       0.00001                      -0.00001                       0.00000
                       0.00002                      -0.00004                       0.00000
                       0.00003                      -0.00007                       0.00000
                       0.00004                      -0.00010                       0.00000
                       0.00005                      -0.00013                       0.00000
                       0.00005                      -0.00016                       0.00000
                       0.00006                      -0.00019                       0.00000
                       0.00007                      -0.00021                       0.00000
                       0.00008                      -0.00024                       0.00000
                       0.00009                      -0.00026                       0.00000
                       0.00010                      -0.00029                       0.00000
                       0.00011                      -0.00032                       0.00000
                       0.00012                      -0.00035                       0.00000
                       0.00013                      -0.00038                       0.00000
                       0.00014                      -0.00041                       0.00000
                       0.00015                      -0.00043                       0.00000
                       0.00016                      -0.00046                       0.00000
                       0.00016                      -0.00047                       0.00000
                       0.00017                      -0.00047                       0.00000
                       0.00017                      -0.00045                       0.00000
                       0.00017                      -0.00043                       0.00000
                       0.00000                      -0.00000                       0.00000
        </DataArray>
        <DataArray type="Float32" Name="OrientationX" NumberOfComponents="3" format="ascii">
                       1.00000                      -0.00000                      -0.00002
                       1.00000                      -0.00000                      -0.00006
                       1.00000                      -0.00000                      -0.00011
                       1.00000                      -0.00000                      -0.00016
                       1.00000                      -0.00000                      -0.00020
                       1.00000                      -0.00000                      -0.00024
                       1.00000                      -0.00000                      -0.00027
                       1.00000                      -0.00000                      -0.00030
                       1.00000                      -0.00000                      -0.00032
                       1.00000                      -0.00000                      -0.00034
                       1.00000                      -0.00000                      -0.00035
                       1.00000                      -0.00000                      -0.00037
                       1.00000                      -0.00000                      -0.00037
                       1.00000                      -0.00000                      -0.00038
                       1.00000                      -0.00000                      -0.00039
                       1.00000                      -0.00000                      -0.00039
                       1.00000                      -0.00000                      -0.00039
                       1.00000                      -0.00000                      -0.00038
                       1.00000                      -0.00000                      -0.00036
                       1.00000                      -0.00000                      -0.00033
                       1.00000                      -0.00000                      -0.00030
                       1.00000                      -0.00000                       0.00000
        </DataArray>
        <DataArray type="Float32" Name="OrientationY" NumberOfComponents="3" format="ascii">
                      -0.00000                       1.00000                      -0.00000
                      -0.00000                       1.00000                      -0.00000
                      -0.00000                       1.00000                      -0.00000
                      -0.00000                       1.00000                      -0.00000
                      -0.00000                       1.00000                      -0.00000
                      -0.00000                       1.00000                      -0.00000
                      -0.00000                       1.00000                      -0.00000
                      -0.00000                       1.00000                      -0.00001
                      -0.00000                       1.00000                      -0.00001
                      -0.00000                       1.00000                      -0.00001
                      -0.00000                       1.00000                      -0.00001
                      -0.00000                       1.00000                      -0.00001
                      -0.00000                       1.00000                      -0.00002
                      -0.00000                       1.00000                      -0.00002
                      -0.00000                       1.00000                      -0.00002
                      -0.00000                       1.00000                      -0.00002
                      -0.00000                       1.00000                      -0.00003
                      -0.00000                       1.00000                      -0.00003
                      -0.00000                       1.00000                      -0.00003
                      -0.00000                       1.00000                      -0.00003
                      -0.00000                       1.00000                      -0.00003
                      -0.00000                       1.00000                      -0.00000
        </DataArray>
        <DataArray type="Float32" Name="OrientationZ" NumberOfComponents="3" format="ascii">
                       0.00002                       0.00000                       1.00000
                       0.00006                       0.00000                       1.00000
                       0.00011                       0.00000                       1.00000
                       0.00016                       0.00000                       1.00000
                       0.00020                       0.00000                       1.00000
                       0.00024                       0.00000                       1.00000
                       0.00027                       0.00000                       1.00000
                       0.00030                       0.00001                       1.00000
                       0.00032                       0.00001                       1.00000
                       0.00034                       0.00001                       1.00000
                       0.00035                       0.00001                       1.00000
                       0.00037                       0.00001                       1.00000
                       0.00037                       0.00002                       1.00000
                       0.00038                       0.00002                       1.00000
                       0.00039                       0.00002                       1.00000
                       0.00039                       0.00002                       1.00000
                       0.00039                       0.00003                       1.00000
                       0.00038                       0.00003                       1.00000
                       0.00036                       0.00003                       1.00000
                       0.00033                       0.00003                       1.00000
                       0.00030                       0.00003                       1.00000
                       0.00000                      -0.00000                       1.00000
        </DataArray>
      </PointData>
      <Lines>
        <DataArray type="Int32" Name="connectivity" format="ascii">
      0      1
      1      2
      2      3
      3      4
      4      5
      5      6
      6      7
      7      8
      8      9
      9     10
     10     11
     11     12
     12     13
     13     14
     14     15
     15     16
     16     17
     17     18
     18     19
     19     20
     21      0
        </DataArray>
        <DataArray type="Int32" Name="offsets" format="ascii">
      2
      4
      6
      8
     10
     12
     14
     16
     18
     20
     22
     24
     26
     28
     30
     32
     34
     36
     38
     40
     42
        </DataArray>
      </Lines>
    </Piece>
  </PolyData>
</VTKFile>
