<?xml version="1.0"?>
<VTKFile type="PolyData" version="0.1" byte_order="LittleEndian">
  <PolyData>
    <Piece NumberOfPoints="     19" NumberOfVerts="  0" NumberOfLines="     18"
           NumberOfStrips="  0" NumberOfPolys="      0">
      <Points>
        <DataArray type="Float32" NumberOfComponents="3" format="ascii">
                      -4.95576                      -1.04086                      91.07757
                      -4.93065                      -1.99440                      92.05633
                      -4.90827                      -3.96921                      93.94875
                      -4.89878                      -5.97665                      95.80971
                      -4.89401                      -8.50632                      98.11613
                      -4.82520                     -11.44306                     100.97781
                      -4.72225                     -14.28995                     103.92593
                      -4.61868                     -17.13755                     106.87341
                      -4.51153                     -19.98448                     109.82152
                      -4.40134                     -22.83186                     112.76918
                      -4.28933                     -25.68196                     115.71419
                      -4.17443                     -28.53342                     118.65783
                      -4.05715                     -31.38590                     121.60044
                      -3.93818                     -34.23913                     124.54228
                      -3.81590                     -37.09305                     127.48338
                      -3.71155                     -39.47178                     129.93382
                      -3.62640                     -41.36937                     131.89936
                      -3.53772                     -43.22804                     133.90314
                      -3.49621                     -44.18714                     134.87576
        </DataArray>
      </Points>
      <PointData>
        <DataArray type="Float32" Name="TranslationalVelocity" NumberOfComponents="3" format="ascii">
                       0.00704                      -0.21721                      -0.20683
                      -0.00926                      -0.41363                      -0.39776
                      -0.04304                      -0.79305                      -0.79330
                      -0.07733                      -1.16612                      -1.19555
                      -0.12040                      -1.62863                      -1.70278
                      -0.17001                      -2.20402                      -2.29215
                      -0.21759                      -2.79789                      -2.86406
                      -0.26466                      -3.39218                      -3.43664
                      -0.31111                      -3.98717                      -4.00959
                      -0.35690                      -4.58259                      -4.58308
                      -0.40199                      -5.17791                      -5.15752
                      -0.44632                      -5.77334                      -5.73258
                      -0.48986                      -6.36886                      -6.30813
                      -0.53262                      -6.96446                      -6.88406
                      -0.57463                      -7.56013                      -7.46031
                      -0.60909                      -8.05656                      -7.94074
                      -0.63626                      -8.45484                      -8.32406
                      -0.66250                      -8.86095                      -8.69960
                      -0.67608                      -9.05807                      -8.89341
        </DataArray>
        <DataArray type="Float32" Name="RotationalVelocity" NumberOfComponents="3" format="ascii">
                       0.20020                       0.00043                      -0.01754
                       0.20023                       0.00043                      -0.01753
                       0.20030                       0.00045                      -0.01752
                       0.20040                       0.00047                      -0.01750
                       0.20054                       0.00051                      -0.01746
                       0.20072                       0.00058                      -0.01740
                       0.20090                       0.00067                      -0.01732
                       0.20108                       0.00076                      -0.01723
                       0.20124                       0.00088                      -0.01713
                       0.20138                       0.00100                      -0.01701
                       0.20151                       0.00114                      -0.01688
                       0.20161                       0.00128                      -0.01675
                       0.20170                       0.00142                      -0.01661
                       0.20178                       0.00157                      -0.01648
                       0.20184                       0.00169                      -0.01635
                       0.20188                       0.00179                      -0.01626
                       0.20190                       0.00184                      -0.01620
                       0.20191                       0.00188                      -0.01615
                       0.20192                       0.00189                      -0.01614
        </DataArray>
        <DataArray type="Float32" Name="TranslationalAcceleration" NumberOfComponents="3" format="ascii">
                       0.01559                       0.01314                      -0.05229
                       0.00060                       0.03227                      -0.06476
                      -0.00059                       0.09747                      -0.18387
                      -0.00447                       0.16254                      -0.29276
                      -0.01178                       0.24293                      -0.41972
                      -0.02273                       0.33236                      -0.56656
                      -0.03449                       0.41615                      -0.71204
                      -0.04583                       0.50022                      -0.85713
                      -0.05621                       0.58502                      -1.00378
                      -0.06544                       0.67071                      -1.15257
                      -0.07358                       0.75721                      -1.30312
                      -0.08092                       0.84411                      -1.45459
                      -0.08780                       0.93104                      -1.60594
                      -0.09460                       1.01772                      -1.75629
                      -0.10157                       1.10408                      -1.90530
                      -0.10758                       1.17600                      -2.02876
                      -0.11248                       1.23335                      -2.12789
                      -0.11738                       1.28907                      -2.22927
                      -0.11967                       1.31869                      -2.27979
        </DataArray>
        <DataArray type="Float32" Name="OrientationX" NumberOfComponents="3" format="ascii">
                       0.95718                      -0.19475                      -0.21422
                       0.95717                      -0.19470                      -0.21427
                       0.95717                      -0.19456                      -0.21442
                       0.95716                      -0.19435                      -0.21466
                       0.95714                      -0.19402                      -0.21503
                       0.96584                      -0.17145                      -0.19431
                       0.97149                      -0.15490                      -0.17946
                       0.97600                      -0.14029                      -0.16657
                       0.98033                      -0.12479                      -0.15288
                       0.98433                      -0.10879                      -0.13876
                       0.98768                      -0.09356                      -0.12543
                       0.99059                      -0.07840                      -0.11220
                       0.99286                      -0.06458                      -0.10026
                       0.99435                      -0.05394                      -0.09139
                       0.99563                      -0.04350                      -0.08260
                       0.99656                      -0.03484                      -0.07516
                       0.99717                      -0.02844                      -0.06957
                       0.99746                      -0.02497                      -0.06666
                       0.99746                      -0.02491                      -0.06677
        </DataArray>
        <DataArray type="Float32" Name="OrientationY" NumberOfComponents="3" format="ascii">
                       0.28888                       0.69132                       0.66229
                       0.28888                       0.69123                       0.66238
                       0.28889                       0.69101                       0.66260
                       0.28891                       0.69074                       0.66288
                       0.28895                       0.69034                       0.66327
                       0.25834                       0.69567                       0.67030
                       0.23615                       0.69891                       0.67510
                       0.21670                       0.70140                       0.67903
                       0.19607                       0.70378                       0.68283
                       0.17478                       0.70595                       0.68636
                       0.15459                       0.70772                       0.68938
                       0.13452                       0.70921                       0.69205
                       0.11630                       0.71031                       0.69421
                       0.10251                       0.71097                       0.69571
                       0.08892                       0.71150                       0.69704
                       0.07753                       0.71186                       0.69803
                       0.06905                       0.71207                       0.69870
                       0.06454                       0.71216                       0.69905
                       0.06458                       0.71215                       0.69905
        </DataArray>
        <DataArray type="Float32" Name="OrientationZ" NumberOfComponents="3" format="ascii">
                       0.01911                      -0.69581                       0.71797
                       0.01914                      -0.69591                       0.71788
                       0.01926                      -0.69617                       0.71762
                       0.01944                      -0.69650                       0.71729
                       0.01976                      -0.69698                       0.71682
                       0.02025                      -0.69760                       0.71620
                       0.02086                      -0.69823                       0.71557
                       0.02157                      -0.69883                       0.71496
                       0.02238                      -0.69937                       0.71441
                       0.02329                      -0.69986                       0.71390
                       0.02427                      -0.70027                       0.71346
                       0.02531                      -0.70062                       0.71308
                       0.02639                      -0.70092                       0.71276
                       0.02745                      -0.70115                       0.71248
                       0.02845                      -0.70134                       0.71226
                       0.02919                      -0.70146                       0.71211
                       0.02967                      -0.70153                       0.71202
                       0.03002                      -0.70158                       0.71196
                       0.03014                      -0.70159                       0.71194
        </DataArray>
        <DataArray type="Float32" Name="Force" NumberOfComponents="3" format="ascii">
                      28.03729                     -28.63623                     -28.49883
                      92.03605                     -42.33260                     -43.48114
                      98.73045                     -40.66463                     -42.06260
                      73.78718                     -26.89297                     -28.06813
                     320.53412                     -88.10632                     -94.25866
                     323.37242                     -75.72538                     -82.58790
                     303.21822                     -65.35775                     -72.25000
                     289.35127                     -56.64310                     -63.70823
                     276.24083                     -46.35240                     -53.66828
                     266.72561                     -40.32577                     -47.87995
                     258.26590                     -31.52956                     -39.44230
                     249.55123                     -26.53085                     -34.67193
                     224.66372                     -19.37787                     -27.18940
                     215.43486                     -16.14852                     -24.04007
                     206.28861                     -13.03248                     -20.95514
                     198.58170                     -10.66418                     -18.55401
                     186.25761                      -8.69831                     -16.26441
                     131.85121                      -5.69123                     -11.12693
                      36.87859                      -1.46981                      -2.99988
        </DataArray>
        <DataArray type="Float32" Name="Moment" NumberOfComponents="3" format="ascii">
                       0.00000                       0.00000                       0.00000
                       0.00000                       0.00000                       0.00000
                       0.00000                       0.00000                       0.00000
                       0.00000                       0.00000                       0.00000
                      -9.88648                     346.51901                    -357.52119
                      -9.81415                     334.80326                    -345.41050
                      -8.85413                     292.60511                    -301.85117
                      -8.11663                     258.87562                    -267.03105
                      -7.26243                     222.88839                    -229.88609
                      -6.52853                     192.37534                    -198.39226
                      -5.46919                     154.51864                    -159.33177
                      -4.97061                     134.58829                    -138.76247
                      -4.46460                     115.94351                    -119.52344
                      -4.01540                     100.23203                    -103.31320
                      -3.56748                      85.93153                     -88.56215
                      -3.18921                      74.89495                     -77.18070
                      -2.71107                      62.63825                     -64.54610
                      -1.30409                      29.77867                     -30.68434
                      -0.32314                       7.35043                      -7.57387
        </DataArray>
      </PointData>
      <Lines>
        <DataArray type="Int32" Name="connectivity" format="ascii">
      0      1
      1      2
      2      3
      3      4
      4      5
      5      6
      6      7
      7      8
      8      9
      9     10
     10     11
     11     12
     12     13
     13     14
     14     15
     15     16
     16     17
     17     18
        </DataArray>
        <DataArray type="Int32" Name="offsets" format="ascii">
      2
      4
      6
      8
     10
     12
     14
     16
     18
     20
     22
     24
     26
     28
     30
     32
     34
     36
        </DataArray>
      </Lines>
    </Piece>
  </PolyData>
</VTKFile>
