<?xml version="1.0"?>
<VTKFile type="PolyData" version="0.1" byte_order="LittleEndian">
  <PolyData>
    <Piece NumberOfPoints="     19" NumberOfVerts="  0" NumberOfLines="     18"
           NumberOfStrips="  0" NumberOfPolys="      0">
      <Points>
        <DataArray type="Float32" NumberOfComponents="3" format="ascii">
                      -4.98226                       1.47489                      90.25627
                      -5.02231                       2.82106                      90.48894
                      -5.11555                       5.49702                      91.04796
                      -5.21412                       8.16567                      91.65024
                      -5.33904                      11.49779                      92.42737
                      -5.44448                      15.52298                      93.21109
                      -5.53118                      19.57114                      93.86068
                      -5.61227                      23.62042                      94.50365
                      -5.68337                      27.67113                      95.13839
                      -5.74292                      31.72285                      95.76728
                      -5.78972                      35.77488                      96.39452
                      -5.82117                      39.82741                      97.01902
                      -5.83621                      43.88033                      97.64122
                      -5.83429                      47.93354                      98.26148
                      -5.81296                      51.98696                      98.87981
                      -5.77994                      55.36495                      99.39345
                      -5.74524                      58.06855                      99.79541
                      -5.70866                      60.78083                     100.14206
                      -5.68439                      62.13034                     100.35582
        </DataArray>
      </Points>
      <PointData>
        <DataArray type="Float32" Name="TranslationalVelocity" NumberOfComponents="3" format="ascii">
                       0.03615                      -0.10695                       0.63994
                       0.08773                      -0.20646                       1.22449
                       0.19010                      -0.44566                       2.38650
                       0.29200                      -0.70345                       3.54531
                       0.41892                      -1.03616                       4.99220
                       0.57173                      -1.37250                       6.73996
                       0.72455                      -1.65131                       8.49758
                       0.87612                      -1.92746                      10.25555
                       1.02604                      -2.20042                      12.01400
                       1.17389                      -2.47127                      13.77276
                       1.31928                      -2.74187                      15.53155
                       1.46193                      -3.01185                      17.29047
                       1.60168                      -3.28142                      19.04952
                       1.73849                      -3.55073                      20.80871
                       1.87254                      -3.81987                      22.56805
                       1.98239                      -4.04394                      24.03431
                       2.06942                      -4.21955                      25.20794
                       2.15625                      -4.37118                      26.38542
                       2.19932                      -4.46473                      26.97133
        </DataArray>
        <DataArray type="Float32" Name="RotationalVelocity" NumberOfComponents="3" format="ascii">
                       0.43425                      -0.00038                      -0.03838
                       0.43425                      -0.00038                      -0.03837
                       0.43425                      -0.00039                      -0.03832
                       0.43424                      -0.00040                      -0.03826
                       0.43423                      -0.00043                      -0.03814
                       0.43421                      -0.00046                      -0.03795
                       0.43418                      -0.00049                      -0.03768
                       0.43414                      -0.00053                      -0.03733
                       0.43411                      -0.00056                      -0.03688
                       0.43407                      -0.00058                      -0.03634
                       0.43405                      -0.00059                      -0.03571
                       0.43404                      -0.00059                      -0.03500
                       0.43403                      -0.00059                      -0.03427
                       0.43404                      -0.00061                      -0.03354
                       0.43406                      -0.00064                      -0.03290
                       0.43408                      -0.00070                      -0.03248
                       0.43410                      -0.00078                      -0.03228
                       0.43411                      -0.00089                      -0.03224
                       0.43411                      -0.00096                      -0.03228
        </DataArray>
        <DataArray type="Float32" Name="TranslationalAcceleration" NumberOfComponents="3" format="ascii">
                      -0.02086                      -0.27445                      -0.00712
                      -0.00716                      -0.34395                      -0.00785
                      -0.01928                      -0.98519                      -0.03791
                      -0.02810                      -1.57781                      -0.07517
                      -0.03528                      -2.27258                      -0.12409
                      -0.03704                      -3.06347                      -0.15290
                      -0.03415                      -3.83343                      -0.15448
                      -0.03107                      -4.60083                      -0.15465
                      -0.02949                      -5.37531                      -0.15380
                      -0.03064                      -6.15984                      -0.15280
                      -0.03525                      -6.95262                      -0.15264
                      -0.04344                      -7.74911                      -0.15325
                      -0.05480                      -8.54387                      -0.15475
                      -0.06845                      -9.33250                      -0.15727
                      -0.08298                     -10.11350                      -0.16095
                      -0.09447                     -10.76053                      -0.16518
                      -0.10238                     -11.27904                      -0.16753
                      -0.11005                     -11.80330                      -0.15955
                      -0.11209                     -12.06917                      -0.16376
        </DataArray>
        <DataArray type="Float32" Name="OrientationX" NumberOfComponents="3" format="ascii">
                       0.98905                       0.00392                       0.14753
                       0.98905                       0.00383                       0.14752
                       0.98906                       0.00356                       0.14746
                       0.98908                       0.00316                       0.14737
                       0.98910                       0.00247                       0.14721
                       0.99326                       0.00667                       0.11576
                       0.99564                       0.00894                       0.09281
                       0.99731                       0.01023                       0.07255
                       0.99864                       0.01117                       0.05099
                       0.99952                       0.01162                       0.02864
                       0.99991                       0.01130                       0.00730
                       0.99985                       0.01039                      -0.01402
                       0.99940                       0.00874                      -0.03354
                       0.99880                       0.00610                      -0.04868
                       0.99797                       0.00342                      -0.06355
                       0.99712                       0.00143                      -0.07587
                       0.99639                       0.00010                      -0.08494
                       0.99595                      -0.00136                      -0.08991
                       0.99594                      -0.00220                      -0.09005
        </DataArray>
        <DataArray type="Float32" Name="OrientationY" NumberOfComponents="3" format="ascii">
                       0.14472                       0.17034                      -0.97470
                       0.14472                       0.17013                      -0.97474
                       0.14473                       0.16959                      -0.97483
                       0.14473                       0.16890                      -0.97495
                       0.14471                       0.16793                      -0.97512
                       0.11304                       0.16654                      -0.97953
                       0.09007                       0.16514                      -0.98215
                       0.06990                       0.16382                      -0.98401
                       0.04850                       0.16258                      -0.98550
                       0.02639                       0.16146                      -0.98653
                       0.00539                       0.16050                      -0.98702
                      -0.01550                       0.15970                      -0.98704
                      -0.03451                       0.15909                      -0.98666
                      -0.04903                       0.15866                      -0.98612
                      -0.06329                       0.15834                      -0.98535
                      -0.07514                       0.15815                      -0.98455
                      -0.08389                       0.15803                      -0.98386
                      -0.08857                       0.15791                      -0.98347
                      -0.08857                       0.15785                      -0.98348
        </DataArray>
        <DataArray type="Float32" Name="OrientationZ" NumberOfComponents="3" format="ascii">
                      -0.02895                       0.98538                       0.16791
                      -0.02884                       0.98541                       0.16772
                      -0.02848                       0.98551                       0.16722
                      -0.02797                       0.98563                       0.16660
                      -0.02713                       0.98580                       0.16574
                      -0.02581                       0.98601                       0.16466
                      -0.02410                       0.98623                       0.16362
                      -0.02195                       0.98644                       0.16266
                      -0.01930                       0.98663                       0.16181
                      -0.01609                       0.98681                       0.16107
                      -0.01232                       0.98697                       0.16042
                      -0.00802                       0.98711                       0.15984
                      -0.00329                       0.98723                       0.15930
                       0.00171                       0.98731                       0.15877
                       0.00669                       0.98738                       0.15824
                       0.01059                       0.98741                       0.15780
                       0.01332                       0.98744                       0.15746
                       0.01553                       0.98745                       0.15715
                       0.01638                       0.98746                       0.15701
        </DataArray>
        <DataArray type="Float32" Name="Force" NumberOfComponents="3" format="ascii">
                       0.20840                      -0.39568                       2.35800
                      72.24901                       1.77817                       1.96547
                      77.50258                       3.78354                      -9.08777
                      59.09238                       4.33572                     -15.64793
                     479.08742                      -7.59072                     121.58141
                     483.58890                      -4.37898                      99.45257
                     688.22831                     -24.03269                     239.06595
                     868.45941                     -16.59990                     209.61995
                     700.24371                     -19.29366                     192.74877
                     879.96940                     -18.73854                     192.94519
                     917.91486                     -22.34972                     197.31892
                     935.37938                     -24.65124                     188.34915
                    1063.07948                     -26.81000                     176.97608
                    1180.22461                     -30.30027                     164.48313
                    1254.66868                     -34.20664                     149.25991
                    1278.08312                     -37.10547                     135.58709
                    1249.64573                     -37.65226                     120.12141
                     900.59949                     -28.47449                      82.54773
                     251.17723                      -0.03094                     -25.84282
        </DataArray>
        <DataArray type="Float32" Name="Moment" NumberOfComponents="3" format="ascii">
                       0.00000                       0.00000                       0.00000
                       0.00000                       0.00000                       0.00000
                       0.00000                       0.00000                       0.00000
                       0.00000                       0.00000                       0.00000
                       7.80441                    -285.30990                     -48.56582
                       8.02994                    -309.72823                     -52.68324
                       8.00918                    -332.19976                     -56.45221
                      14.41368                    -659.52082                    -111.94393
                       5.73787                    -300.38874                     -50.91346
                       5.49260                    -347.52373                     -58.80121
                       4.38733                    -367.12600                     -61.99285
                       1.73838                    -229.65215                     -38.69012
                       0.69378                    -251.69202                     -42.29617
                      -0.66966                    -289.18267                     -48.46673
                      -2.10791                    -285.68119                     -47.75206
                      -2.84688                    -251.11941                     -41.88715
                      -3.06806                    -217.28004                     -36.18923
                      -1.53230                     -93.60845                     -15.57242
                      -1.36367                     -79.13917                     -13.15932
        </DataArray>
      </PointData>
      <Lines>
        <DataArray type="Int32" Name="connectivity" format="ascii">
      0      1
      1      2
      2      3
      3      4
      4      5
      5      6
      6      7
      7      8
      8      9
      9     10
     10     11
     11     12
     12     13
     13     14
     14     15
     15     16
     16     17
     17     18
        </DataArray>
        <DataArray type="Int32" Name="offsets" format="ascii">
      2
      4
      6
      8
     10
     12
     14
     16
     18
     20
     22
     24
     26
     28
     30
     32
     34
     36
        </DataArray>
      </Lines>
    </Piece>
  </PolyData>
</VTKFile>
