<?xml version="1.0"?>
<VTKFile type="PolyData" version="0.1" byte_order="LittleEndian">
  <PolyData>
    <Piece NumberOfPoints="     19" NumberOfVerts="  0" NumberOfLines="     18"
           NumberOfStrips="  0" NumberOfPolys="      0">
      <Points>
        <DataArray type="Float32" NumberOfComponents="3" format="ascii">
                      -4.88018                       1.15760                      90.95155
                      -4.86396                       2.21796                      91.81368
                      -4.84597                       4.27899                      93.61196
                      -4.83355                       6.31242                      95.44472
                      -4.81917                       8.83874                      97.75552
                      -4.75294                      11.96374                     100.41198
                      -4.66292                      15.17283                     102.96345
                      -4.56369                      18.38506                     105.51055
                      -4.44997                      21.60132                     108.05191
                      -4.31933                      24.82004                     110.58922
                      -4.16976                      28.03853                     113.12563
                      -3.99782                      31.25741                     115.66003
                      -3.80177                      34.47638                     118.19251
                      -3.58054                      37.69520                     120.72310
                      -3.33140                      40.91373                     123.25149
                      -3.10182                      43.59564                     125.35643
                      -2.90569                      45.74599                     127.03269
                      -2.70330                      47.93080                     128.66466
                      -2.59552                      48.99716                     129.51231
        </DataArray>
      </Points>
      <PointData>
        <DataArray type="Float32" Name="TranslationalVelocity" NumberOfComponents="3" format="ascii">
                       0.07077                      -0.58055                       0.70798
                       0.12829                      -1.10405                       1.35074
                       0.23995                      -2.19542                       2.60043
                       0.34998                      -3.30791                       3.83389
                       0.48652                      -4.71134                       5.36715
                       0.65516                      -6.32869                       7.26509
                       0.82784                      -7.88488                       9.21574
                       0.99984                      -9.44020                      11.16999
                       1.17067                     -10.99397                      13.12828
                       1.33962                     -12.54722                      15.08957
                       1.50586                     -14.10178                      17.05205
                       1.66873                     -15.65697                      19.01595
                       1.82751                     -17.21275                      20.98095
                       1.98158                     -18.76900                      22.94679
                       2.13041                     -20.32551                      24.91333
                       2.25005                     -21.62253                      26.55271
                       2.34323                     -22.65609                      27.86764
                       2.43579                     -23.66292                      29.20410
                       2.47966                     -24.18602                      29.85665
        </DataArray>
        <DataArray type="Float32" Name="RotationalVelocity" NumberOfComponents="3" format="ascii">
                       0.60611                       0.00026                      -0.05402
                       0.60618                       0.00025                      -0.05401
                       0.60639                       0.00022                      -0.05398
                       0.60667                       0.00018                      -0.05396
                       0.60705                       0.00013                      -0.05393
                       0.60756                       0.00001                      -0.05389
                       0.60806                      -0.00016                      -0.05383
                       0.60854                      -0.00043                      -0.05372
                       0.60897                      -0.00079                      -0.05351
                       0.60936                      -0.00126                      -0.05320
                       0.60969                      -0.00185                      -0.05274
                       0.60997                      -0.00255                      -0.05212
                       0.61021                      -0.00335                      -0.05135
                       0.61042                      -0.00420                      -0.05044
                       0.61061                      -0.00507                      -0.04944
                       0.61076                      -0.00577                      -0.04860
                       0.61087                      -0.00627                      -0.04795
                       0.61097                      -0.00669                      -0.04737
                       0.61101                      -0.00686                      -0.04712
        </DataArray>
        <DataArray type="Float32" Name="TranslationalAcceleration" NumberOfComponents="3" format="ascii">
                      -0.04216                      -0.46313                      -0.30642
                      -0.03785                      -0.56249                      -0.36959
                      -0.10918                      -1.59144                      -1.08492
                      -0.17555                      -2.52833                      -1.76113
                      -0.25481                      -3.61651                      -2.56377
                      -0.34347                      -4.87997                      -3.43689
                      -0.42863                      -6.13667                      -4.24826
                      -0.51328                      -7.39128                      -5.05851
                      -0.59460                      -8.66028                      -5.87777
                      -0.66857                      -9.94823                      -6.70999
                      -0.73076                     -11.25140                      -7.55445
                      -0.77724                     -12.56229                      -8.40584
                      -0.80565                     -13.87148                      -9.25842
                      -0.81607                     -15.17103                     -10.10771
                      -0.81195                     -16.45753                     -10.95273
                      -0.80285                     -17.52222                     -11.65671
                      -0.79770                     -18.37607                     -12.22081
                      -0.80384                     -19.24953                     -12.77581
                      -0.80794                     -19.68351                     -13.07209
        </DataArray>
        <DataArray type="Float32" Name="OrientationX" NumberOfComponents="3" format="ascii">
                       0.98665                      -0.11155                       0.11863
                       0.98665                      -0.11165                       0.11855
                       0.98665                      -0.11198                       0.11826
                       0.98664                      -0.11247                       0.11783
                       0.98664                      -0.11329                       0.11711
                       0.99130                      -0.09487                       0.09129
                       0.99401                      -0.08233                       0.07186
                       0.99593                      -0.07204                       0.05418
                       0.99749                      -0.06156                       0.03505
                       0.99858                      -0.05123                       0.01485
                       0.99910                      -0.04219                      -0.00501
                       0.99911                      -0.03379                      -0.02528
                       0.99864                      -0.02702                      -0.04448
                       0.99790                      -0.02332                      -0.06043
                       0.99690                      -0.01978                      -0.07617
                       0.99589                      -0.01658                      -0.08902
                       0.99505                      -0.01408                      -0.09839
                       0.99447                      -0.01359                      -0.10411
                       0.99438                      -0.01454                      -0.10491
        </DataArray>
        <DataArray type="Float32" Name="OrientationY" NumberOfComponents="3" format="ascii">
                       0.16238                       0.61909                      -0.76835
                       0.16237                       0.61895                      -0.76846
                       0.16235                       0.61859                      -0.76876
                       0.16232                       0.61814                      -0.76913
                       0.16226                       0.61749                      -0.76966
                       0.13058                       0.62000                      -0.77366
                       0.10757                       0.62126                      -0.77619
                       0.08733                       0.62209                      -0.77806
                       0.06583                       0.62287                      -0.77955
                       0.04360                       0.62356                      -0.78056
                       0.02244                       0.62409                      -0.78103
                       0.00136                       0.62454                      -0.78099
                      -0.01786                       0.62487                      -0.78052
                      -0.03262                       0.62507                      -0.77989
                      -0.04711                       0.62526                      -0.77900
                      -0.05914                       0.62539                      -0.77807
                      -0.06801                       0.62546                      -0.77729
                      -0.07278                       0.62544                      -0.77687
                      -0.07282                       0.62538                      -0.77691
        </DataArray>
        <DataArray type="Float32" Name="OrientationZ" NumberOfComponents="3" format="ascii">
                       0.01226                       0.77736                       0.62894
                       0.01243                       0.77745                       0.62882
                       0.01293                       0.77769                       0.62851
                       0.01367                       0.77798                       0.62814
                       0.01488                       0.77837                       0.62762
                       0.01679                       0.77884                       0.62699
                       0.01926                       0.77927                       0.62639
                       0.02235                       0.77963                       0.62584
                       0.02615                       0.77990                       0.62535
                       0.03072                       0.78010                       0.62490
                       0.03608                       0.78021                       0.62447
                       0.04218                       0.78026                       0.62403
                       0.04889                       0.78026                       0.62354
                       0.05596                       0.78022                       0.62300
                       0.06303                       0.78017                       0.62238
                       0.06857                       0.78014                       0.62184
                       0.07249                       0.78013                       0.62140
                       0.07567                       0.78016                       0.62099
                       0.07691                       0.78018                       0.62080
        </DataArray>
        <DataArray type="Float32" Name="Force" NumberOfComponents="3" format="ascii">
                       1.88167                     -17.10564                      21.10565
                      84.64683                     -23.52986                      27.40948
                      85.48692                     -13.51908                      14.94824
                      61.94338                      -2.24545                       1.42336
                     406.76168                     -73.71554                      81.45419
                     451.81447                     -68.97461                      73.13264
                     925.72177                    -221.75222                     245.71806
                     885.98377                    -191.97485                     205.79847
                     969.40354                    -188.27634                     192.43685
                    1067.63402                    -187.03243                     179.10351
                    1144.83123                    -199.06479                     180.57412
                    1180.67444                    -201.12697                     169.73692
                    1488.83200                    -215.95909                     151.52300
                    1601.47499                    -224.36764                     135.19502
                    1754.64519                    -232.04497                     111.26660
                    1834.95594                    -234.64506                      90.15894
                    1818.90788                    -227.09969                      71.14253
                    1361.23320                    -167.07622                      42.69486
                     417.05856                      -3.39713                     -47.36628
        </DataArray>
        <DataArray type="Float32" Name="Moment" NumberOfComponents="3" format="ascii">
                       0.00000                       0.00000                       0.00000
                       0.00000                       0.00000                       0.00000
                       0.00000                       0.00000                       0.00000
                       0.00000                       0.00000                       0.00000
                      -4.76619                    -247.32269                    -200.02439
                      -5.51492                    -253.11145                    -204.64928
                     -14.99790                    -599.70248                    -484.70784
                      -8.65801                    -298.33239                    -241.01960
                     -11.46578                    -337.91404                    -272.84928
                     -15.90552                    -399.47532                    -322.34744
                     -12.83085                    -274.74092                    -221.52722
                     -11.37212                    -208.54095                    -168.00374
                     -16.85220                    -266.89838                    -214.81251
                     -19.70630                    -272.84782                    -219.37993
                     -23.43697                    -288.23739                    -231.52022
                     -23.08060                    -260.97356                    -209.45528
                     -21.19452                    -226.72553                    -181.86620
                     -11.49185                    -117.75490                     -94.41307
                     -10.09752                    -101.80102                     -81.60713
        </DataArray>
      </PointData>
      <Lines>
        <DataArray type="Int32" Name="connectivity" format="ascii">
      0      1
      1      2
      2      3
      3      4
      4      5
      5      6
      6      7
      7      8
      8      9
      9     10
     10     11
     11     12
     12     13
     13     14
     14     15
     15     16
     16     17
     17     18
        </DataArray>
        <DataArray type="Int32" Name="offsets" format="ascii">
      2
      4
      6
      8
     10
     12
     14
     16
     18
     20
     22
     24
     26
     28
     30
     32
     34
     36
        </DataArray>
      </Lines>
    </Piece>
  </PolyData>
</VTKFile>
