<?xml version="1.0"?>
<VTKFile type="PolyData" version="0.1" byte_order="LittleEndian">
  <PolyData>
    <Piece NumberOfPoints="     22" NumberOfVerts="  0" NumberOfLines="     21"
           NumberOfStrips="  0" NumberOfPolys="      0">
      <Points>
        <DataArray type="Float32" NumberOfComponents="3" format="ascii">
                       0.00001                      -0.00000                       2.19000
                       0.00010                      -0.00002                       6.57000
                       0.00029                      -0.00004                      10.95000
                       0.00058                      -0.00008                      15.33000
                       0.00096                      -0.00012                      19.71000
                       0.00142                      -0.00017                      24.09000
                       0.00194                      -0.00023                      28.47000
                       0.00252                      -0.00030                      32.85000
                       0.00313                      -0.00037                      37.23000
                       0.00375                      -0.00044                      41.61000
                       0.00438                      -0.00052                      45.99000
                       0.00501                      -0.00060                      50.37000
                       0.00561                      -0.00067                      54.75000
                       0.00619                      -0.00075                      59.13000
                       0.00674                      -0.00083                      63.51000
                       0.00725                      -0.00090                      67.89000
                       0.00772                      -0.00097                      72.27000
                       0.00815                      -0.00103                      76.65000
                       0.00851                      -0.00109                      81.03000
                       0.00881                      -0.00114                      85.41000
                       0.00892                      -0.00117                      87.60000
                       0.00000                       0.00000                       0.00000
        </DataArray>
      </Points>
      <PointData>
        <DataArray type="Float32" Name="TranslationalVelocity" NumberOfComponents="3" format="ascii">
                      -0.00001                       0.00001                       0.00000
                      -0.00006                       0.00006                       0.00000
                      -0.00016                       0.00016                       0.00000
                      -0.00034                       0.00029                       0.00000
                      -0.00058                       0.00047                       0.00000
                      -0.00088                       0.00068                       0.00000
                      -0.00124                       0.00092                       0.00000
                      -0.00166                       0.00121                       0.00000
                      -0.00213                       0.00153                       0.00000
                      -0.00266                       0.00189                       0.00000
                      -0.00324                       0.00230                       0.00000
                      -0.00387                       0.00275                       0.00000
                      -0.00457                       0.00323                       0.00000
                      -0.00532                       0.00376                       0.00000
                      -0.00614                       0.00433                       0.00000
                      -0.00701                       0.00494                       0.00000
                      -0.00794                       0.00557                       0.00000
                      -0.00891                       0.00624                       0.00000
                      -0.00989                       0.00693                       0.00000
                      -0.01085                       0.00763                       0.00000
                      -0.01131                       0.00799                       0.00000
                       0.00000                      -0.00000                       0.00000
        </DataArray>
        <DataArray type="Float32" Name="RotationalVelocity" NumberOfComponents="3" format="ascii">
                      -0.00001                      -0.00001                       0.00000
                      -0.00002                      -0.00002                       0.00000
                      -0.00003                      -0.00003                       0.00000
                      -0.00004                      -0.00005                       0.00000
                      -0.00004                      -0.00006                       0.00000
                      -0.00005                      -0.00008                       0.00000
                      -0.00006                      -0.00009                       0.00000
                      -0.00007                      -0.00010                       0.00000
                      -0.00008                      -0.00011                       0.00000
                      -0.00009                      -0.00013                       0.00000
                      -0.00010                      -0.00014                       0.00000
                      -0.00011                      -0.00015                       0.00000
                      -0.00012                      -0.00017                       0.00000
                      -0.00013                      -0.00018                       0.00000
                      -0.00013                      -0.00019                       0.00000
                      -0.00014                      -0.00021                       0.00000
                      -0.00015                      -0.00022                       0.00000
                      -0.00015                      -0.00022                       0.00000
                      -0.00016                      -0.00022                       0.00000
                      -0.00016                      -0.00021                       0.00000
                      -0.00016                      -0.00021                       0.00000
                       0.00000                      -0.00000                       0.00000
        </DataArray>
        <DataArray type="Float32" Name="TranslationalAcceleration" NumberOfComponents="3" format="ascii">
                       0.00002                      -0.00001                      -0.00000
                       0.00023                      -0.00006                      -0.00000
                       0.00071                      -0.00016                      -0.00000
                       0.00146                      -0.00030                      -0.00000
                       0.00252                      -0.00048                      -0.00000
                       0.00386                      -0.00069                      -0.00000
                       0.00549                      -0.00094                      -0.00000
                       0.00741                      -0.00124                      -0.00000
                       0.00960                      -0.00157                      -0.00000
                       0.01209                      -0.00194                      -0.00000
                       0.01489                      -0.00235                      -0.00000
                       0.01801                      -0.00281                      -0.00000
                       0.02148                      -0.00331                      -0.00000
                       0.02531                      -0.00385                      -0.00000
                       0.02952                      -0.00444                      -0.00001
                       0.03409                      -0.00506                      -0.00001
                       0.03899                      -0.00571                      -0.00001
                       0.04415                      -0.00639                      -0.00001
                       0.04945                      -0.00710                      -0.00001
                       0.05470                      -0.00782                      -0.00001
                       0.05723                      -0.00819                      -0.00001
                       0.00000                      -0.00000                       0.00000
        </DataArray>
        <DataArray type="Float32" Name="RotationalAcceleration" NumberOfComponents="3" format="ascii">
                       0.00001                       0.00002                       0.00000
                       0.00002                       0.00008                       0.00000
                       0.00003                       0.00014                       0.00000
                       0.00004                       0.00021                       0.00000
                       0.00004                       0.00027                       0.00000
                       0.00005                       0.00034                       0.00000
                       0.00006                       0.00040                       0.00000
                       0.00007                       0.00047                       0.00000
                       0.00008                       0.00053                       0.00000
                       0.00009                       0.00060                       0.00000
                       0.00010                       0.00067                       0.00000
                       0.00011                       0.00075                       0.00000
                       0.00012                       0.00083                       0.00000
                       0.00013                       0.00092                       0.00000
                       0.00014                       0.00100                       0.00000
                       0.00015                       0.00108                       0.00000
                       0.00015                       0.00115                       0.00000
                       0.00016                       0.00120                       0.00000
                       0.00016                       0.00121                       0.00000
                       0.00017                       0.00118                       0.00000
                       0.00017                       0.00113                       0.00000
                       0.00000                      -0.00000                       0.00000
        </DataArray>
        <DataArray type="Float32" Name="OrientationX" NumberOfComponents="3" format="ascii">
                       1.00000                       0.00000                      -0.00001
                       1.00000                       0.00000                      -0.00003
                       1.00000                       0.00000                      -0.00005
                       1.00000                       0.00000                      -0.00008
                       1.00000                       0.00000                      -0.00010
                       1.00000                       0.00000                      -0.00011
                       1.00000                       0.00000                      -0.00013
                       1.00000                       0.00000                      -0.00014
                       1.00000                       0.00000                      -0.00014
                       1.00000                       0.00000                      -0.00014
                       1.00000                       0.00000                      -0.00014
                       1.00000                       0.00000                      -0.00014
                       1.00000                       0.00000                      -0.00014
                       1.00000                       0.00000                      -0.00013
                       1.00000                       0.00000                      -0.00012
                       1.00000                       0.00000                      -0.00011
                       1.00000                       0.00000                      -0.00010
                       1.00000                       0.00000                      -0.00009
                       1.00000                       0.00000                      -0.00008
                       1.00000                       0.00000                      -0.00006
                       1.00000                       0.00000                      -0.00005
                       1.00000                      -0.00000                       0.00000
        </DataArray>
        <DataArray type="Float32" Name="OrientationY" NumberOfComponents="3" format="ascii">
                       0.00000                       1.00000                       0.00000
                       0.00000                       1.00000                       0.00000
                       0.00000                       1.00000                       0.00001
                       0.00000                       1.00000                       0.00001
                       0.00000                       1.00000                       0.00001
                       0.00000                       1.00000                       0.00001
                       0.00000                       1.00000                       0.00001
                       0.00000                       1.00000                       0.00002
                       0.00000                       1.00000                       0.00002
                       0.00000                       1.00000                       0.00002
                       0.00000                       1.00000                       0.00002
                       0.00000                       1.00000                       0.00002
                       0.00000                       1.00000                       0.00002
                       0.00000                       1.00000                       0.00002
                       0.00000                       1.00000                       0.00002
                       0.00000                       1.00000                       0.00002
                       0.00000                       1.00000                       0.00001
                       0.00000                       1.00000                       0.00001
                       0.00000                       1.00000                       0.00001
                       0.00000                       1.00000                       0.00001
                       0.00000                       1.00000                       0.00001
                      -0.00000                       1.00000                      -0.00000
        </DataArray>
        <DataArray type="Float32" Name="OrientationZ" NumberOfComponents="3" format="ascii">
                       0.00001                      -0.00000                       1.00000
                       0.00003                      -0.00000                       1.00000
                       0.00005                      -0.00001                       1.00000
                       0.00008                      -0.00001                       1.00000
                       0.00010                      -0.00001                       1.00000
                       0.00011                      -0.00001                       1.00000
                       0.00013                      -0.00001                       1.00000
                       0.00014                      -0.00002                       1.00000
                       0.00014                      -0.00002                       1.00000
                       0.00014                      -0.00002                       1.00000
                       0.00014                      -0.00002                       1.00000
                       0.00014                      -0.00002                       1.00000
                       0.00014                      -0.00002                       1.00000
                       0.00013                      -0.00002                       1.00000
                       0.00012                      -0.00002                       1.00000
                       0.00011                      -0.00002                       1.00000
                       0.00010                      -0.00001                       1.00000
                       0.00009                      -0.00001                       1.00000
                       0.00008                      -0.00001                       1.00000
                       0.00006                      -0.00001                       1.00000
                       0.00005                      -0.00001                       1.00000
                       0.00000                      -0.00000                       1.00000
        </DataArray>
      </PointData>
      <Lines>
        <DataArray type="Int32" Name="connectivity" format="ascii">
      0      1
      1      2
      2      3
      3      4
      4      5
      5      6
      6      7
      7      8
      8      9
      9     10
     10     11
     11     12
     12     13
     13     14
     14     15
     15     16
     16     17
     17     18
     18     19
     19     20
     21      0
        </DataArray>
        <DataArray type="Int32" Name="offsets" format="ascii">
      2
      4
      6
      8
     10
     12
     14
     16
     18
     20
     22
     24
     26
     28
     30
     32
     34
     36
     38
     40
     42
        </DataArray>
      </Lines>
    </Piece>
  </PolyData>
</VTKFile>
