<?xml version="1.0"?>
<VTKFile type="PolyData" version="0.1" byte_order="LittleEndian">
  <PolyData>
    <Piece NumberOfPoints="     22" NumberOfVerts="  0" NumberOfLines="     21"
           NumberOfStrips="  0" NumberOfPolys="      0">
      <Points>
        <DataArray type="Float32" NumberOfComponents="3" format="ascii">
                       0.00010                      -0.00003                       2.19000
                       0.00100                      -0.00029                       6.57000
                       0.00298                      -0.00076                      10.95000
                       0.00614                      -0.00142                      15.33000
                       0.01050                      -0.00227                      19.71000
                       0.01604                      -0.00329                      24.08999
                       0.02270                      -0.00449                      28.46999
                       0.03046                      -0.00588                      32.84998
                       0.03928                      -0.00745                      37.22997
                       0.04918                      -0.00922                      41.60996
                       0.06019                      -0.01119                      45.98994
                       0.07235                      -0.01336                      50.36993
                       0.08572                      -0.01574                      54.74991
                       0.10035                      -0.01831                      59.12988
                       0.11628                      -0.02107                      63.50985
                       0.13346                      -0.02401                      67.88982
                       0.15177                      -0.02710                      72.26978
                       0.17094                      -0.03034                      76.64973
                       0.19051                      -0.03368                      81.02969
                       0.20980                      -0.03711                      85.40965
                       0.21904                      -0.03886                      87.59962
                       0.00000                       0.00000                       0.00000
        </DataArray>
      </Points>
      <PointData>
        <DataArray type="Float32" Name="TranslationalVelocity" NumberOfComponents="3" format="ascii">
                      -0.00000                       0.00001                       0.00000
                      -0.00001                       0.00010                       0.00000
                      -0.00004                       0.00026                       0.00000
                      -0.00009                       0.00049                       0.00000
                      -0.00016                       0.00078                       0.00000
                      -0.00025                       0.00113                       0.00000
                      -0.00035                       0.00153                       0.00000
                      -0.00047                       0.00198                       0.00000
                      -0.00062                       0.00249                       0.00000
                      -0.00078                       0.00305                       0.00000
                      -0.00096                       0.00366                       0.00000
                      -0.00117                       0.00431                       0.00000
                      -0.00139                       0.00501                       0.00000
                      -0.00165                       0.00575                       0.00001
                      -0.00193                       0.00653                       0.00001
                      -0.00223                       0.00733                       0.00001
                      -0.00256                       0.00816                       0.00001
                      -0.00290                       0.00901                       0.00001
                      -0.00326                       0.00987                       0.00002
                      -0.00361                       0.01074                       0.00002
                      -0.00378                       0.01117                       0.00002
                       0.00000                      -0.00000                       0.00000
        </DataArray>
        <DataArray type="Float32" Name="RotationalVelocity" NumberOfComponents="3" format="ascii">
                      -0.00001                      -0.00000                       0.00000
                      -0.00003                      -0.00000                       0.00000
                      -0.00005                      -0.00001                       0.00000
                      -0.00006                      -0.00001                       0.00000
                      -0.00007                      -0.00002                       0.00000
                      -0.00009                      -0.00002                       0.00000
                      -0.00010                      -0.00003                       0.00000
                      -0.00011                      -0.00003                       0.00000
                      -0.00012                      -0.00003                       0.00000
                      -0.00013                      -0.00004                       0.00000
                      -0.00014                      -0.00004                       0.00000
                      -0.00015                      -0.00005                       0.00000
                      -0.00016                      -0.00005                       0.00000
                      -0.00017                      -0.00006                       0.00000
                      -0.00018                      -0.00007                       0.00000
                      -0.00019                      -0.00007                       0.00000
                      -0.00019                      -0.00008                       0.00000
                      -0.00019                      -0.00008                       0.00000
                      -0.00020                      -0.00008                       0.00000
                      -0.00020                      -0.00008                       0.00000
                      -0.00020                      -0.00008                       0.00000
                       0.00000                      -0.00000                       0.00000
        </DataArray>
        <DataArray type="Float32" Name="TranslationalAcceleration" NumberOfComponents="3" format="ascii">
                       0.00001                       0.00009                       0.00000
                       0.00013                       0.00073                       0.00000
                       0.00042                       0.00191                      -0.00000
                       0.00094                       0.00357                      -0.00000
                       0.00170                       0.00564                      -0.00000
                       0.00274                       0.00811                      -0.00000
                       0.00409                       0.01095                      -0.00000
                       0.00578                       0.01415                      -0.00000
                       0.00785                       0.01769                      -0.00001
                       0.01037                       0.02155                      -0.00001
                       0.01337                       0.02571                      -0.00002
                       0.01694                       0.03016                      -0.00003
                       0.02112                       0.03485                      -0.00004
                       0.02597                       0.03975                      -0.00005
                       0.03152                       0.04481                      -0.00007
                       0.03776                       0.05000                      -0.00009
                       0.04466                       0.05526                      -0.00011
                       0.05210                       0.06058                      -0.00014
                       0.05993                       0.06590                      -0.00017
                       0.06786                       0.07124                      -0.00020
                       0.07176                       0.07392                      -0.00022
                       0.00000                      -0.00000                       0.00000
        </DataArray>
        <DataArray type="Float32" Name="RotationalAcceleration" NumberOfComponents="3" format="ascii">
                      -0.00008                       0.00001                       0.00000
                      -0.00021                       0.00005                       0.00000
                      -0.00033                       0.00009                       0.00000
                      -0.00043                       0.00014                       0.00000
                      -0.00052                       0.00021                       0.00000
                      -0.00061                       0.00027                       0.00000
                      -0.00069                       0.00035                       0.00000
                      -0.00077                       0.00043                       0.00000
                      -0.00085                       0.00052                       0.00000
                      -0.00092                       0.00063                       0.00000
                      -0.00098                       0.00075                       0.00000
                      -0.00104                       0.00088                       0.00000
                      -0.00110                       0.00103                       0.00000
                      -0.00114                       0.00119                       0.00000
                      -0.00117                       0.00135                       0.00000
                      -0.00119                       0.00150                       0.00000
                      -0.00121                       0.00164                       0.00000
                      -0.00122                       0.00175                       0.00000
                      -0.00122                       0.00181                       0.00000
                      -0.00122                       0.00180                       0.00000
                      -0.00122                       0.00175                       0.00000
                       0.00000                      -0.00000                       0.00000
        </DataArray>
        <DataArray type="Float32" Name="OrientationX" NumberOfComponents="3" format="ascii">
                       1.00000                       0.00000                      -0.00009
                       1.00000                       0.00000                      -0.00032
                       1.00000                       0.00000                      -0.00059
                       1.00000                       0.00000                      -0.00086
                       1.00000                       0.00000                      -0.00113
                       1.00000                       0.00000                      -0.00139
                       1.00000                       0.00000                      -0.00165
                       1.00000                       0.00000                      -0.00189
                       1.00000                       0.00000                      -0.00214
                       1.00000                       0.00000                      -0.00238
                       1.00000                       0.00000                      -0.00264
                       1.00000                       0.00000                      -0.00291
                       0.99999                       0.00000                      -0.00320
                       0.99999                       0.00000                      -0.00349
                       0.99999                       0.00000                      -0.00378
                       0.99999                       0.00000                      -0.00406
                       0.99999                       0.00000                      -0.00429
                       0.99999                       0.00000                      -0.00444
                       0.99999                       0.00000                      -0.00447
                       0.99999                       0.00000                      -0.00430
                       0.99999                       0.00000                      -0.00413
                       1.00000                      -0.00000                       0.00000
        </DataArray>
        <DataArray type="Float32" Name="OrientationY" NumberOfComponents="3" format="ascii">
                       0.00000                       1.00000                       0.00003
                       0.00000                       1.00000                       0.00008
                       0.00000                       1.00000                       0.00013
                       0.00000                       1.00000                       0.00017
                       0.00000                       1.00000                       0.00021
                       0.00000                       1.00000                       0.00025
                       0.00000                       1.00000                       0.00029
                       0.00000                       1.00000                       0.00034
                       0.00000                       1.00000                       0.00038
                       0.00000                       1.00000                       0.00043
                       0.00000                       1.00000                       0.00047
                       0.00000                       1.00000                       0.00052
                       0.00000                       1.00000                       0.00057
                       0.00000                       1.00000                       0.00061
                       0.00000                       1.00000                       0.00065
                       0.00000                       1.00000                       0.00069
                       0.00000                       1.00000                       0.00072
                       0.00000                       1.00000                       0.00075
                       0.00000                       1.00000                       0.00077
                       0.00000                       1.00000                       0.00079
                       0.00000                       1.00000                       0.00080
                      -0.00000                       1.00000                      -0.00000
        </DataArray>
        <DataArray type="Float32" Name="OrientationZ" NumberOfComponents="3" format="ascii">
                       0.00009                      -0.00003                       1.00000
                       0.00032                      -0.00008                       1.00000
                       0.00059                      -0.00013                       1.00000
                       0.00086                      -0.00017                       1.00000
                       0.00113                      -0.00021                       1.00000
                       0.00139                      -0.00025                       1.00000
                       0.00165                      -0.00029                       1.00000
                       0.00189                      -0.00034                       1.00000
                       0.00214                      -0.00038                       1.00000
                       0.00238                      -0.00043                       1.00000
                       0.00264                      -0.00047                       1.00000
                       0.00291                      -0.00052                       1.00000
                       0.00320                      -0.00057                       0.99999
                       0.00349                      -0.00061                       0.99999
                       0.00378                      -0.00065                       0.99999
                       0.00406                      -0.00069                       0.99999
                       0.00429                      -0.00072                       0.99999
                       0.00444                      -0.00075                       0.99999
                       0.00447                      -0.00077                       0.99999
                       0.00430                      -0.00079                       0.99999
                       0.00413                      -0.00080                       0.99999
                       0.00000                      -0.00000                       1.00000
        </DataArray>
      </PointData>
      <Lines>
        <DataArray type="Int32" Name="connectivity" format="ascii">
      0      1
      1      2
      2      3
      3      4
      4      5
      5      6
      6      7
      7      8
      8      9
      9     10
     10     11
     11     12
     12     13
     13     14
     14     15
     15     16
     16     17
     17     18
     18     19
     19     20
     21      0
        </DataArray>
        <DataArray type="Int32" Name="offsets" format="ascii">
      2
      4
      6
      8
     10
     12
     14
     16
     18
     20
     22
     24
     26
     28
     30
     32
     34
     36
     38
     40
     42
        </DataArray>
      </Lines>
    </Piece>
  </PolyData>
</VTKFile>
