<?xml version="1.0"?>
<VTKFile type="PolyData" version="0.1" byte_order="LittleEndian">
  <PolyData>
    <Piece NumberOfPoints="     19" NumberOfVerts="  0" NumberOfLines="     18"
           NumberOfStrips="  0" NumberOfPolys="      0">
      <Points>
        <DataArray type="Float32" NumberOfComponents="3" format="ascii">
                      -5.10412                      -1.30326                      89.25854
                      -5.22448                      -2.48253                      88.57830
                      -5.49420                      -4.79213                      87.13784
                      -5.77720                      -7.07796                      85.65857
                      -6.13801                      -9.92018                      83.78485
                      -6.50532                     -13.40261                      81.65029
                      -6.83576                     -16.94929                      79.62076
                      -7.16438                     -20.49515                      77.58938
                      -7.48797                     -24.04136                      75.55761
                      -7.80686                     -27.58717                      73.52421
                      -8.12210                     -31.13094                      71.48658
                      -8.43237                     -34.67374                      69.44639
                      -8.73799                     -38.21582                      67.40417
                      -9.03951                     -41.75737                      65.36036
                      -9.33520                     -45.29856                      63.31502
                      -9.57714                     -48.24935                      61.60950
                      -9.76765                     -50.61380                      60.25127
                      -9.95277                     -53.00612                      58.93966
                     -10.04831                     -54.18087                      58.24798
        </DataArray>
      </Points>
      <PointData>
        <DataArray type="Float32" Name="TranslationalVelocity" NumberOfComponents="3" format="ascii">
                       0.06891                      -0.00944                      -0.00006
                       0.06747                      -0.00604                      -0.00570
                       0.06427                       0.00107                      -0.01650
                       0.06031                       0.00823                      -0.02681
                       0.05353                       0.01712                      -0.03896
                       0.04186                       0.02698                      -0.05296
                       0.02531                       0.03621                      -0.06624
                       0.00311                       0.04550                      -0.07868
                      -0.02476                       0.05504                      -0.09064
                      -0.05768                       0.06500                      -0.10259
                      -0.09430                       0.07557                      -0.11504
                      -0.13240                       0.08682                      -0.12853
                      -0.16886                       0.09881                      -0.14361
                      -0.19949                       0.11144                      -0.16076
                      -0.21900                       0.12452                      -0.18040
                      -0.22168                       0.13550                      -0.19894
                      -0.21226                       0.14409                      -0.21520
                      -0.19012                       0.15204                      -0.23288
                      -0.17284                       0.15603                      -0.24211
        </DataArray>
        <DataArray type="Float32" Name="RotationalVelocity" NumberOfComponents="3" format="ascii">
                       0.00498                       0.00125                      -0.00040
                       0.00494                       0.00128                      -0.00046
                       0.00482                       0.00138                      -0.00065
                       0.00468                       0.00154                      -0.00098
                       0.00447                       0.00181                      -0.00158
                       0.00420                       0.00221                      -0.00256
                       0.00397                       0.00265                      -0.00379
                       0.00379                       0.00303                      -0.00517
                       0.00370                       0.00324                      -0.00658
                       0.00371                       0.00319                      -0.00788
                       0.00383                       0.00276                      -0.00889
                       0.00406                       0.00186                      -0.00941
                       0.00441                       0.00041                      -0.00924
                       0.00484                      -0.00164                      -0.00817
                       0.00534                      -0.00430                      -0.00595
                       0.00578                      -0.00694                      -0.00311
                       0.00612                      -0.00932                      -0.00005
                       0.00644                      -0.01188                       0.00377
                       0.00659                      -0.01321                       0.00598
        </DataArray>
        <DataArray type="Float32" Name="TranslationalAcceleration" NumberOfComponents="3" format="ascii">
                       0.09811                       0.00921                       0.11985
                       0.01319                       0.00685                       0.03161
                       0.02075                       0.01905                       0.07631
                       0.01043                       0.02946                       0.10091
                      -0.01574                       0.04092                       0.11127
                      -0.04743                       0.05316                       0.09998
                      -0.06893                       0.06614                       0.07298
                      -0.08128                       0.08261                       0.03819
                      -0.08971                       0.10434                      -0.00132
                      -0.10697                       0.13265                      -0.04433
                      -0.15381                       0.16846                      -0.09042
                      -0.25847                       0.21227                      -0.13927
                      -0.45729                       0.26417                      -0.18922
                      -0.79482                       0.32386                      -0.23625
                      -1.32418                       0.39084                      -0.27377
                      -1.96155                       0.45168                      -0.28960
                      -2.61989                       0.50270                      -0.28686
                      -3.41813                       0.55402                      -0.26600
                      -3.90012                       0.58150                      -0.24339
        </DataArray>
        <DataArray type="Float32" Name="OrientationX" NumberOfComponents="3" format="ascii">
                       0.94920                       0.07877                      -0.30464
                       0.94921                       0.07885                      -0.30460
                       0.94924                       0.07912                      -0.30445
                       0.94927                       0.07950                      -0.30424
                       0.94933                       0.08011                      -0.30391
                       0.95856                       0.06505                      -0.27738
                       0.96463                       0.05450                      -0.25790
                       0.96954                       0.04550                      -0.24068
                       0.97430                       0.03599                      -0.22237
                       0.97874                       0.02625                      -0.20342
                       0.98252                       0.01717                      -0.18534
                       0.98587                       0.00825                      -0.16730
                       0.98856                       0.00035                      -0.15080
                       0.99041                      -0.00527                      -0.13807
                       0.99203                      -0.01084                      -0.12553
                       0.99323                      -0.01561                      -0.11509
                       0.99404                      -0.01923                      -0.10734
                       0.99445                      -0.02097                      -0.10309
                       0.99447                      -0.02074                      -0.10298
        </DataArray>
        <DataArray type="Float32" Name="OrientationY" NumberOfComponents="3" format="ascii">
                       0.30231                      -0.49689                       0.81346
                       0.30230                      -0.49702                       0.81338
                       0.30227                      -0.49736                       0.81318
                       0.30223                      -0.49778                       0.81294
                       0.30219                      -0.49838                       0.81258
                       0.27172                      -0.50146                       0.82140
                       0.24958                      -0.50360                       0.82710
                       0.23016                      -0.50532                       0.83167
                       0.20957                      -0.50682                       0.83619
                       0.18831                      -0.50804                       0.84049
                       0.16815                      -0.50895                       0.84421
                       0.14810                      -0.50959                       0.84758
                       0.12989                      -0.50998                       0.85032
                       0.11609                      -0.51021                       0.85218
                       0.10247                      -0.51030                       0.85387
                       0.09107                      -0.51028                       0.85517
                       0.08257                      -0.51022                       0.85607
                       0.07803                      -0.51018                       0.85652
                       0.07805                      -0.51019                       0.85651
        </DataArray>
        <DataArray type="Float32" Name="OrientationZ" NumberOfComponents="3" format="ascii">
                      -0.08730                      -0.86423                      -0.49546
                      -0.08725                      -0.86415                      -0.49561
                      -0.08708                      -0.86393                      -0.49603
                      -0.08682                      -0.86365                      -0.49656
                      -0.08636                      -0.86325                      -0.49734
                      -0.08566                      -0.86273                      -0.49835
                      -0.08480                      -0.86222                      -0.49939
                      -0.08378                      -0.86173                      -0.50040
                      -0.08261                      -0.86130                      -0.50133
                      -0.08129                      -0.86093                      -0.50218
                      -0.07983                      -0.86062                      -0.50294
                      -0.07826                      -0.86038                      -0.50361
                      -0.07661                      -0.86018                      -0.50420
                      -0.07493                      -0.86004                      -0.50470
                      -0.07331                      -0.85993                      -0.50512
                      -0.07208                      -0.85986                      -0.50541
                      -0.07123                      -0.85983                      -0.50559
                      -0.07056                      -0.85981                      -0.50571
                      -0.07031                      -0.85981                      -0.50575
        </DataArray>
        <DataArray type="Float32" Name="Force" NumberOfComponents="3" format="ascii">
                      96.67507                     -30.13797                      35.53605
                     100.18508                     -32.48232                      39.01826
                     118.05875                     -37.04700                      43.88043
                      86.70370                     -26.58230                      31.18836
                     617.82109                      87.98397                    -260.91452
                     514.91416                      59.69609                    -192.83469
                     488.90446                      50.73722                    -171.76397
                     391.78714                      34.35921                    -125.76726
                     325.33791                      21.76635                     -91.80605
                     305.23828                      17.24861                     -79.73247
                     268.31725                       9.66866                     -59.68224
                     250.25127                       6.69189                     -50.78092
                     207.24498                       2.64444                     -36.29160
                     190.41289                       1.37573                     -30.84544
                     173.13255                       0.31594                     -25.83924
                     158.33409                      -0.43666                     -21.96615
                     141.89868                      -0.88188                     -18.58568
                      95.47844                      -0.75429                     -12.09465
                      94.69130                      -0.73017                     -11.97740
        </DataArray>
        <DataArray type="Float32" Name="Moment" NumberOfComponents="3" format="ascii">
                       0.00000                       0.00000                       0.00000
                       0.00000                       0.00000                       0.00000
                       0.00000                       0.00000                       0.00000
                       0.00000                       0.00000                       0.00000
                      31.84488                     319.25603                     183.06321
                      31.79513                     321.69715                     184.48872
                      28.80259                     294.69795                     169.03353
                      26.31394                     272.78952                     156.49776
                      22.98655                     241.91071                     138.81340
                      19.93385                     213.38326                     122.47380
                      15.59443                     170.12041                      97.66875
                      13.32590                     148.40838                      85.22798
                      11.09614                     126.32949                      72.57024
                       9.16772                     106.77526                      61.35579
                       7.43752                      88.58379                      50.91729
                       6.14766                      74.50071                      42.83188
                       4.91244                      60.25439                      34.64664
                       2.22659                      27.57483                      15.85759
                       2.19901                      27.33227                      15.71880
        </DataArray>
      </PointData>
      <Lines>
        <DataArray type="Int32" Name="connectivity" format="ascii">
      0      1
      1      2
      2      3
      3      4
      4      5
      5      6
      6      7
      7      8
      8      9
      9     10
     10     11
     11     12
     12     13
     13     14
     14     15
     15     16
     16     17
     17     18
        </DataArray>
        <DataArray type="Int32" Name="offsets" format="ascii">
      2
      4
      6
      8
     10
     12
     14
     16
     18
     20
     22
     24
     26
     28
     30
     32
     34
     36
        </DataArray>
      </Lines>
    </Piece>
  </PolyData>
</VTKFile>
