<?xml version="1.0"?>
<VTKFile type="PolyData" version="0.1" byte_order="LittleEndian">
  <PolyData>
    <Piece NumberOfPoints="     19" NumberOfVerts="  0" NumberOfLines="     18"
           NumberOfStrips="  0" NumberOfPolys="      0">
      <Points>
        <DataArray type="Float32" NumberOfComponents="3" format="ascii">
                      -5.06764                      -1.07585                      88.97593
                      -5.21194                      -2.05564                      88.03403
                      -5.52711                      -3.94811                      86.08433
                      -5.85309                      -5.80817                      84.10250
                      -6.26387                      -8.11286                      81.60450
                      -6.68653                     -10.97688                      78.69931
                      -7.06466                     -13.92904                      75.87939
                      -7.42887                     -16.87974                      73.05603
                      -7.77301                     -19.83031                      70.22992
                      -8.09439                     -22.77948                      67.39960
                      -8.39114                     -25.72486                      64.56262
                      -8.65948                     -28.66773                      61.72014
                      -8.89773                     -31.60835                      58.87255
                      -9.10516                     -34.54699                      56.02039
                      -9.27966                     -37.48383                      53.16409
                      -9.39989                     -39.92999                      50.78120
                      -9.48103                     -41.89173                      48.87932
                      -9.54754                     -43.89162                      47.01573
                      -9.57969                     -44.86200                      46.05431
        </DataArray>
      </Points>
      <PointData>
        <DataArray type="Float32" Name="TranslationalVelocity" NumberOfComponents="3" format="ascii">
                      -0.04562                       0.56764                      -0.58390
                      -0.09286                       1.08512                      -1.11497
                      -0.18381                       2.15678                      -2.14051
                      -0.27262                       3.24589                      -3.14819
                      -0.38155                       4.61787                      -4.39630
                      -0.51508                       6.20972                      -5.94660
                      -0.65052                       7.75215                      -7.54369
                      -0.78350                       9.29467                      -9.13909
                      -0.91414                      10.83671                     -10.73355
                      -1.04259                      12.37903                     -12.32643
                      -1.16899                      13.92301                     -13.91651
                      -1.29372                      15.46799                     -15.50457
                      -1.41713                      17.01380                     -17.09083
                      -1.53954                      18.56026                     -18.67551
                      -1.66124                      20.10713                     -20.25877
                      -1.76226                      21.39628                     -21.57718
                      -1.84315                      22.42442                     -22.63432
                      -1.92566                      23.43119                     -23.71183
                      -1.96550                      23.95043                     -24.23460
        </DataArray>
        <DataArray type="Float32" Name="RotationalVelocity" NumberOfComponents="3" format="ascii">
                       0.54210                       0.00011                      -0.04819
                       0.54204                       0.00007                      -0.04815
                       0.54187                      -0.00003                      -0.04802
                       0.54167                      -0.00019                      -0.04784
                       0.54138                      -0.00045                      -0.04757
                       0.54103                      -0.00083                      -0.04720
                       0.54068                      -0.00126                      -0.04683
                       0.54035                      -0.00170                      -0.04646
                       0.54006                      -0.00212                      -0.04610
                       0.53980                      -0.00248                      -0.04575
                       0.53957                      -0.00275                      -0.04541
                       0.53938                      -0.00293                      -0.04508
                       0.53922                      -0.00299                      -0.04476
                       0.53908                      -0.00296                      -0.04444
                       0.53896                      -0.00285                      -0.04415
                       0.53889                      -0.00274                      -0.04392
                       0.53885                      -0.00267                      -0.04378
                       0.53883                      -0.00263                      -0.04367
                       0.53883                      -0.00264                      -0.04363
        </DataArray>
        <DataArray type="Float32" Name="TranslationalAcceleration" NumberOfComponents="3" format="ascii">
                       0.01002                       0.34951                       0.26454
                       0.02488                       0.42992                       0.32267
                       0.07499                       1.21531                       0.94309
                       0.12486                       1.93003                       1.52704
                       0.18697                       2.76014                       2.21702
                       0.25809                       3.72649                       2.96785
                       0.32677                       4.68935                       3.66522
                       0.39625                       5.64958                       4.35777
                       0.46671                       6.62009                       5.05418
                       0.53851                       7.60485                       5.75751
                       0.61237                       8.60160                       6.46650
                       0.68960                       9.60551                       7.17598
                       0.77245                      10.61033                       7.88020
                       0.86442                      11.61100                       8.57441
                       0.97043                      12.60601                       9.25658
                       1.07469                      13.43362                       9.81748
                       1.17149                      14.10048                      10.26202
                       1.28343                      14.78587                      10.69543
                       1.34607                      15.12724                      10.92479
        </DataArray>
        <DataArray type="Float32" Name="OrientationX" NumberOfComponents="3" format="ascii">
                       0.95113                       0.12933                      -0.28040
                       0.95116                       0.12951                      -0.28023
                       0.95124                       0.13008                      -0.27969
                       0.95136                       0.13092                      -0.27889
                       0.95155                       0.13230                      -0.27757
                       0.96062                       0.11256                      -0.25405
                       0.96669                       0.09938                      -0.23586
                       0.97168                       0.08869                      -0.21902
                       0.97656                       0.07774                      -0.20072
                       0.98115                       0.06689                      -0.18129
                       0.98512                       0.05738                      -0.16199
                       0.98865                       0.04845                      -0.14218
                       0.99152                       0.04119                      -0.12323
                       0.99354                       0.03719                      -0.10720
                       0.99526                       0.03317                      -0.09144
                       0.99647                       0.02937                      -0.07871
                       0.99723                       0.02629                      -0.06952
                       0.99763                       0.02537                      -0.06389
                       0.99766                       0.02623                      -0.06306
        </DataArray>
        <DataArray type="Float32" Name="OrientationY" NumberOfComponents="3" format="ascii">
                       0.29043                      -0.68313                       0.67006
                       0.29042                      -0.68320                       0.67000
                       0.29040                      -0.68336                       0.66984
                       0.29037                      -0.68356                       0.66965
                       0.29034                      -0.68384                       0.66937
                       0.25981                      -0.68811                       0.67750
                       0.23761                      -0.69093                       0.68276
                       0.21811                      -0.69318                       0.68697
                       0.19739                      -0.69527                       0.69112
                       0.17595                      -0.69713                       0.69502
                       0.15553                      -0.69867                       0.69834
                       0.13515                      -0.69999                       0.70125
                       0.11656                      -0.70104                       0.70353
                       0.10233                      -0.70179                       0.70500
                       0.08830                      -0.70245                       0.70624
                       0.07657                      -0.70292                       0.70714
                       0.06788                      -0.70320                       0.70774
                       0.06324                      -0.70332                       0.70806
                       0.06325                      -0.70329                       0.70809
        </DataArray>
        <DataArray type="Float32" Name="OrientationZ" NumberOfComponents="3" format="ascii">
                      -0.10489                      -0.71875                      -0.68731
                      -0.10468                      -0.71866                      -0.68744
                      -0.10400                      -0.71840                      -0.68781
                      -0.10297                      -0.71805                      -0.68833
                      -0.10126                      -0.71753                      -0.68912
                      -0.09855                      -0.71682                      -0.69026
                      -0.09511                      -0.71606                      -0.69153
                      -0.09089                      -0.71529                      -0.69289
                      -0.08583                      -0.71454                      -0.69431
                      -0.07990                      -0.71382                      -0.69576
                      -0.07311                      -0.71314                      -0.69720
                      -0.06555                      -0.71251                      -0.69859
                      -0.05741                      -0.71193                      -0.69990
                      -0.04901                      -0.71141                      -0.70106
                      -0.04081                      -0.71096                      -0.70204
                      -0.03455                      -0.71067                      -0.70268
                      -0.03028                      -0.71050                      -0.70304
                      -0.02697                      -0.71042                      -0.70326
                      -0.02578                      -0.71042                      -0.70330
        </DataArray>
        <DataArray type="Float32" Name="Force" NumberOfComponents="3" format="ascii">
                       3.81681                     -41.61977                      42.94113
                     122.01631                     -85.43810                      70.76255
                     153.01943                    -115.54695                      97.67616
                     124.43432                    -103.84476                      89.94329
                     567.77466                      93.31291                    -181.02606
                     529.07293                      83.37818                    -162.74741
                     796.75010                     127.06287                    -242.45891
                     881.22906                     140.40363                    -262.36535
                    1064.60305                     165.18427                    -304.17184
                    1393.09584                     207.44732                    -376.49726
                    1653.44061                     232.32693                    -415.56650
                    1899.80026                     250.22106                    -438.68139
                    2033.01638                     259.68811                    -436.50994
                    2110.67735                     253.95659                    -410.74687
                    2153.45792                     242.67841                    -376.06178
                    2141.01883                     223.38247                    -335.70703
                    2011.98571                     190.89949                    -283.21094
                    1383.20872                     118.88167                    -175.24664
                     598.65127                       9.55875                     -31.45021
        </DataArray>
        <DataArray type="Float32" Name="Moment" NumberOfComponents="3" format="ascii">
                       0.00000                       0.00000                       0.00000
                       0.00000                       0.00000                       0.00000
                       0.00000                       0.00000                       0.00000
                       0.00000                       0.00000                       0.00000
                      17.11379                     121.64370                     116.37938
                      22.42471                     163.91196                     156.87493
                      31.09549                     235.74763                     225.72941
                      36.11618                     286.84992                     274.81294
                      38.79603                     326.71455                     313.21268
                      40.14468                     363.69339                     348.93375
                      38.80285                     384.80923                     369.51909
                      37.99029                     420.98004                     404.64910
                      32.91144                     417.32378                     401.55678
                      27.37504                     407.76220                     392.78153
                      21.68245                     389.26576                     375.36023
                      17.28741                     367.94703                     355.08817
                      13.62973                     332.14178                     320.70981
                       6.15864                     169.00572                     163.25776
                       4.93189                     141.76618                     136.96546
        </DataArray>
      </PointData>
      <Lines>
        <DataArray type="Int32" Name="connectivity" format="ascii">
      0      1
      1      2
      2      3
      3      4
      4      5
      5      6
      6      7
      7      8
      8      9
      9     10
     10     11
     11     12
     12     13
     13     14
     14     15
     15     16
     16     17
     17     18
        </DataArray>
        <DataArray type="Int32" Name="offsets" format="ascii">
      2
      4
      6
      8
     10
     12
     14
     16
     18
     20
     22
     24
     26
     28
     30
     32
     34
     36
        </DataArray>
      </Lines>
    </Piece>
  </PolyData>
</VTKFile>
