<?xml version="1.0"?>
<VTKFile type="PolyData" version="0.1" byte_order="LittleEndian">
  <PolyData>
    <Piece NumberOfPoints="     19" NumberOfVerts="  0" NumberOfLines="     18"
           NumberOfStrips="  0" NumberOfPolys="      0">
      <Points>
        <DataArray type="Float32" NumberOfComponents="3" format="ascii">
                      -4.99252                      -1.45621                      90.35084
                      -5.02555                      -2.78604                      90.66444
                      -5.12152                      -5.46658                      91.20042
                      -5.23113                      -8.15722                      91.69202
                      -5.37535                     -11.52685                      92.27815
                      -5.48088                     -15.54085                      93.11160
                      -5.54758                     -19.52765                      94.06415
                      -5.61143                     -23.51519                      95.01408
                      -5.66877                     -27.50314                      95.96316
                      -5.71949                     -31.49183                      96.90991
                      -5.76415                     -35.48193                      97.85130
                      -5.80095                     -39.47299                      98.78923
                      -5.82974                     -43.46484                      99.72427
                      -5.85069                     -47.45735                     100.65690
                      -5.86178                     -51.45046                     101.58727
                      -5.86327                     -54.77849                     102.36102
                      -5.85928                     -57.43933                     102.98677
                      -5.84751                     -60.08834                     103.66523
                      -5.84436                     -61.42195                     103.96365
        </DataArray>
      </Points>
      <PointData>
        <DataArray type="Float32" Name="TranslationalVelocity" NumberOfComponents="3" format="ascii">
                      -0.03396                      -0.12404                      -0.50163
                      -0.07424                      -0.23105                      -0.95964
                      -0.15524                      -0.41279                      -1.88298
                      -0.23629                      -0.57888                      -2.81001
                      -0.33735                      -0.77657                      -3.97138
                      -0.45681                      -1.06082                      -5.35549
                      -0.57405                      -1.38751                      -6.73107
                      -0.68936                      -1.71364                      -8.10786
                      -0.80207                      -2.03996                      -9.48583
                      -0.91150                      -2.36598                     -10.86519
                      -1.01695                      -2.69064                     -12.24619
                      -1.11770                      -3.01464                     -13.62872
                      -1.21310                      -3.33816                     -15.01271
                      -1.30261                      -3.66135                     -16.39807
                      -1.38580                      -3.98424                     -17.78472
                      -1.44999                      -4.25312                     -18.94118
                      -1.49808                      -4.47074                     -19.86622
                      -1.54299                      -4.70689                     -20.78748
                      -1.56462                      -4.81072                     -21.25137
        </DataArray>
        <DataArray type="Float32" Name="RotationalVelocity" NumberOfComponents="3" format="ascii">
                       0.34440                       0.00014                      -0.03032
                       0.34442                       0.00015                      -0.03030
                       0.34448                       0.00016                      -0.03023
                       0.34457                       0.00018                      -0.03013
                       0.34471                       0.00022                      -0.02995
                       0.34491                       0.00030                      -0.02967
                       0.34513                       0.00041                      -0.02928
                       0.34537                       0.00055                      -0.02876
                       0.34564                       0.00073                      -0.02810
                       0.34592                       0.00092                      -0.02726
                       0.34620                       0.00112                      -0.02623
                       0.34650                       0.00132                      -0.02501
                       0.34679                       0.00150                      -0.02363
                       0.34707                       0.00164                      -0.02211
                       0.34732                       0.00173                      -0.02053
                       0.34750                       0.00176                      -0.01923
                       0.34762                       0.00174                      -0.01826
                       0.34770                       0.00167                      -0.01740
                       0.34772                       0.00162                      -0.01703
        </DataArray>
        <DataArray type="Float32" Name="TranslationalAcceleration" NumberOfComponents="3" format="ascii">
                      -0.04805                       0.16829                      -0.07049
                      -0.01997                       0.20364                      -0.08118
                      -0.05150                       0.58643                      -0.22186
                      -0.07393                       0.94177                      -0.34426
                      -0.09284                       1.35904                      -0.48232
                      -0.10775                       1.82735                      -0.65246
                      -0.11787                       2.27747                      -0.83184
                      -0.12460                       2.72672                      -1.01074
                      -0.12977                       3.18103                      -1.19181
                      -0.13445                       3.64239                      -1.37553
                      -0.13917                       4.10991                      -1.56097
                      -0.14429                       4.58077                      -1.74699
                      -0.15009                       5.05167                      -1.93204
                      -0.15708                       5.51990                      -2.11476
                      -0.16618                       5.98453                      -2.29448
                      -0.17656                       6.37025                      -2.44221
                      -0.18762                       6.67945                      -2.56089
                      -0.20295                       6.99004                      -2.68667
                      -0.21164                       7.14960                      -2.74560
        </DataArray>
        <DataArray type="Float32" Name="OrientationX" NumberOfComponents="3" format="ascii">
                       0.94967                      -0.09411                      -0.29877
                       0.94968                      -0.09400                      -0.29879
                       0.94968                      -0.09367                      -0.29888
                       0.94969                      -0.09319                      -0.29900
                       0.94970                      -0.09242                      -0.29921
                       0.95919                      -0.08450                      -0.26983
                       0.96543                      -0.07826                      -0.24863
                       0.97046                      -0.07243                      -0.23013
                       0.97535                      -0.06615                      -0.21052
                       0.97992                      -0.05950                      -0.19029
                       0.98382                      -0.05287                      -0.17118
                       0.98727                      -0.04607                      -0.15220
                       0.99005                      -0.03951                      -0.13504
                       0.99193                      -0.03384                      -0.12217
                       0.99359                      -0.02824                      -0.10943
                       0.99484                      -0.02370                      -0.09869
                       0.99568                      -0.02038                      -0.09063
                       0.99610                      -0.01819                      -0.08635
                       0.99610                      -0.01772                      -0.08640
        </DataArray>
        <DataArray type="Float32" Name="OrientationY" NumberOfComponents="3" format="ascii">
                       0.31236                       0.21338                       0.92569
                       0.31236                       0.21322                       0.92572
                       0.31236                       0.21280                       0.92582
                       0.31236                       0.21228                       0.92594
                       0.31237                       0.21153                       0.92611
                       0.28194                       0.21340                       0.93540
                       0.25986                       0.21432                       0.94156
                       0.24050                       0.21493                       0.94655
                       0.21997                       0.21559                       0.95139
                       0.19876                       0.21625                       0.95589
                       0.17864                       0.21681                       0.95973
                       0.15862                       0.21731                       0.96313
                       0.14043                       0.21768                       0.96587
                       0.12662                       0.21784                       0.96774
                       0.11296                       0.21798                       0.96939
                       0.10148                       0.21808                       0.97064
                       0.09289                       0.21816                       0.97148
                       0.08823                       0.21819                       0.97191
                       0.08818                       0.21818                       0.97192
        </DataArray>
        <DataArray type="Float32" Name="OrientationZ" NumberOfComponents="3" format="ascii">
                      -0.02336                      -0.97243                       0.23204
                      -0.02331                      -0.97247                       0.23186
                      -0.02312                      -0.97260                       0.23135
                      -0.02282                      -0.97276                       0.23070
                      -0.02229                      -0.97299                       0.22976
                      -0.02146                      -0.97330                       0.22852
                      -0.02040                      -0.97362                       0.22724
                      -0.01910                      -0.97394                       0.22600
                      -0.01755                      -0.97424                       0.22482
                      -0.01572                      -0.97452                       0.22373
                      -0.01363                      -0.97478                       0.22275
                      -0.01130                      -0.97501                       0.22186
                      -0.00877                      -0.97522                       0.22106
                      -0.00613                      -0.97540                       0.22036
                      -0.00352                      -0.97555                       0.21977
                      -0.00148                      -0.97564                       0.21936
                      -0.00003                      -0.97570                       0.21911
                       0.00116                      -0.97574                       0.21894
                       0.00163                      -0.97575                       0.21889
        </DataArray>
        <DataArray type="Float32" Name="Force" NumberOfComponents="3" format="ascii">
                      -0.04598                      -0.12350                      -0.52219
                      83.78340                      -4.08621                      -8.71342
                      92.46928                      -2.18910                       0.01566
                      71.74810                       0.07519                       7.33629
                     505.27648                     -63.20288                    -216.84623
                     490.94950                     -54.76147                    -184.86349
                     511.90534                     -53.49120                    -180.27390
                     177.41873                     -17.75541                     -60.29510
                     229.83851                     -19.40123                     -64.67197
                     300.09779                     -22.64495                     -75.68022
                     330.82567                     -20.63627                     -68.38493
                     379.31693                     -20.80633                     -70.39096
                     347.88818                     -16.35747                     -57.02172
                     403.50386                     -20.01969                     -75.30783
                     480.37228                     -25.78468                    -103.50504
                     547.54905                     -30.13069                    -126.10909
                     590.34910                     -32.83059                    -141.23904
                     510.97169                     -30.00148                    -131.66630
                     154.62194                      -2.20486                     -11.07350
        </DataArray>
        <DataArray type="Float32" Name="Moment" NumberOfComponents="3" format="ascii">
                       0.00000                       0.00000                       0.00000
                       0.00000                       0.00000                       0.00000
                       0.00000                       0.00000                       0.00000
                       0.00000                       0.00000                       0.00000
                       7.42986                     326.91496                     -77.97154
                       7.54412                     346.60557                     -82.63854
                       6.52519                     317.24939                     -75.60591
                       1.94893                     101.88751                     -24.26861
                       3.19340                     183.18665                     -43.60591
                       3.44713                     222.80182                     -52.99747
                       2.91474                     220.00018                     -52.28799
                       2.44537                     226.70073                     -53.83138
                       1.63909                     201.44497                     -47.78725
                       1.04732                     194.45587                     -46.08218
                       0.48307                     181.17377                     -42.89120
                       0.08988                     164.56130                     -38.92764
                      -0.13122                     137.96867                     -32.61885
                      -0.13470                      61.83491                     -14.61246
                      -0.13624                      51.19266                     -12.09537
        </DataArray>
      </PointData>
      <Lines>
        <DataArray type="Int32" Name="connectivity" format="ascii">
      0      1
      1      2
      2      3
      3      4
      4      5
      5      6
      6      7
      7      8
      8      9
      9     10
     10     11
     11     12
     12     13
     13     14
     14     15
     15     16
     16     17
     17     18
        </DataArray>
        <DataArray type="Int32" Name="offsets" format="ascii">
      2
      4
      6
      8
     10
     12
     14
     16
     18
     20
     22
     24
     26
     28
     30
     32
     34
     36
        </DataArray>
      </Lines>
    </Piece>
  </PolyData>
</VTKFile>
