<?xml version="1.0"?>
<VTKFile type="PolyData" version="0.1" byte_order="LittleEndian">
  <PolyData>
    <Piece NumberOfPoints="     19" NumberOfVerts="  0" NumberOfLines="     18"
           NumberOfStrips="  0" NumberOfPolys="      0">
      <Points>
        <DataArray type="Float32" NumberOfComponents="3" format="ascii">
                      -4.98471                       1.48140                      90.21370
                      -5.02820                       2.83360                      90.40749
                      -5.12825                       5.52431                      90.88919
                      -5.23360                       8.20895                      91.41435
                      -5.36696                      11.56175                      92.09516
                      -5.48255                      15.60757                      92.76260
                      -5.57939                      19.67254                      93.29532
                      -5.67054                      23.73845                      93.82140
                      -5.75161                      27.80557                      94.33922
                      -5.82099                      31.87357                      94.85117
                      -5.87747                      35.94187                      95.36146
                      -5.91843                      40.01062                      95.86900
                      -5.94279                      44.07973                      96.37424
                      -5.95001                      48.14912                      96.87752
                      -5.93765                      52.21870                      97.37887
                      -5.91196                      55.61015                      97.79501
                      -5.88306                      58.32427                      98.11893
                      -5.85225                      61.04549                      98.38730
                      -5.83082                      62.40064                      98.56209
        </DataArray>
      </Points>
      <PointData>
        <DataArray type="Float32" Name="TranslationalVelocity" NumberOfComponents="3" format="ascii">
                       0.03778                      -0.08878                       0.64018
                       0.08939                      -0.17091                       1.22484
                       0.19186                      -0.37539                       2.38820
                       0.29383                      -0.59846                       3.54890
                       0.42071                      -0.88777                       4.99840
                       0.57310                      -1.17199                       6.74741
                       0.72523                      -1.39869                       8.50456
                       0.87612                      -1.62273                      10.26197
                       1.02551                      -1.84360                      12.01978
                       1.17315                      -2.06237                      13.77785
                       1.31876                      -2.28091                      15.53598
                       1.46212                      -2.49884                      17.29427
                       1.60302                      -2.71638                      19.05273
                       1.74133                      -2.93368                      20.81136
                       1.87693                      -3.15081                      22.57021
                       1.98780                      -3.33155                      24.03613
                       2.07526                      -3.47252                      25.20939
                       2.16202                      -3.58951                      26.38584
                       2.20465                      -3.66575                      26.97178
        </DataArray>
        <DataArray type="Float32" Name="RotationalVelocity" NumberOfComponents="3" format="ascii">
                       0.43239                      -0.00035                      -0.03823
                       0.43238                      -0.00035                      -0.03820
                       0.43237                      -0.00037                      -0.03813
                       0.43236                      -0.00039                      -0.03804
                       0.43234                      -0.00044                      -0.03788
                       0.43230                      -0.00052                      -0.03766
                       0.43227                      -0.00063                      -0.03739
                       0.43224                      -0.00078                      -0.03707
                       0.43221                      -0.00097                      -0.03670
                       0.43219                      -0.00120                      -0.03628
                       0.43217                      -0.00146                      -0.03579
                       0.43217                      -0.00177                      -0.03524
                       0.43217                      -0.00211                      -0.03465
                       0.43218                      -0.00248                      -0.03402
                       0.43221                      -0.00288                      -0.03340
                       0.43223                      -0.00323                      -0.03292
                       0.43226                      -0.00352                      -0.03258
                       0.43229                      -0.00382                      -0.03230
                       0.43231                      -0.00397                      -0.03219
        </DataArray>
        <DataArray type="Float32" Name="TranslationalAcceleration" NumberOfComponents="3" format="ascii">
                      -0.02760                      -0.27226                       0.00002
                      -0.00832                      -0.34103                       0.00124
                      -0.02114                      -0.97713                      -0.01180
                      -0.02819                      -1.56504                      -0.03340
                      -0.02977                      -2.25417                      -0.06426
                      -0.02085                      -3.03771                      -0.07341
                      -0.00428                      -3.79976                      -0.05670
                       0.01370                      -4.55921                      -0.03898
                       0.02931                      -5.32575                      -0.02012
                       0.03916                      -6.10241                      -0.00060
                       0.04060                      -6.88750                       0.01881
                       0.03213                      -7.67657                       0.03834
                       0.01367                      -8.46423                       0.05789
                      -0.01313                      -9.24612                       0.07737
                      -0.04439                     -10.02063                       0.09655
                      -0.06905                     -10.66233                       0.11197
                      -0.08423                     -11.17646                       0.12565
                      -0.09197                     -11.69582                       0.14968
                      -0.09096                     -11.95934                       0.15360
        </DataArray>
        <DataArray type="Float32" Name="OrientationX" NumberOfComponents="3" format="ascii">
                       0.98903                       0.01069                       0.14730
                       0.98904                       0.01060                       0.14728
                       0.98905                       0.01032                       0.14724
                       0.98906                       0.00991                       0.14716
                       0.98909                       0.00921                       0.14702
                       0.99323                       0.01250                       0.11545
                       0.99562                       0.01409                       0.09244
                       0.99728                       0.01478                       0.07214
                       0.99861                       0.01508                       0.05056
                       0.99949                       0.01485                       0.02820
                       0.99988                       0.01388                       0.00687
                       0.99982                       0.01232                      -0.01442
                       0.99937                       0.01006                      -0.03390
                       0.99878                       0.00694                      -0.04897
                       0.99796                       0.00379                      -0.06376
                       0.99710                       0.00141                      -0.07603
                       0.99637                      -0.00020                      -0.08508
                       0.99594                      -0.00181                      -0.09001
                       0.99593                      -0.00266                      -0.09013
        </DataArray>
        <DataArray type="Float32" Name="OrientationY" NumberOfComponents="3" format="ascii">
                       0.14430                       0.14256                      -0.97921
                       0.14430                       0.14235                      -0.97924
                       0.14431                       0.14180                      -0.97932
                       0.14431                       0.14111                      -0.97942
                       0.14430                       0.14013                      -0.97956
                       0.11262                       0.13853                      -0.98393
                       0.08965                       0.13701                      -0.98650
                       0.06948                       0.13558                      -0.98833
                       0.04808                       0.13424                      -0.98978
                       0.02598                       0.13304                      -0.99077
                       0.00497                       0.13202                      -0.99123
                      -0.01592                       0.13118                      -0.99123
                      -0.03492                       0.13053                      -0.99083
                      -0.04945                       0.13008                      -0.99027
                      -0.06372                       0.12976                      -0.98950
                      -0.07557                       0.12956                      -0.98869
                      -0.08433                       0.12944                      -0.98799
                      -0.08902                       0.12933                      -0.98760
                      -0.08903                       0.12927                      -0.98760
        </DataArray>
        <DataArray type="Float32" Name="OrientationZ" NumberOfComponents="3" format="ascii">
                      -0.03147                       0.98973                       0.13945
                      -0.03135                       0.98976                       0.13926
                      -0.03099                       0.98984                       0.13875
                      -0.03047                       0.98994                       0.13813
                      -0.02963                       0.99009                       0.13727
                      -0.02829                       0.99028                       0.13619
                      -0.02657                       0.99047                       0.13514
                      -0.02439                       0.99066                       0.13418
                      -0.02171                       0.99083                       0.13333
                      -0.01847                       0.99100                       0.13259
                      -0.01466                       0.99115                       0.13193
                      -0.01032                       0.99128                       0.13135
                      -0.00554                       0.99139                       0.13080
                      -0.00050                       0.99148                       0.13027
                       0.00453                       0.99154                       0.12973
                       0.00845                       0.99157                       0.12929
                       0.01121                       0.99159                       0.12895
                       0.01343                       0.99160                       0.12864
                       0.01428                       0.99161                       0.12850
        </DataArray>
        <DataArray type="Float32" Name="Force" NumberOfComponents="3" format="ascii">
                       0.14794                      -0.23108                       1.67342
                      71.76757                       2.29141                      -0.13911
                      77.27925                       4.01806                     -11.38193
                      59.12884                       4.27637                     -17.48860
                     488.84664                      -2.92930                     124.17679
                     515.11156                      -2.54075                     121.82217
                     698.51413                     -15.85183                     244.64856
                     872.90545                      -8.77366                     213.35125
                     717.28028                     -12.32127                     197.94908
                     883.30625                     -11.47646                     196.85181
                     956.34771                     -14.41532                     201.33272
                     933.02972                     -17.28932                     190.61200
                    1084.18920                     -19.44849                     179.68075
                    1217.90354                     -22.98830                     165.81236
                    1265.10387                     -27.37789                     151.48573
                    1286.98692                     -30.62239                     137.44518
                    1260.28713                     -31.66748                     121.43426
                     904.78428                     -24.25515                      83.53578
                     254.36297                      -0.24388                     -26.18062
        </DataArray>
        <DataArray type="Float32" Name="Moment" NumberOfComponents="3" format="ascii">
                       0.00000                       0.00000                       0.00000
                       0.00000                       0.00000                       0.00000
                       0.00000                       0.00000                       0.00000
                       0.00000                       0.00000                       0.00000
                       8.47579                    -284.87305                     -40.08672
                       9.28425                    -327.87021                     -46.09556
                       8.83326                    -333.44952                     -46.82613
                      15.66147                    -646.55419                     -90.66563
                       6.53361                    -304.54149                     -42.63099
                       6.00177                    -330.88288                     -46.22139
                       5.71692                    -400.83071                     -55.85512
                       2.24747                    -227.98113                     -31.68004
                       1.29815                    -258.58280                     -35.82182
                      -0.02423                    -318.04237                     -43.91554
                      -1.45517                    -281.97693                     -38.80885
                      -2.24157                    -245.43919                     -33.69392
                      -2.60048                    -218.09856                     -29.88679
                      -1.35646                     -95.69913                     -13.09494
                      -1.20812                     -80.35510                     -10.98923
        </DataArray>
      </PointData>
      <Lines>
        <DataArray type="Int32" Name="connectivity" format="ascii">
      0      1
      1      2
      2      3
      3      4
      4      5
      5      6
      6      7
      7      8
      8      9
      9     10
     10     11
     11     12
     12     13
     13     14
     14     15
     15     16
     16     17
     17     18
        </DataArray>
        <DataArray type="Int32" Name="offsets" format="ascii">
      2
      4
      6
      8
     10
     12
     14
     16
     18
     20
     22
     24
     26
     28
     30
     32
     34
     36
        </DataArray>
      </Lines>
    </Piece>
  </PolyData>
</VTKFile>
