<?xml version="1.0"?>
<VTKFile type="PolyData" version="0.1" byte_order="LittleEndian">
  <PolyData>
    <Piece NumberOfPoints="     19" NumberOfVerts="  0" NumberOfLines="     18"
           NumberOfStrips="  0" NumberOfPolys="      0">
      <Points>
        <DataArray type="Float32" NumberOfComponents="3" format="ascii">
                      -5.13126                       0.88541                      88.80422
                      -5.28783                       1.69490                      87.71420
                      -5.61738                       3.38920                      85.59221
                      -5.95384                       5.11886                      83.49716
                      -6.37707                       7.30160                      80.89359
                      -6.83580                       9.80545                      77.67704
                      -7.27171                      12.20350                      74.37938
                      -7.70280                      14.59819                      71.07868
                      -8.12520                      16.98839                      67.77364
                      -8.53808                      19.37593                      64.46552
                      -8.94106                      21.76407                      61.15670
                      -9.33218                      24.15188                      57.84627
                      -9.71102                      26.53958                      54.53438
                     -10.07757                      28.92730                      51.22115
                     -10.42981                      31.31516                      47.90650
                     -10.71224                      33.30503                      45.14312
                     -10.93220                      34.89036                      42.92715
                     -11.15059                      36.43090                      40.67835
                     -11.25612                      37.23467                      39.57820
        </DataArray>
      </Points>
      <PointData>
        <DataArray type="Float32" Name="TranslationalVelocity" NumberOfComponents="3" format="ascii">
                       0.01845                       0.29343                       0.21991
                       0.03615                       0.56757                       0.42095
                       0.07318                       1.10159                       0.84160
                       0.11095                       1.62882                       1.27080
                       0.15851                       2.28371                       1.81205
                       0.21290                       3.09071                       2.43236
                       0.26479                       3.91653                       3.02589
                       0.31645                       4.74221                       3.61806
                       0.36791                       5.56806                       4.20864
                       0.41927                       6.39384                       4.79813
                       0.47074                       7.21907                       5.38741
                       0.52242                       8.04402                       5.97630
                       0.57446                       8.86878                       6.56493
                       0.62704                       9.69339                       7.15337
                       0.68033                      10.51789                       7.74167
                       0.72545                      11.20492                       8.23178
                       0.76191                      11.75565                       8.62215
                       0.79793                      12.31434                       9.00138
                       0.81689                      12.58759                       9.19919
        </DataArray>
        <DataArray type="Float32" Name="RotationalVelocity" NumberOfComponents="3" format="ascii">
                       0.24840                      -0.00001                      -0.02186
                       0.24836                      -0.00001                      -0.02185
                       0.24825                      -0.00001                      -0.02184
                       0.24813                      -0.00001                      -0.02181
                       0.24794                       0.00001                      -0.02178
                       0.24771                       0.00003                      -0.02173
                       0.24748                       0.00005                      -0.02169
                       0.24726                       0.00008                      -0.02166
                       0.24707                       0.00009                      -0.02164
                       0.24691                       0.00009                      -0.02164
                       0.24677                       0.00006                      -0.02167
                       0.24666                       0.00000                      -0.02171
                       0.24657                      -0.00008                      -0.02178
                       0.24650                      -0.00021                      -0.02187
                       0.24644                      -0.00037                      -0.02197
                       0.24640                      -0.00053                      -0.02206
                       0.24637                      -0.00068                      -0.02214
                       0.24634                      -0.00083                      -0.02221
                       0.24633                      -0.00091                      -0.02225
        </DataArray>
        <DataArray type="Float32" Name="TranslationalAcceleration" NumberOfComponents="3" format="ascii">
                      -0.04674                      -0.03649                       0.08168
                      -0.00596                      -0.04666                       0.10290
                      -0.01042                      -0.13838                       0.29273
                      -0.00679                      -0.22652                       0.46685
                       0.00538                      -0.33176                       0.67016
                       0.02714                      -0.44357                       0.90451
                       0.05222                      -0.54436                       1.13551
                       0.07725                      -0.64446                       1.36547
                       0.10056                      -0.74523                       1.59739
                       0.12136                      -0.84729                       1.83215
                       0.13937                      -0.95071                       2.06921
                       0.15453                      -1.05487                       2.30731
                       0.16654                      -1.15911                       2.54495
                       0.17452                      -1.26294                       2.78094
                       0.17662                      -1.36622                       3.01501
                       0.17141                      -1.45226                       3.20934
                       0.16114                      -1.52096                       3.36569
                       0.14399                      -1.58743                       3.52556
                       0.13139                      -1.62360                       3.60584
        </DataArray>
        <DataArray type="Float32" Name="OrientationX" NumberOfComponents="3" format="ascii">
                       0.97740                       0.21078                       0.01611
                       0.97741                       0.21072                       0.01619
                       0.97745                       0.21054                       0.01642
                       0.97750                       0.21027                       0.01676
                       0.97759                       0.20981                       0.01732
                       0.98291                       0.18409                      -0.00093
                       0.98620                       0.16499                      -0.01358
                       0.98871                       0.14787                      -0.02421
                       0.99095                       0.12951                      -0.03523
                       0.99282                       0.11033                      -0.04629
                       0.99419                       0.09176                      -0.05632
                       0.99515                       0.07305                      -0.06595
                       0.99569                       0.05566                      -0.07421
                       0.99594                       0.04177                      -0.07969
                       0.99598                       0.02810                      -0.08505
                       0.99583                       0.01685                      -0.08969
                       0.99561                       0.00859                      -0.09323
                       0.99550                       0.00385                      -0.09473
                       0.99554                       0.00349                      -0.09428
        </DataArray>
        <DataArray type="Float32" Name="OrientationY" NumberOfComponents="3" format="ascii">
                       0.17793                      -0.77914                      -0.60107
                       0.17794                      -0.77921                      -0.60097
                       0.17797                      -0.77941                      -0.60071
                       0.17801                      -0.77966                      -0.60038
                       0.17804                      -0.78001                      -0.59991
                       0.14678                      -0.78674                      -0.59957
                       0.12412                      -0.79120                      -0.59883
                       0.10422                      -0.79476                      -0.59791
                       0.08309                      -0.79807                      -0.59680
                       0.06125                      -0.80102                      -0.59550
                       0.04050                      -0.80338                      -0.59409
                       0.01984                      -0.80528                      -0.59256
                       0.00104                      -0.80664                      -0.59105
                      -0.01333                      -0.80744                      -0.58979
                      -0.02746                      -0.80802                      -0.58852
                      -0.03923                      -0.80834                      -0.58741
                      -0.04796                      -0.80849                      -0.58656
                      -0.05264                      -0.80856                      -0.58606
                      -0.05267                      -0.80858                      -0.58602
        </DataArray>
        <DataArray type="Float32" Name="OrientationZ" NumberOfComponents="3" format="ascii">
                      -0.11414                       0.59035                      -0.79903
                      -0.11403                       0.59027                      -0.79911
                      -0.11367                       0.59008                      -0.79930
                      -0.11317                       0.58985                      -0.79954
                      -0.11235                       0.58955                      -0.79988
                      -0.11110                       0.58919                      -0.80032
                      -0.10954                       0.58888                      -0.80076
                      -0.10766                       0.58864                      -0.80119
                      -0.10541                       0.58848                      -0.80161
                      -0.10277                       0.58839                      -0.80202
                      -0.09976                       0.58836                      -0.80242
                      -0.09640                       0.58838                      -0.80282
                      -0.09276                       0.58842                      -0.80322
                      -0.08898                       0.58846                      -0.80361
                      -0.08526                       0.58849                      -0.80400
                      -0.08240                       0.58848                      -0.80430
                      -0.08041                       0.58845                      -0.80452
                      -0.07885                       0.58840                      -0.80471
                      -0.07828                       0.58837                      -0.80479
        </DataArray>
        <DataArray type="Float32" Name="Force" NumberOfComponents="3" format="ascii">
                      -0.92350                     -42.33324                     -31.14523
                      68.59304                     -62.29753                     -55.81468
                      82.37074                     -72.40727                     -65.20948
                      69.27419                     -62.16615                     -55.73236
                     725.36812                     264.69720                      93.60894
                     899.81802                     323.83076                     114.20588
                     923.60171                     292.02884                      89.23385
                     797.87661                     226.59870                      60.02341
                     782.70012                     225.17284                      63.21854
                     801.33236                     213.48832                      54.78027
                     803.11509                     209.40136                      54.55614
                     829.15298                     197.32288                      45.88534
                     935.03465                     193.40455                      34.51787
                     932.45915                     179.55497                      28.99978
                     917.63008                     164.10128                      23.50900
                     906.94702                     150.10760                      17.57523
                     862.62656                     134.32094                      12.62484
                     614.74484                      91.52881                       7.10770
                     203.55995                       0.69406                     -19.29237
        </DataArray>
        <DataArray type="Float32" Name="Moment" NumberOfComponents="3" format="ascii">
                       0.00000                       0.00000                       0.00000
                       0.00000                       0.00000                       0.00000
                       0.00000                       0.00000                       0.00000
                       0.00000                       0.00000                       0.00000
                      32.24941                    -169.54562                     229.52467
                      50.89975                    -270.68674                     366.49756
                      51.13585                    -275.88880                     373.60626
                      39.42164                    -216.47597                     293.21173
                      30.73848                    -172.43715                     233.62058
                      27.63132                    -159.00861                     215.49019
                      21.07705                    -124.97851                     169.42865
                      19.77276                    -121.35657                     164.57959
                      21.38204                    -136.40187                     185.05764
                      18.34497                    -122.01587                     165.60888
                      14.98182                    -104.00785                     141.22480
                      13.00622                     -93.44372                     126.92049
                      11.10902                     -81.78695                     111.11181
                       5.41415                     -40.65327                      55.23906
                       4.50432                     -34.07288                      46.30067
        </DataArray>
      </PointData>
      <Lines>
        <DataArray type="Int32" Name="connectivity" format="ascii">
      0      1
      1      2
      2      3
      3      4
      4      5
      5      6
      6      7
      7      8
      8      9
      9     10
     10     11
     11     12
     12     13
     13     14
     14     15
     15     16
     16     17
     17     18
        </DataArray>
        <DataArray type="Int32" Name="offsets" format="ascii">
      2
      4
      6
      8
     10
     12
     14
     16
     18
     20
     22
     24
     26
     28
     30
     32
     34
     36
        </DataArray>
      </Lines>
    </Piece>
  </PolyData>
</VTKFile>
