<?xml version="1.0"?>
<VTKFile type="PolyData" version="0.1" byte_order="LittleEndian">
  <PolyData>
    <Piece NumberOfPoints="     22" NumberOfVerts="  0" NumberOfLines="     21"
           NumberOfStrips="  0" NumberOfPolys="      0">
      <Points>
        <DataArray type="Float32" NumberOfComponents="3" format="ascii">
                       0.00002                      -0.00001                       2.19000
                       0.00021                      -0.00006                       6.57000
                       0.00061                      -0.00016                      10.95000
                       0.00124                      -0.00030                      15.33000
                       0.00210                      -0.00047                      19.71000
                       0.00318                      -0.00069                      24.09000
                       0.00445                      -0.00093                      28.47000
                       0.00590                      -0.00121                      32.85000
                       0.00752                      -0.00153                      37.23000
                       0.00929                      -0.00188                      41.61000
                       0.01121                      -0.00227                      45.99000
                       0.01328                      -0.00269                      50.37000
                       0.01549                      -0.00315                      54.75000
                       0.01785                      -0.00364                      59.13000
                       0.02035                      -0.00416                      63.51000
                       0.02299                      -0.00471                      67.88999
                       0.02575                      -0.00528                      72.26999
                       0.02858                      -0.00586                      76.64999
                       0.03143                      -0.00647                      81.02999
                       0.03418                      -0.00708                      85.40999
                       0.03548                      -0.00739                      87.59999
                       0.00000                       0.00000                       0.00000
        </DataArray>
      </Points>
      <PointData>
        <DataArray type="Float32" Name="TranslationalVelocity" NumberOfComponents="3" format="ascii">
                       0.00000                      -0.00001                      -0.00000
                       0.00005                      -0.00008                      -0.00000
                       0.00019                      -0.00021                      -0.00000
                       0.00043                      -0.00039                      -0.00000
                       0.00079                      -0.00062                      -0.00000
                       0.00130                      -0.00090                      -0.00000
                       0.00197                      -0.00123                      -0.00000
                       0.00282                      -0.00160                      -0.00000
                       0.00389                      -0.00202                      -0.00000
                       0.00521                      -0.00249                      -0.00000
                       0.00681                      -0.00301                      -0.00000
                       0.00872                      -0.00358                      -0.00000
                       0.01100                      -0.00419                      -0.00000
                       0.01366                      -0.00485                      -0.00001
                       0.01672                      -0.00556                      -0.00001
                       0.02019                      -0.00631                      -0.00001
                       0.02404                      -0.00709                      -0.00001
                       0.02822                      -0.00790                      -0.00002
                       0.03262                      -0.00873                      -0.00002
                       0.03709                      -0.00958                      -0.00002
                       0.03929                      -0.01001                      -0.00002
                       0.00000                      -0.00000                       0.00000
        </DataArray>
        <DataArray type="Float32" Name="RotationalVelocity" NumberOfComponents="3" format="ascii">
                       0.00001                       0.00000                       0.00000
                       0.00002                       0.00002                       0.00000
                       0.00004                       0.00004                       0.00000
                       0.00005                       0.00007                       0.00000
                       0.00006                       0.00010                       0.00000
                       0.00007                       0.00013                       0.00000
                       0.00008                       0.00017                       0.00000
                       0.00009                       0.00022                       0.00000
                       0.00010                       0.00027                       0.00000
                       0.00011                       0.00033                       0.00000
                       0.00012                       0.00040                       0.00000
                       0.00014                       0.00048                       0.00000
                       0.00015                       0.00056                       0.00000
                       0.00016                       0.00065                       0.00000
                       0.00017                       0.00075                       0.00000
                       0.00017                       0.00084                       0.00000
                       0.00018                       0.00092                       0.00000
                       0.00019                       0.00098                       0.00000
                       0.00019                       0.00102                       0.00000
                       0.00020                       0.00102                       0.00000
                       0.00020                       0.00099                       0.00000
                       0.00000                      -0.00000                       0.00000
        </DataArray>
        <DataArray type="Float32" Name="TranslationalAcceleration" NumberOfComponents="3" format="ascii">
                       0.00010                      -0.00000                      -0.00000
                       0.00090                      -0.00001                      -0.00000
                       0.00245                      -0.00003                      -0.00000
                       0.00467                      -0.00005                      -0.00000
                       0.00737                      -0.00005                      -0.00000
                       0.01037                      -0.00005                      -0.00000
                       0.01340                      -0.00002                      -0.00000
                       0.01617                       0.00005                      -0.00000
                       0.01840                       0.00016                      -0.00001
                       0.01975                       0.00033                      -0.00001
                       0.01991                       0.00057                      -0.00001
                       0.01859                       0.00090                      -0.00001
                       0.01553                       0.00133                      -0.00001
                       0.01051                       0.00186                      -0.00001
                       0.00338                       0.00251                      -0.00000
                      -0.00592                       0.00328                      -0.00000
                      -0.01734                       0.00417                       0.00000
                      -0.03072                       0.00517                       0.00001
                      -0.04573                       0.00627                       0.00001
                      -0.06188                       0.00746                       0.00002
                      -0.07018                       0.00807                       0.00002
                       0.00000                      -0.00000                       0.00000
        </DataArray>
        <DataArray type="Float32" Name="RotationalAcceleration" NumberOfComponents="3" format="ascii">
                       0.00000                       0.00009                       0.00000
                       0.00000                       0.00027                       0.00000
                       0.00000                       0.00044                       0.00000
                       0.00000                       0.00057                       0.00000
                       0.00000                       0.00066                       0.00000
                      -0.00000                       0.00070                       0.00000
                      -0.00001                       0.00067                       0.00000
                      -0.00002                       0.00058                       0.00000
                      -0.00003                       0.00042                       0.00000
                      -0.00005                       0.00018                       0.00000
                      -0.00006                      -0.00012                       0.00000
                      -0.00009                      -0.00049                       0.00000
                      -0.00011                      -0.00092                       0.00000
                      -0.00013                      -0.00138                       0.00000
                      -0.00016                      -0.00187                       0.00000
                      -0.00019                      -0.00237                       0.00000
                      -0.00022                      -0.00284                       0.00000
                      -0.00024                      -0.00326                       0.00000
                      -0.00026                      -0.00358                       0.00000
                      -0.00028                      -0.00377                       0.00000
                      -0.00028                      -0.00380                       0.00000
                       0.00000                      -0.00000                       0.00000
        </DataArray>
        <DataArray type="Float32" Name="OrientationX" NumberOfComponents="3" format="ascii">
                       1.00000                       0.00000                      -0.00002
                       1.00000                       0.00000                      -0.00007
                       1.00000                       0.00000                      -0.00012
                       1.00000                       0.00000                      -0.00017
                       1.00000                       0.00000                      -0.00022
                       1.00000                       0.00000                      -0.00027
                       1.00000                       0.00000                      -0.00031
                       1.00000                       0.00000                      -0.00035
                       1.00000                       0.00000                      -0.00039
                       1.00000                       0.00000                      -0.00042
                       1.00000                       0.00000                      -0.00045
                       1.00000                       0.00000                      -0.00049
                       1.00000                       0.00000                      -0.00052
                       1.00000                       0.00000                      -0.00056
                       1.00000                       0.00000                      -0.00059
                       1.00000                       0.00000                      -0.00062
                       1.00000                       0.00000                      -0.00064
                       1.00000                       0.00000                      -0.00065
                       1.00000                       0.00000                      -0.00064
                       1.00000                       0.00000                      -0.00061
                       1.00000                       0.00000                      -0.00058
                       1.00000                      -0.00000                       0.00000
        </DataArray>
        <DataArray type="Float32" Name="OrientationY" NumberOfComponents="3" format="ascii">
                       0.00000                       1.00000                       0.00001
                       0.00000                       1.00000                       0.00002
                       0.00000                       1.00000                       0.00003
                       0.00000                       1.00000                       0.00004
                       0.00000                       1.00000                       0.00004
                       0.00000                       1.00000                       0.00005
                       0.00000                       1.00000                       0.00006
                       0.00000                       1.00000                       0.00007
                       0.00000                       1.00000                       0.00008
                       0.00000                       1.00000                       0.00008
                       0.00000                       1.00000                       0.00009
                       0.00000                       1.00000                       0.00010
                       0.00000                       1.00000                       0.00011
                       0.00000                       1.00000                       0.00012
                       0.00000                       1.00000                       0.00012
                       0.00000                       1.00000                       0.00013
                       0.00000                       1.00000                       0.00013
                       0.00000                       1.00000                       0.00014
                       0.00000                       1.00000                       0.00014
                       0.00000                       1.00000                       0.00014
                       0.00000                       1.00000                       0.00014
                      -0.00000                       1.00000                      -0.00000
        </DataArray>
        <DataArray type="Float32" Name="OrientationZ" NumberOfComponents="3" format="ascii">
                       0.00002                      -0.00001                       1.00000
                       0.00007                      -0.00002                       1.00000
                       0.00012                      -0.00003                       1.00000
                       0.00017                      -0.00004                       1.00000
                       0.00022                      -0.00004                       1.00000
                       0.00027                      -0.00005                       1.00000
                       0.00031                      -0.00006                       1.00000
                       0.00035                      -0.00007                       1.00000
                       0.00039                      -0.00008                       1.00000
                       0.00042                      -0.00008                       1.00000
                       0.00045                      -0.00009                       1.00000
                       0.00049                      -0.00010                       1.00000
                       0.00052                      -0.00011                       1.00000
                       0.00056                      -0.00012                       1.00000
                       0.00059                      -0.00012                       1.00000
                       0.00062                      -0.00013                       1.00000
                       0.00064                      -0.00013                       1.00000
                       0.00065                      -0.00014                       1.00000
                       0.00064                      -0.00014                       1.00000
                       0.00061                      -0.00014                       1.00000
                       0.00058                      -0.00014                       1.00000
                       0.00000                      -0.00000                       1.00000
        </DataArray>
      </PointData>
      <Lines>
        <DataArray type="Int32" Name="connectivity" format="ascii">
      0      1
      1      2
      2      3
      3      4
      4      5
      5      6
      6      7
      7      8
      8      9
      9     10
     10     11
     11     12
     12     13
     13     14
     14     15
     15     16
     16     17
     17     18
     18     19
     19     20
     21      0
        </DataArray>
        <DataArray type="Int32" Name="offsets" format="ascii">
      2
      4
      6
      8
     10
     12
     14
     16
     18
     20
     22
     24
     26
     28
     30
     32
     34
     36
     38
     40
     42
        </DataArray>
      </Lines>
    </Piece>
  </PolyData>
</VTKFile>
