<?xml version="1.0"?>
<VTKFile type="PolyData" version="0.1" byte_order="LittleEndian">
  <PolyData>
    <Piece NumberOfPoints="     19" NumberOfVerts="  0" NumberOfLines="     18"
           NumberOfStrips="  0" NumberOfPolys="      0">
      <Points>
        <DataArray type="Float32" NumberOfComponents="3" format="ascii">
                      -4.87776                       1.46294                      90.23728
                      -4.91972                       2.81344                      90.44334
                      -5.01403                       5.49995                      90.94940
                      -5.10985                       8.18013                      91.49895
                      -5.22460                      11.52742                      92.21058
                      -5.30575                      15.56809                      92.91587
                      -5.35043                      19.62921                      93.48761
                      -5.36554                      23.69128                      94.05386
                      -5.34061                      27.75418                      94.61285
                      -5.26768                      31.81702                      95.16669
                      -5.13925                      35.87847                      95.71909
                      -4.94693                      39.93776                      96.26828
                      -4.68461                      43.99374                      96.81381
                      -4.34782                      48.04504                      97.35497
                      -3.93168                      52.08992                      97.89043
                      -3.52218                      55.45425                      98.33092
                      -3.15741                      58.14198                      98.67112
                      -2.76608                      60.83290                      98.95250
                      -2.55486                      62.17003                      99.13216
        </DataArray>
      </Points>
      <PointData>
        <DataArray type="Float32" Name="TranslationalVelocity" NumberOfComponents="3" format="ascii">
                       0.14555                      -0.16431                       1.42620
                       0.26311                      -0.35863                       2.72353
                       0.49677                      -0.83665                       5.30458
                       0.72955                      -1.35644                       7.87996
                       1.01970                      -2.03056                      11.09702
                       1.36884                      -2.70181                      14.98146
                       1.71814                      -3.24803                      18.88666
                       2.06540                      -3.79164                      22.79387
                       2.41003                      -4.33178                      26.70289
                       2.75138                      -4.87105                      30.61277
                       3.08879                      -5.41354                      34.52211
                       3.42174                      -5.95812                      38.43007
                       3.74984                      -6.50472                      42.33541
                       4.07287                      -7.05284                      46.23675
                       4.39085                      -7.60142                      50.13234
                       4.65210                      -8.05760                      53.37283
                       4.85911                      -8.41339                      55.96184
                       5.06512                      -8.71423                      58.55414
                       5.16724                      -8.90324                      59.84235
        </DataArray>
        <DataArray type="Float32" Name="RotationalVelocity" NumberOfComponents="3" format="ascii">
                       0.96057                       0.00043                      -0.08700
                       0.96062                       0.00043                      -0.08696
                       0.96075                       0.00040                      -0.08687
                       0.96091                       0.00037                      -0.08675
                       0.96114                       0.00030                      -0.08654
                       0.96142                       0.00023                      -0.08621
                       0.96169                       0.00019                      -0.08575
                       0.96193                       0.00023                      -0.08516
                       0.96215                       0.00036                      -0.08442
                       0.96236                       0.00061                      -0.08353
                       0.96256                       0.00097                      -0.08249
                       0.96277                       0.00143                      -0.08133
                       0.96298                       0.00191                      -0.08011
                       0.96318                       0.00232                      -0.07889
                       0.96336                       0.00252                      -0.07780
                       0.96346                       0.00239                      -0.07709
                       0.96349                       0.00199                      -0.07672
                       0.96343                       0.00122                      -0.07661
                       0.96337                       0.00067                      -0.07667
        </DataArray>
        <DataArray type="Float32" Name="TranslationalAcceleration" NumberOfComponents="3" format="ascii">
                       0.21197                      -1.38570                      -0.10654
                       0.05454                      -1.68003                      -0.14686
                       0.12006                      -4.79990                      -0.50489
                       0.14140                      -7.66840                      -0.88393
                       0.12556                     -11.01899                      -1.35955
                       0.07794                     -14.84031                      -1.77631
                       0.01543                     -18.57277                      -2.05863
                      -0.06026                     -22.29626                      -2.33358
                      -0.14360                     -26.05735                      -2.60492
                      -0.23477                     -29.86947                      -2.87725
                      -0.33863                     -33.72224                      -3.15464
                      -0.46339                     -37.59125                      -3.43472
                      -0.62025                     -41.44698                      -3.71541
                      -0.82265                     -45.26412                      -3.99394
                      -1.08555                     -49.03034                      -4.26712
                      -1.36418                     -52.13568                      -4.48827
                      -1.63004                     -54.61324                      -4.65229
                      -1.93436                     -57.11077                      -4.75967
                      -2.11056                     -58.36976                      -4.84935
        </DataArray>
        <DataArray type="Float32" Name="OrientationX" NumberOfComponents="3" format="ascii">
                       0.98934                       0.00861                       0.14534
                       0.98936                       0.00822                       0.14528
                       0.98940                       0.00699                       0.14505
                       0.98946                       0.00515                       0.14469
                       0.98957                       0.00207                       0.14406
                       0.99374                       0.00179                       0.11171
                       0.99615                      -0.00137                       0.08766
                       0.99779                      -0.00671                       0.06603
                       0.99899                      -0.01385                       0.04280
                       0.99956                      -0.02302                       0.01845
                       0.99939                      -0.03451                      -0.00522
                       0.99842                      -0.04805                      -0.02916
                       0.99665                      -0.06354                      -0.05153
                       0.99430                      -0.08073                      -0.06962
                       0.99134                      -0.09807                      -0.08739
                       0.98850                      -0.11171                      -0.10194
                       0.98619                      -0.12147                      -0.11257
                       0.98437                      -0.13004                      -0.11877
                       0.98379                      -0.13380                      -0.11938
        </DataArray>
        <DataArray type="Float32" Name="OrientationY" NumberOfComponents="3" format="ascii">
                       0.14239                       0.15125                      -0.97819
                       0.14239                       0.15099                      -0.97823
                       0.14237                       0.15031                      -0.97833
                       0.14230                       0.14947                      -0.97847
                       0.14216                       0.14826                      -0.97868
                       0.11025                       0.14667                      -0.98302
                       0.08693                       0.14521                      -0.98557
                       0.06631                       0.14397                      -0.98736
                       0.04434                       0.14302                      -0.98873
                       0.02154                       0.14246                      -0.98957
                      -0.00026                       0.14232                      -0.98982
                      -0.02204                       0.14269                      -0.98952
                      -0.04197                       0.14349                      -0.98876
                      -0.05744                       0.14446                      -0.98784
                      -0.07256                       0.14575                      -0.98666
                      -0.08502                       0.14701                      -0.98547
                      -0.09415                       0.14800                      -0.98450
                      -0.09911                       0.14843                      -0.98394
                      -0.09923                       0.14827                      -0.98395
        </DataArray>
        <DataArray type="Float32" Name="OrientationZ" NumberOfComponents="3" format="ascii">
                      -0.03040                       0.98846                       0.14841
                      -0.02998                       0.98850                       0.14821
                      -0.02864                       0.98861                       0.14773
                      -0.02667                       0.98875                       0.14716
                      -0.02338                       0.98895                       0.14641
                      -0.01815                       0.98918                       0.14555
                      -0.01138                       0.98940                       0.14477
                      -0.00288                       0.98956                       0.14410
                       0.00758                       0.98962                       0.14349
                       0.02015                       0.98953                       0.14289
                       0.03490                       0.98922                       0.14223
                       0.05171                       0.98860                       0.14140
                       0.07022                       0.98761                       0.14034
                       0.08981                       0.98621                       0.13900
                       0.10950                       0.98445                       0.13737
                       0.12508                       0.98281                       0.13582
                       0.13625                       0.98150                       0.13452
                       0.14558                       0.98034                       0.13322
                       0.14935                       0.97985                       0.13259
        </DataArray>
        <DataArray type="Float32" Name="Force" NumberOfComponents="3" format="ascii">
                       0.02901                      -0.04724                       0.32055
                      70.12249                       4.01926                     -12.61489
                      80.45830                       8.59403                     -41.78505
                      68.36704                      10.81882                     -59.95158
                     755.32293                     -31.37843                     328.74019
                     934.92727                     -25.65485                     286.28630
                    1186.79120                     -29.17962                     287.19938
                    1631.23758                     -43.45029                     324.56044
                    1914.64607                     -60.44925                     310.26492
                    2343.05382                     -93.65165                     314.01260
                    2992.17163                    -153.65462                     332.73663
                    3589.36095                    -235.32892                     334.62827
                    4087.56414                    -334.25529                     312.87436
                    4568.22118                    -455.81735                     292.20357
                    5003.02899                    -591.62275                     264.30606
                    5304.24042                    -705.47692                     233.61896
                    5385.61549                    -772.12609                     191.45811
                    3996.40854                    -609.43859                     125.39381
                    1491.98960                    -202.57076                    -183.84673
        </DataArray>
        <DataArray type="Float32" Name="Moment" NumberOfComponents="3" format="ascii">
                       0.00000                       0.00000                       0.00000
                       0.00000                       0.00000                       0.00000
                       0.00000                       0.00000                       0.00000
                       0.00000                       0.00000                       0.00000
                       8.93610                    -379.96564                     -56.79977
                       9.25103                    -508.67777                     -75.79508
                       6.99021                    -617.44683                     -91.61853
                       2.29837                    -841.25529                    -124.17401
                      -8.34287                   -1068.59191                    -156.71102
                     -24.40160                   -1192.10145                    -173.45801
                     -43.97828                   -1245.10162                    -179.49650
                     -68.21519                   -1305.15578                    -186.15275
                     -85.81195                   -1208.85488                    -170.36964
                    -108.45666                   -1193.39989                    -166.04306
                    -127.38957                   -1147.66698                    -157.59067
                    -138.51278                   -1090.49327                    -148.15908
                    -135.16832                    -975.41330                    -131.50373
                     -74.68786                    -503.64717                     -67.45801
                     -66.54439                    -437.12304                     -58.39204
        </DataArray>
      </PointData>
      <Lines>
        <DataArray type="Int32" Name="connectivity" format="ascii">
      0      1
      1      2
      2      3
      3      4
      4      5
      5      6
      6      7
      7      8
      8      9
      9     10
     10     11
     11     12
     12     13
     13     14
     14     15
     15     16
     16     17
     17     18
        </DataArray>
        <DataArray type="Int32" Name="offsets" format="ascii">
      2
      4
      6
      8
     10
     12
     14
     16
     18
     20
     22
     24
     26
     28
     30
     32
     34
     36
        </DataArray>
      </Lines>
    </Piece>
  </PolyData>
</VTKFile>
