<?xml version="1.0"?>
<VTKFile type="PolyData" version="0.1" byte_order="LittleEndian">
  <PolyData>
    <Piece NumberOfPoints="     19" NumberOfVerts="  0" NumberOfLines="     18"
           NumberOfStrips="  0" NumberOfPolys="      0">
      <Points>
        <DataArray type="Float32" NumberOfComponents="3" format="ascii">
                      -5.10482                       1.38403                      89.43453
                      -5.21031                       2.64661                      88.92200
                      -5.43557                       5.20669                      87.98539
                      -5.66730                       7.78311                      87.08956
                      -5.96036                      11.01312                      85.99247
                      -6.26965                      14.83506                      84.53507
                      -6.56364                      18.60631                      82.95149
                      -6.85773                      22.37489                      81.36171
                      -7.14911                      26.14033                      79.76414
                      -7.43787                      29.90354                      78.16104
                      -7.72445                      33.66615                      76.55637
                      -8.00767                      37.42786                      74.94917
                      -8.28769                      41.18888                      73.33998
                      -8.56481                      44.94941                      71.72927
                      -8.83700                      48.70969                      70.11725
                      -9.05980                      51.84313                      68.77291
                      -9.23634                      54.34661                      67.68961
                      -9.41601                      56.82840                      66.55528
                      -9.50230                      58.08545                      66.02612
        </DataArray>
      </Points>
      <PointData>
        <DataArray type="Float32" Name="TranslationalVelocity" NumberOfComponents="3" format="ascii">
                       0.03179                       0.10171                       0.23693
                       0.05054                       0.19062                       0.45210
                       0.08851                       0.35355                       0.88832
                       0.12667                       0.50959                       1.32722
                       0.17436                       0.70074                       1.87727
                       0.23051                       0.95338                       2.52783
                       0.28555                       1.22711                       3.16943
                       0.34014                       1.50173                       3.81027
                       0.39422                       1.77748                       4.45029
                       0.44772                       2.05396                       5.08967
                       0.50063                       2.33055                       5.72875
                       0.55286                       2.60739                       6.36751
                       0.60438                       2.88442                       7.00604
                       0.65516                       3.16157                       7.64441
                       0.70517                       3.43881                       8.28270
                       0.74623                       3.66991                       8.81457
                       0.77866                       3.85607                       9.23951
                       0.81043                       4.05091                       9.66076
                       0.82643                       4.14183                       9.87412
        </DataArray>
        <DataArray type="Float32" Name="RotationalVelocity" NumberOfComponents="3" format="ascii">
                       0.17042                       0.00020                      -0.01493
                       0.17041                       0.00020                      -0.01492
                       0.17037                       0.00020                      -0.01490
                       0.17033                       0.00021                      -0.01487
                       0.17026                       0.00021                      -0.01482
                       0.17018                       0.00022                      -0.01474
                       0.17009                       0.00024                      -0.01465
                       0.17001                       0.00025                      -0.01454
                       0.16994                       0.00026                      -0.01442
                       0.16988                       0.00028                      -0.01428
                       0.16983                       0.00030                      -0.01413
                       0.16979                       0.00033                      -0.01396
                       0.16976                       0.00037                      -0.01378
                       0.16974                       0.00041                      -0.01359
                       0.16973                       0.00046                      -0.01341
                       0.16972                       0.00051                      -0.01326
                       0.16972                       0.00055                      -0.01316
                       0.16972                       0.00060                      -0.01308
                       0.16972                       0.00063                      -0.01304
        </DataArray>
        <DataArray type="Float32" Name="TranslationalAcceleration" NumberOfComponents="3" format="ascii">
                       0.05769                      -0.05289                       0.03184
                       0.01888                      -0.04899                       0.03370
                       0.04678                      -0.13942                       0.09387
                       0.06423                      -0.22136                       0.14719
                       0.07636                      -0.31524                       0.20793
                       0.08267                      -0.41676                       0.27905
                       0.08566                      -0.51158                       0.35077
                       0.08899                      -0.60574                       0.42209
                       0.09454                      -0.70112                       0.49415
                       0.10270                      -0.79839                       0.56726
                       0.11274                      -0.89730                       0.64115
                       0.12319                      -0.99698                       0.71539
                       0.13227                      -1.09644                       0.78939
                       0.13818                      -1.19485                       0.86272
                       0.13957                      -1.29200                       0.93529
                       0.13675                      -1.37243                       0.99547
                       0.13206                      -1.43691                       1.04411
                       0.12556                      -1.50160                       1.09499
                       0.12210                      -1.53546                       1.11997
        </DataArray>
        <DataArray type="Float32" Name="OrientationX" NumberOfComponents="3" format="ascii">
                       0.98565                       0.12734                       0.11084
                       0.98565                       0.12732                       0.11085
                       0.98565                       0.12727                       0.11087
                       0.98566                       0.12719                       0.11090
                       0.98567                       0.12706                       0.11096
                       0.98999                       0.11509                       0.08171
                       0.99250                       0.10617                       0.06065
                       0.99427                       0.09814                       0.04233
                       0.99572                       0.08947                       0.02302
                       0.99676                       0.08037                       0.00322
                       0.99732                       0.07150                      -0.01539
                       0.99747                       0.06252                      -0.03375
                       0.99727                       0.05413                      -0.05025
                       0.99692                       0.04738                      -0.06256
                       0.99638                       0.04069                      -0.07462
                       0.99579                       0.03514                      -0.08471
                       0.99526                       0.03104                      -0.09221
                       0.99496                       0.02861                      -0.09611
                       0.99498                       0.02836                      -0.09597
        </DataArray>
        <DataArray type="Float32" Name="OrientationY" NumberOfComponents="3" format="ascii">
                       0.15034                      -0.36329                      -0.91947
                       0.15035                      -0.36347                      -0.91939
                       0.15039                      -0.36392                      -0.91921
                       0.15044                      -0.36450                      -0.91897
                       0.15050                      -0.36531                      -0.91864
                       0.11907                      -0.37021                      -0.92128
                       0.09636                      -0.37379                      -0.92250
                       0.07649                      -0.37680                      -0.92313
                       0.05546                      -0.37965                      -0.92347
                       0.03381                      -0.38224                      -0.92344
                       0.01332                      -0.38443                      -0.92306
                      -0.00699                      -0.38631                      -0.92234
                      -0.02538                      -0.38779                      -0.92140
                      -0.03928                      -0.38882                      -0.92047
                      -0.05294                      -0.38968                      -0.91943
                      -0.06436                      -0.39029                      -0.91844
                      -0.07284                      -0.39067                      -0.91764
                      -0.07735                      -0.39089                      -0.91718
                      -0.07732                      -0.39092                      -0.91717
        </DataArray>
        <DataArray type="Float32" Name="OrientationZ" NumberOfComponents="3" format="ascii">
                      -0.07682                       0.92293                      -0.37722
                      -0.07677                       0.92287                      -0.37739
                      -0.07664                       0.92269                      -0.37784
                      -0.07646                       0.92248                      -0.37840
                      -0.07619                       0.92217                      -0.37920
                      -0.07578                       0.92179                      -0.38021
                      -0.07527                       0.92142                      -0.38121
                      -0.07464                       0.92108                      -0.38215
                      -0.07389                       0.92079                      -0.38299
                      -0.07298                       0.92056                      -0.38372
                      -0.07192                       0.92038                      -0.38435
                      -0.07071                       0.92025                      -0.38489
                      -0.06936                       0.92016                      -0.38536
                      -0.06793                       0.92009                      -0.38576
                      -0.06649                       0.92005                      -0.38612
                      -0.06533                       0.92002                      -0.38638
                      -0.06451                       0.92001                      -0.38656
                      -0.06381                       0.91999                      -0.38671
                      -0.06353                       0.91999                      -0.38676
        </DataArray>
        <DataArray type="Float32" Name="Force" NumberOfComponents="3" format="ascii">
                      49.00978                      -6.33441                     -25.47832
                      67.71237                      -7.77305                     -32.79512
                      70.43737                      -9.63922                     -37.88235
                      58.19798                      -8.98284                     -33.75568
                     525.83641                      88.90438                     111.52444
                     484.35902                      72.69421                      80.85652
                     521.48570                      74.12045                      77.72441
                     494.28228                      63.80144                      58.80017
                     457.05645                      50.83251                      35.40331
                     459.00056                      46.63423                      25.92814
                     368.47608                      31.82143                       8.17017
                     368.21305                      28.50670                       1.34050
                     356.02571                      26.14116                      -0.88212
                     314.53414                      22.74472                      -0.42257
                     336.99628                      22.59911                      -3.46373
                     305.17306                      20.28373                      -2.63722
                     306.31023                      19.15992                      -4.89260
                     216.48364                      13.41251                      -3.36871
                     217.47434                      18.47526                       8.97602
        </DataArray>
        <DataArray type="Float32" Name="Moment" NumberOfComponents="3" format="ascii">
                       0.00000                       0.00000                       0.00000
                       0.00000                       0.00000                       0.00000
                       0.00000                       0.00000                       0.00000
                       0.00000                       0.00000                       0.00000
                      22.23795                    -269.97395                     110.36455
                      23.82315                    -291.11949                     119.02249
                      23.40820                    -288.31748                     117.89316
                      23.41773                    -291.16412                     119.07656
                      24.30686                    -305.62087                     125.01285
                      25.31029                    -322.47303                     131.93565
                      15.58475                    -201.65170                      82.52440
                      13.53500                    -178.25923                      72.97240
                      15.15277                    -203.55812                      83.35532
                      10.45370                    -143.47112                      58.77001
                      10.48007                    -147.04309                      60.25368
                       7.73452                    -110.47992                      45.28345
                       7.35532                    -106.44639                      43.63867
                       3.39333                     -49.65608                      20.36028
                       2.41634                     -35.51914                      14.56472
        </DataArray>
      </PointData>
      <Lines>
        <DataArray type="Int32" Name="connectivity" format="ascii">
      0      1
      1      2
      2      3
      3      4
      4      5
      5      6
      6      7
      7      8
      8      9
      9     10
     10     11
     11     12
     12     13
     13     14
     14     15
     15     16
     16     17
     17     18
        </DataArray>
        <DataArray type="Int32" Name="offsets" format="ascii">
      2
      4
      6
      8
     10
     12
     14
     16
     18
     20
     22
     24
     26
     28
     30
     32
     34
     36
        </DataArray>
      </Lines>
    </Piece>
  </PolyData>
</VTKFile>
