<?xml version="1.0"?>
<VTKFile type="PolyData" version="0.1" byte_order="LittleEndian">
  <PolyData>
    <Piece NumberOfPoints="     19" NumberOfVerts="  0" NumberOfLines="     18"
           NumberOfStrips="  0" NumberOfPolys="      0">
      <Points>
        <DataArray type="Float32" NumberOfComponents="3" format="ascii">
                      -5.08528                       1.04094                      88.93689
                      -5.23190                       1.99119                      87.96555
                      -5.53965                       3.95874                      86.09039
                      -5.85233                       5.95785                      84.24647
                      -6.24279                       8.47547                      81.95916
                      -6.65829                      11.39444                      79.10709
                      -7.04465                      14.21984                      76.16010
                      -7.41627                      17.04315                      73.20926
                      -7.76692                      19.86350                      70.25310
                      -8.09326                      22.68261                      67.29309
                      -8.39252                      25.50339                      64.33194
                      -8.66062                      28.32493                      61.36861
                      -8.89538                      31.14724                      58.40319
                      -9.09557                      33.97017                      55.43576
                      -9.25861                      36.79333                      52.46626
                      -9.36565                      39.14561                      49.98996
                      -9.43484                      41.02107                      48.00246
                      -9.49422                      42.85596                      45.97597
                      -9.51654                      43.80285                      44.99119
        </DataArray>
      </Points>
      <PointData>
        <DataArray type="Float32" Name="TranslationalVelocity" NumberOfComponents="3" format="ascii">
                       0.06651                       0.54607                       0.52711
                       0.10865                       1.04293                       1.00683
                       0.19593                       2.00295                       1.99984
                       0.28453                       2.94704                       3.00833
                       0.39591                       4.11761                       4.27764
                       0.52455                       5.57299                       5.74818
                       0.64840                       7.07364                       7.17042
                       0.77145                       8.57430                       8.59050
                       0.89356                      10.07553                      10.00808
                       1.01478                      11.57657                      11.42414
                       1.13525                      13.07609                      12.84028
                       1.25503                      14.57463                      14.25619
                       1.37427                      16.07220                      15.67200
                       1.49324                      17.56887                      17.08774
                       1.61228                      19.06467                      18.50329
                       1.71187                      20.31059                      19.68251
                       1.79177                      21.30975                      20.62254
                       1.87069                      22.32791                      21.54206
                       1.91168                      22.82234                      22.01651
        </DataArray>
        <DataArray type="Float32" Name="RotationalVelocity" NumberOfComponents="3" format="ascii">
                       0.50485                       0.00037                      -0.04473
                       0.50478                       0.00037                      -0.04472
                       0.50460                       0.00037                      -0.04469
                       0.50438                       0.00037                      -0.04464
                       0.50406                       0.00039                      -0.04455
                       0.50365                       0.00044                      -0.04442
                       0.50325                       0.00052                      -0.04428
                       0.50287                       0.00063                      -0.04412
                       0.50252                       0.00075                      -0.04396
                       0.50223                       0.00086                      -0.04380
                       0.50199                       0.00095                      -0.04362
                       0.50179                       0.00098                      -0.04343
                       0.50163                       0.00092                      -0.04322
                       0.50151                       0.00072                      -0.04297
                       0.50142                       0.00035                      -0.04268
                       0.50136                      -0.00012                      -0.04238
                       0.50133                      -0.00064                      -0.04210
                       0.50130                      -0.00129                      -0.04178
                       0.50128                      -0.00168                      -0.04160
        </DataArray>
        <DataArray type="Float32" Name="TranslationalAcceleration" NumberOfComponents="3" format="ascii">
                       0.02232                      -0.21737                       0.31354
                       0.03196                      -0.27429                       0.37751
                       0.09053                      -0.80407                       1.06580
                       0.14333                      -1.30580                       1.68987
                       0.20251                      -1.90244                       2.41133
                       0.26676                      -2.55616                       3.24599
                       0.32489                      -3.16796                       4.07297
                       0.37629                      -3.77976                       4.89382
                       0.42223                      -4.39864                       5.72013
                       0.46388                      -5.02702                       6.55544
                       0.50260                      -5.66378                       7.39770
                       0.54014                      -6.30459                       8.24242
                       0.57876                      -6.94483                       9.08372
                       0.62138                      -7.58089                       9.91667
                       0.67182                      -8.21173                      10.73924
                       0.72360                      -8.73556                      11.41849
                       0.77345                      -9.15445                      11.96272
                       0.83237                      -9.56761                      12.52034
                       0.86698                      -9.78611                      12.79622
        </DataArray>
        <DataArray type="Float32" Name="OrientationX" NumberOfComponents="3" format="ascii">
                       0.97983                       0.19515                       0.04293
                       0.97986                       0.19499                       0.04309
                       0.97994                       0.19449                       0.04357
                       0.98005                       0.19373                       0.04429
                       0.98025                       0.19246                       0.04548
                       0.98544                       0.16815                       0.02504
                       0.98873                       0.14931                       0.01136
                       0.99128                       0.13177                       0.00028
                       0.99358                       0.11264                      -0.01097
                       0.99549                       0.09223                      -0.02198
                       0.99692                       0.07186                      -0.03150
                       0.99789                       0.05089                      -0.04027
                       0.99841                       0.03073                      -0.04721
                       0.99862                       0.01350                      -0.05075
                       0.99853                      -0.00347                      -0.05417
                       0.99820                      -0.01720                      -0.05738
                       0.99783                      -0.02713                      -0.05997
                       0.99761                      -0.03340                      -0.06043
                       0.99764                      -0.03450                      -0.05938
        </DataArray>
        <DataArray type="Float32" Name="OrientationY" NumberOfComponents="3" format="ascii">
                       0.16880                      -0.69347                      -0.70044
                       0.16882                      -0.69358                      -0.70032
                       0.16884                      -0.69388                      -0.70001
                       0.16886                      -0.69426                      -0.69963
                       0.16885                      -0.69481                      -0.69909
                       0.13743                      -0.70126                      -0.69954
                       0.11458                      -0.70558                      -0.69931
                       0.09445                      -0.70903                      -0.69883
                       0.07302                      -0.71218                      -0.69819
                       0.05084                      -0.71490                      -0.69738
                       0.02968                      -0.71698                      -0.69646
                       0.00858                      -0.71853                      -0.69544
                      -0.01070                      -0.71948                      -0.69443
                      -0.02552                      -0.71990                      -0.69360
                      -0.04009                      -0.72004                      -0.69277
                      -0.05219                      -0.71996                      -0.69205
                      -0.06113                      -0.71981                      -0.69147
                      -0.06596                      -0.71975                      -0.69110
                      -0.06603                      -0.71980                      -0.69103
        </DataArray>
        <DataArray type="Float32" Name="OrientationZ" NumberOfComponents="3" format="ascii">
                      -0.10692                       0.69356                      -0.71242
                      -0.10667                       0.69349                      -0.71253
                      -0.10591                       0.69333                      -0.71280
                      -0.10479                       0.69316                      -0.71313
                      -0.10295                       0.69297                      -0.71358
                      -0.10006                       0.69280                      -0.71416
                      -0.09640                       0.69273                      -0.71473
                      -0.09189                       0.69276                      -0.71529
                      -0.08646                       0.69290                      -0.71583
                      -0.08004                       0.69312                      -0.71637
                      -0.07263                       0.69337                      -0.71691
                      -0.06433                       0.69363                      -0.71745
                      -0.05530                       0.69384                      -0.71801
                      -0.04590                       0.69394                      -0.71857
                      -0.03660                       0.69392                      -0.71912
                      -0.02941                       0.69380                      -0.71957
                      -0.02440                       0.69364                      -0.71991
                      -0.02041                       0.69343                      -0.72023
                      -0.01890                       0.69332                      -0.72038
        </DataArray>
        <DataArray type="Float32" Name="Force" NumberOfComponents="3" format="ascii">
                      -2.76802                     -32.51439                     -31.23797
                      68.23063                     -53.10185                     -61.90927
                      86.09047                     -72.54793                     -83.41090
                      75.78089                     -71.21506                     -80.44907
                     769.17713                     261.85409                     143.78200
                     970.75625                     302.67210                     158.32343
                    1160.95777                     332.62529                     166.72539
                    1441.36698                     374.43191                     178.57163
                    1581.31590                     376.51061                     174.53990
                    1767.56425                     379.98683                     171.14579
                    1999.69028                     381.33267                     167.02329
                    2165.99266                     366.48225                     160.69016
                    2194.87714                     345.03687                     164.70981
                    2311.90417                     321.24130                     162.72376
                    2391.61169                     290.59353                     158.71480
                    2424.34208                     260.69564                     152.28320
                    2351.22759                     228.29904                     140.30364
                    1698.94378                     150.53937                      96.86771
                     549.01375                     -22.46666                     -36.03239
        </DataArray>
        <DataArray type="Float32" Name="Moment" NumberOfComponents="3" format="ascii">
                       0.00000                       0.00000                       0.00000
                       0.00000                       0.00000                       0.00000
                       0.00000                       0.00000                       0.00000
                       0.00000                       0.00000                       0.00000
                      32.85475                    -221.50800                     227.64779
                      42.13393                    -292.36186                     300.57459
                      44.87101                    -323.28435                     332.51808
                      50.73761                    -383.57702                     394.75453
                      50.41328                    -405.15353                     417.24142
                      47.30504                    -410.69208                     423.28171
                      44.59466                    -426.61243                     440.09276
                      43.62375                    -471.16097                     486.54763
                      30.56341                    -383.85987                     396.83659
                      24.89360                    -376.59353                     389.77575
                      18.86227                    -357.64181                     370.58408
                      13.86641                    -327.13401                     339.27238
                       9.96551                    -283.32853                     294.02262
                       4.26732                    -145.09742                     150.64815
                       3.21802                    -118.16756                     122.71088
        </DataArray>
      </PointData>
      <Lines>
        <DataArray type="Int32" Name="connectivity" format="ascii">
      0      1
      1      2
      2      3
      3      4
      4      5
      5      6
      6      7
      7      8
      8      9
      9     10
     10     11
     11     12
     12     13
     13     14
     14     15
     15     16
     16     17
     17     18
        </DataArray>
        <DataArray type="Int32" Name="offsets" format="ascii">
      2
      4
      6
      8
     10
     12
     14
     16
     18
     20
     22
     24
     26
     28
     30
     32
     34
     36
        </DataArray>
      </Lines>
    </Piece>
  </PolyData>
</VTKFile>
