<?xml version="1.0"?>
<VTKFile type="PolyData" version="0.1" byte_order="LittleEndian">
  <PolyData>
    <Piece NumberOfPoints="     19" NumberOfVerts="  0" NumberOfLines="     18"
           NumberOfStrips="  0" NumberOfPolys="      0">
      <Points>
        <DataArray type="Float32" NumberOfComponents="3" format="ascii">
                      -5.10258                       1.39068                      89.45036
                      -5.20682                       2.65909                      88.95219
                      -5.42955                       5.22985                      88.04469
                      -5.65873                       7.81650                      87.17814
                      -5.94861                      11.05903                      86.11776
                      -6.25415                      14.89755                      84.70378
                      -6.54447                      18.68679                      83.16302
                      -6.83491                      22.47341                      81.61602
                      -7.12268                      26.25696                      80.06117
                      -7.40786                      30.03835                      78.50075
                      -7.69090                      33.81913                      76.93874
                      -7.97064                      37.59903                      75.37419
                      -8.24721                      41.37826                      73.80762
                      -8.52094                      45.15701                      72.23952
                      -8.78981                      48.93550                      70.67011
                      -9.00988                      52.08413                      69.36127
                      -9.18427                      54.59985                      68.30634
                      -9.36185                      57.09445                      67.20014
                      -9.44708                      58.35747                      66.68521
        </DataArray>
      </Points>
      <PointData>
        <DataArray type="Float32" Name="TranslationalVelocity" NumberOfComponents="3" format="ascii">
                       0.03550                       0.09815                       0.23901
                       0.05436                       0.18484                       0.45580
                       0.09256                       0.34322                       0.89509
                       0.13094                       0.49465                       1.33699
                       0.17894                       0.68004                       1.89074
                       0.23550                       0.92592                       2.54596
                       0.29101                       1.19307                       3.19243
                       0.34611                       1.46112                       3.83814
                       0.40072                       1.73030                       4.48303
                       0.45479                       2.00025                       5.12728
                       0.50824                       2.27029                       5.77120
                       0.56099                       2.54058                       6.41481
                       0.61294                       2.81107                       7.05817
                       0.66402                       3.08167                       7.70137
                       0.71413                       3.35234                       8.34449
                       0.75505                       3.57796                       8.88040
                       0.78720                       3.75974                       9.30858
                       0.81849                       3.95025                       9.73318
                       0.83417                       4.03896                       9.94816
        </DataArray>
        <DataArray type="Float32" Name="RotationalVelocity" NumberOfComponents="3" format="ascii">
                       0.17090                       0.00026                      -0.01497
                       0.17089                       0.00026                      -0.01497
                       0.17085                       0.00026                      -0.01495
                       0.17080                       0.00027                      -0.01492
                       0.17074                       0.00028                      -0.01488
                       0.17065                       0.00030                      -0.01482
                       0.17056                       0.00033                      -0.01474
                       0.17048                       0.00037                      -0.01465
                       0.17040                       0.00041                      -0.01455
                       0.17034                       0.00045                      -0.01442
                       0.17028                       0.00050                      -0.01427
                       0.17024                       0.00055                      -0.01410
                       0.17021                       0.00061                      -0.01390
                       0.17018                       0.00067                      -0.01368
                       0.17017                       0.00075                      -0.01345
                       0.17016                       0.00083                      -0.01326
                       0.17016                       0.00090                      -0.01311
                       0.17017                       0.00100                      -0.01297
                       0.17017                       0.00105                      -0.01291
        </DataArray>
        <DataArray type="Float32" Name="TranslationalAcceleration" NumberOfComponents="3" format="ascii">
                       0.05365                      -0.05415                       0.03093
                       0.01772                      -0.04984                       0.03314
                       0.04426                      -0.14174                       0.09228
                       0.06125                      -0.22490                       0.14469
                       0.07353                      -0.32009                       0.20442
                       0.08039                      -0.42303                       0.27456
                       0.08373                      -0.51924                       0.34545
                       0.08689                      -0.61479                       0.41601
                       0.09171                      -0.71160                       0.48736
                       0.09874                      -0.81032                       0.55980
                       0.10751                      -0.91068                       0.63307
                       0.11688                      -1.01178                       0.70672
                       0.12531                      -1.11259                       0.78019
                       0.13114                      -1.21229                       0.85301
                       0.13287                      -1.31065                       0.92508
                       0.13029                      -1.39208                       0.98482
                       0.12542                      -1.45740                       1.03308
                       0.11759                      -1.52305                       1.08360
                       0.11315                      -1.55741                       1.10837
        </DataArray>
        <DataArray type="Float32" Name="OrientationX" NumberOfComponents="3" format="ascii">
                       0.98577                       0.12509                       0.11226
                       0.98577                       0.12508                       0.11227
                       0.98578                       0.12503                       0.11229
                       0.98578                       0.12495                       0.11232
                       0.98580                       0.12482                       0.11237
                       0.99010                       0.11318                       0.08298
                       0.99260                       0.10451                       0.06183
                       0.99437                       0.09669                       0.04341
                       0.99581                       0.08825                       0.02400
                       0.99684                       0.07937                       0.00410
                       0.99739                       0.07073                      -0.01461
                       0.99753                       0.06197                      -0.03308
                       0.99732                       0.05378                      -0.04968
                       0.99696                       0.04718                      -0.06206
                       0.99642                       0.04064                      -0.07420
                       0.99581                       0.03522                      -0.08436
                       0.99528                       0.03121                      -0.09191
                       0.99498                       0.02883                      -0.09584
                       0.99500                       0.02859                      -0.09570
        </DataArray>
        <DataArray type="Float32" Name="OrientationY" NumberOfComponents="3" format="ascii">
                       0.14997                      -0.35298                      -0.92353
                       0.14998                      -0.35316                      -0.92346
                       0.15002                      -0.35362                      -0.92328
                       0.15007                      -0.35420                      -0.92305
                       0.15013                      -0.35502                      -0.92272
                       0.11870                      -0.35987                      -0.92542
                       0.09598                      -0.36341                      -0.92667
                       0.07611                      -0.36640                      -0.92734
                       0.05508                      -0.36923                      -0.92771
                       0.03342                      -0.37180                      -0.92771
                       0.01294                      -0.37398                      -0.92735
                      -0.00738                      -0.37585                      -0.92665
                      -0.02576                      -0.37733                      -0.92572
                      -0.03966                      -0.37836                      -0.92481
                      -0.05332                      -0.37922                      -0.92377
                      -0.06474                      -0.37983                      -0.92279
                      -0.07322                      -0.38022                      -0.92199
                      -0.07774                      -0.38043                      -0.92154
                      -0.07771                      -0.38046                      -0.92153
        </DataArray>
        <DataArray type="Float32" Name="OrientationZ" NumberOfComponents="3" format="ascii">
                      -0.07590                       0.92723                      -0.36672
                      -0.07586                       0.92716                      -0.36689
                      -0.07573                       0.92700                      -0.36735
                      -0.07555                       0.92678                      -0.36792
                      -0.07528                       0.92649                      -0.36872
                      -0.07488                       0.92611                      -0.36974
                      -0.07437                       0.92575                      -0.37075
                      -0.07376                       0.92542                      -0.37169
                      -0.07301                       0.92514                      -0.37254
                      -0.07211                       0.92491                      -0.37328
                      -0.07106                       0.92474                      -0.37392
                      -0.06986                       0.92461                      -0.37446
                      -0.06853                       0.92452                      -0.37493
                      -0.06711                       0.92446                      -0.37534
                      -0.06568                       0.92441                      -0.37569
                      -0.06454                       0.92439                      -0.37596
                      -0.06372                       0.92437                      -0.37613
                      -0.06303                       0.92436                      -0.37628
                      -0.06275                       0.92435                      -0.37634
        </DataArray>
        <DataArray type="Float32" Name="Force" NumberOfComponents="3" format="ascii">
                      48.22461                      -5.77884                     -24.59265
                      67.87006                      -7.14091                     -32.09077
                      70.51849                      -8.96289                     -37.21138
                      58.00404                      -8.38190                     -33.12363
                     521.43206                      86.35634                     111.52150
                     480.44506                      70.69163                      80.95076
                     513.73170                      71.32997                      76.60739
                     490.74431                      62.02175                      58.64292
                     457.33179                      49.93704                      35.79778
                     453.23096                      45.37347                      26.25286
                     365.64458                      31.11369                       8.40277
                     370.08209                      28.18502                       1.40617
                     354.76163                      25.49230                      -1.18833
                     311.54759                      22.02714                      -0.72916
                     335.69687                      21.96365                      -3.92396
                     302.26984                      19.64283                      -2.92069
                     299.27766                      18.45230                      -4.72636
                     214.62964                      13.01158                      -3.54206
                     215.74535                      18.04635                       9.12140
        </DataArray>
        <DataArray type="Float32" Name="Moment" NumberOfComponents="3" format="ascii">
                       0.00000                       0.00000                       0.00000
                       0.00000                       0.00000                       0.00000
                       0.00000                       0.00000                       0.00000
                       0.00000                       0.00000                       0.00000
                      21.92860                    -270.69202                     107.07977
                      23.47378                    -291.67741                     115.39468
                      22.88034                    -286.56611                     113.38848
                      23.10178                    -292.08658                     115.59203
                      24.43764                    -312.46589                     123.68122
                      24.53135                    -317.85285                     125.84219
                      15.23946                    -200.54045                      79.41748
                      13.40083                    -179.50664                      71.10877
                      15.14938                    -207.00148                      82.02705
                      10.27447                    -143.43795                      56.85870
                      10.54337                    -150.48590                      59.67317
                       7.61146                    -110.60432                      43.87072
                       6.97203                    -102.64850                      40.72313
                       3.34717                     -49.83005                      19.77205
                       2.36564                     -35.37685                      14.03811
        </DataArray>
      </PointData>
      <Lines>
        <DataArray type="Int32" Name="connectivity" format="ascii">
      0      1
      1      2
      2      3
      3      4
      4      5
      5      6
      6      7
      7      8
      8      9
      9     10
     10     11
     11     12
     12     13
     13     14
     14     15
     15     16
     16     17
     17     18
        </DataArray>
        <DataArray type="Int32" Name="offsets" format="ascii">
      2
      4
      6
      8
     10
     12
     14
     16
     18
     20
     22
     24
     26
     28
     30
     32
     34
     36
        </DataArray>
      </Lines>
    </Piece>
  </PolyData>
</VTKFile>
