<?xml version="1.0"?>
<VTKFile type="PolyData" version="0.1" byte_order="LittleEndian">
  <PolyData>
    <Piece NumberOfPoints="     22" NumberOfVerts="  0" NumberOfLines="     21"
           NumberOfStrips="  0" NumberOfPolys="      0">
      <Points>
        <DataArray type="Float32" NumberOfComponents="3" format="ascii">
                       0.00001                       0.00000                       2.19000
                       0.00011                       0.00000                       6.57000
                       0.00032                       0.00000                      10.95000
                       0.00063                       0.00001                      15.33000
                       0.00103                       0.00001                      19.71000
                       0.00152                       0.00002                      24.09000
                       0.00207                       0.00003                      28.47000
                       0.00267                       0.00004                      32.85000
                       0.00329                       0.00006                      37.23000
                       0.00392                       0.00009                      41.61000
                       0.00453                       0.00012                      45.99000
                       0.00511                       0.00016                      50.37000
                       0.00565                       0.00021                      54.75000
                       0.00613                       0.00027                      59.13000
                       0.00655                       0.00034                      63.51000
                       0.00691                       0.00043                      67.89000
                       0.00720                       0.00052                      72.27000
                       0.00741                       0.00062                      76.65000
                       0.00754                       0.00073                      81.03000
                       0.00758                       0.00085                      85.41000
                       0.00757                       0.00092                      87.60000
                       0.00000                       0.00000                       0.00000
        </DataArray>
      </Points>
      <PointData>
        <DataArray type="Float32" Name="TranslationalVelocity" NumberOfComponents="3" format="ascii">
                       0.00000                       0.00001                      -0.00000
                       0.00002                       0.00005                      -0.00000
                       0.00005                       0.00014                      -0.00000
                       0.00010                       0.00027                      -0.00000
                       0.00017                       0.00043                      -0.00000
                       0.00025                       0.00062                      -0.00000
                       0.00035                       0.00085                      -0.00000
                       0.00046                       0.00111                      -0.00000
                       0.00057                       0.00140                      -0.00000
                       0.00069                       0.00174                      -0.00000
                       0.00081                       0.00211                      -0.00000
                       0.00093                       0.00252                      -0.00000
                       0.00106                       0.00297                      -0.00000
                       0.00118                       0.00345                      -0.00000
                       0.00130                       0.00397                      -0.00000
                       0.00142                       0.00453                      -0.00000
                       0.00154                       0.00512                      -0.00000
                       0.00165                       0.00573                      -0.00000
                       0.00176                       0.00636                      -0.00000
                       0.00185                       0.00701                      -0.00000
                       0.00189                       0.00734                      -0.00000
                       0.00000                      -0.00000                       0.00000
        </DataArray>
        <DataArray type="Float32" Name="RotationalVelocity" NumberOfComponents="3" format="ascii">
                      -0.00001                       0.00000                       0.00000
                      -0.00002                       0.00001                       0.00000
                      -0.00002                       0.00001                       0.00000
                      -0.00003                       0.00001                       0.00000
                      -0.00004                       0.00002                       0.00000
                      -0.00005                       0.00002                       0.00000
                      -0.00006                       0.00002                       0.00000
                      -0.00006                       0.00003                       0.00000
                      -0.00007                       0.00003                       0.00000
                      -0.00008                       0.00003                       0.00000
                      -0.00009                       0.00003                       0.00000
                      -0.00010                       0.00003                       0.00000
                      -0.00011                       0.00003                       0.00000
                      -0.00012                       0.00003                       0.00000
                      -0.00012                       0.00003                       0.00000
                      -0.00013                       0.00003                       0.00000
                      -0.00014                       0.00003                       0.00000
                      -0.00014                       0.00002                       0.00000
                      -0.00015                       0.00002                       0.00000
                      -0.00015                       0.00002                       0.00000
                      -0.00015                       0.00002                       0.00000
                       0.00000                      -0.00000                       0.00000
        </DataArray>
        <DataArray type="Float32" Name="TranslationalAcceleration" NumberOfComponents="3" format="ascii">
                       0.00003                      -0.00001                      -0.00000
                       0.00027                      -0.00009                      -0.00000
                       0.00081                      -0.00025                      -0.00000
                       0.00166                      -0.00046                      -0.00000
                       0.00283                      -0.00074                      -0.00000
                       0.00430                      -0.00107                      -0.00000
                       0.00606                      -0.00145                      -0.00000
                       0.00810                      -0.00189                      -0.00000
                       0.01041                      -0.00240                      -0.00000
                       0.01297                      -0.00296                      -0.00000
                       0.01580                      -0.00358                      -0.00000
                       0.01890                      -0.00426                      -0.00000
                       0.02228                      -0.00500                      -0.00000
                       0.02595                      -0.00580                      -0.00000
                       0.02992                      -0.00666                      -0.00000
                       0.03417                      -0.00756                      -0.00000
                       0.03867                      -0.00851                      -0.00000
                       0.04335                      -0.00949                      -0.00000
                       0.04812                      -0.01051                      -0.00001
                       0.05279                      -0.01154                      -0.00001
                       0.05502                      -0.01207                      -0.00001
                       0.00000                      -0.00000                       0.00000
        </DataArray>
        <DataArray type="Float32" Name="RotationalAcceleration" NumberOfComponents="3" format="ascii">
                       0.00001                       0.00003                       0.00000
                       0.00003                       0.00009                       0.00000
                       0.00004                       0.00016                       0.00000
                       0.00006                       0.00023                       0.00000
                       0.00007                       0.00030                       0.00000
                       0.00008                       0.00037                       0.00000
                       0.00009                       0.00043                       0.00000
                       0.00011                       0.00050                       0.00000
                       0.00012                       0.00056                       0.00000
                       0.00013                       0.00062                       0.00000
                       0.00015                       0.00068                       0.00000
                       0.00016                       0.00074                       0.00000
                       0.00018                       0.00080                       0.00000
                       0.00019                       0.00087                       0.00000
                       0.00020                       0.00094                       0.00000
                       0.00021                       0.00100                       0.00000
                       0.00022                       0.00105                       0.00000
                       0.00023                       0.00108                       0.00000
                       0.00023                       0.00108                       0.00000
                       0.00024                       0.00104                       0.00000
                       0.00024                       0.00099                       0.00000
                       0.00000                      -0.00000                       0.00000
        </DataArray>
        <DataArray type="Float32" Name="OrientationX" NumberOfComponents="3" format="ascii">
                       1.00000                      -0.00000                      -0.00001
                       1.00000                      -0.00000                      -0.00003
                       1.00000                      -0.00000                      -0.00006
                       1.00000                      -0.00000                      -0.00008
                       1.00000                      -0.00000                      -0.00010
                       1.00000                      -0.00000                      -0.00012
                       1.00000                      -0.00000                      -0.00013
                       1.00000                      -0.00000                      -0.00014
                       1.00000                      -0.00000                      -0.00014
                       1.00000                      -0.00000                      -0.00014
                       1.00000                      -0.00000                      -0.00014
                       1.00000                      -0.00000                      -0.00013
                       1.00000                      -0.00000                      -0.00012
                       1.00000                      -0.00000                      -0.00010
                       1.00000                      -0.00000                      -0.00009
                       1.00000                      -0.00000                      -0.00007
                       1.00000                      -0.00000                      -0.00006
                       1.00000                      -0.00000                      -0.00004
                       1.00000                      -0.00000                      -0.00002
                       1.00000                       0.00000                       0.00000
                       1.00000                       0.00000                       0.00001
                       1.00000                      -0.00000                       0.00000
        </DataArray>
        <DataArray type="Float32" Name="OrientationY" NumberOfComponents="3" format="ascii">
                      -0.00000                       1.00000                      -0.00000
                      -0.00000                       1.00000                      -0.00000
                      -0.00000                       1.00000                      -0.00000
                      -0.00000                       1.00000                      -0.00000
                      -0.00000                       1.00000                      -0.00000
                      -0.00000                       1.00000                      -0.00000
                      -0.00000                       1.00000                      -0.00000
                      -0.00000                       1.00000                      -0.00000
                      -0.00000                       1.00000                      -0.00001
                      -0.00000                       1.00000                      -0.00001
                      -0.00000                       1.00000                      -0.00001
                      -0.00000                       1.00000                      -0.00001
                      -0.00000                       1.00000                      -0.00001
                      -0.00000                       1.00000                      -0.00002
                      -0.00000                       1.00000                      -0.00002
                      -0.00000                       1.00000                      -0.00002
                      -0.00000                       1.00000                      -0.00002
                      -0.00000                       1.00000                      -0.00002
                      -0.00000                       1.00000                      -0.00003
                       0.00000                       1.00000                      -0.00003
                       0.00000                       1.00000                      -0.00003
                      -0.00000                       1.00000                      -0.00000
        </DataArray>
        <DataArray type="Float32" Name="OrientationZ" NumberOfComponents="3" format="ascii">
                       0.00001                       0.00000                       1.00000
                       0.00003                       0.00000                       1.00000
                       0.00006                       0.00000                       1.00000
                       0.00008                       0.00000                       1.00000
                       0.00010                       0.00000                       1.00000
                       0.00012                       0.00000                       1.00000
                       0.00013                       0.00000                       1.00000
                       0.00014                       0.00000                       1.00000
                       0.00014                       0.00001                       1.00000
                       0.00014                       0.00001                       1.00000
                       0.00014                       0.00001                       1.00000
                       0.00013                       0.00001                       1.00000
                       0.00012                       0.00001                       1.00000
                       0.00010                       0.00002                       1.00000
                       0.00009                       0.00002                       1.00000
                       0.00007                       0.00002                       1.00000
                       0.00006                       0.00002                       1.00000
                       0.00004                       0.00002                       1.00000
                       0.00002                       0.00003                       1.00000
                      -0.00000                       0.00003                       1.00000
                      -0.00001                       0.00003                       1.00000
                       0.00000                      -0.00000                       1.00000
        </DataArray>
      </PointData>
      <Lines>
        <DataArray type="Int32" Name="connectivity" format="ascii">
      0      1
      1      2
      2      3
      3      4
      4      5
      5      6
      6      7
      7      8
      8      9
      9     10
     10     11
     11     12
     12     13
     13     14
     14     15
     15     16
     16     17
     17     18
     18     19
     19     20
     21      0
        </DataArray>
        <DataArray type="Int32" Name="offsets" format="ascii">
      2
      4
      6
      8
     10
     12
     14
     16
     18
     20
     22
     24
     26
     28
     30
     32
     34
     36
     38
     40
     42
        </DataArray>
      </Lines>
    </Piece>
  </PolyData>
</VTKFile>
