<?xml version="1.0"?>
<VTKFile type="PolyData" version="0.1" byte_order="LittleEndian">
  <PolyData>
    <Piece NumberOfPoints="     19" NumberOfVerts="  0" NumberOfLines="     18"
           NumberOfStrips="  0" NumberOfPolys="      0">
      <Points>
        <DataArray type="Float32" NumberOfComponents="3" format="ascii">
                      -5.04745                       1.46237                      89.73460
                      -5.12939                       2.80505                      89.49299
                      -5.30719                       5.50665                      89.10349
                      -5.49146                       8.21593                      88.75718
                      -5.72549                      11.60715                      88.34829
                      -5.96555                      15.65185                      87.70823
                      -6.19215                      19.67248                      86.93390
                      -6.42028                      23.69163                      86.15263
                      -6.64742                      27.70910                      85.36280
                      -6.87394                      31.72532                      84.56684
                      -7.10050                      35.74107                      83.76901
                      -7.32621                      39.75622                      82.96839
                      -7.55141                      43.77091                      82.16559
                      -7.77655                      47.78522                      81.36120
                      -7.99971                      51.79934                      80.55551
                      -8.18394                      55.14435                      79.88318
                      -8.33106                      57.81870                      79.33705
                      -8.48285                      60.48228                      78.73661
                      -8.55539                      61.82203                      78.47691
        </DataArray>
      </Points>
      <PointData>
        <DataArray type="Float32" Name="TranslationalVelocity" NumberOfComponents="3" format="ascii">
                      -0.01008                       0.01885                       0.08897
                      -0.00279                       0.03406                       0.17103
                       0.01176                       0.05882                       0.33616
                       0.02622                       0.08097                       0.50177
                       0.04406                       0.10719                       0.70906
                       0.06491                       0.14753                       0.95629
                       0.08502                       0.19598                       1.20201
                       0.10431                       0.24480                       1.44758
                       0.12262                       0.29408                       1.69296
                       0.13982                       0.34364                       1.93816
                       0.15576                       0.39323                       2.18322
                       0.17037                       0.44289                       2.42813
                       0.18357                       0.49257                       2.67289
                       0.19537                       0.54226                       2.91755
                       0.20583                       0.59193                       3.16212
                       0.21359                       0.63332                       3.36592
                       0.21928                       0.66691                       3.52886
                       0.22454                       0.70380                       3.69119
                       0.22709                       0.71977                       3.77286
        </DataArray>
        <DataArray type="Float32" Name="RotationalVelocity" NumberOfComponents="3" format="ascii">
                       0.06113                      -0.00021                      -0.00539
                       0.06113                      -0.00021                      -0.00538
                       0.06113                      -0.00020                      -0.00535
                       0.06113                      -0.00020                      -0.00529
                       0.06113                      -0.00018                      -0.00521
                       0.06113                      -0.00016                      -0.00507
                       0.06111                      -0.00013                      -0.00489
                       0.06109                      -0.00010                      -0.00468
                       0.06107                      -0.00007                      -0.00444
                       0.06104                      -0.00002                      -0.00416
                       0.06101                       0.00003                      -0.00385
                       0.06099                       0.00009                      -0.00352
                       0.06096                       0.00015                      -0.00318
                       0.06094                       0.00021                      -0.00284
                       0.06093                       0.00028                      -0.00253
                       0.06093                       0.00032                      -0.00230
                       0.06093                       0.00035                      -0.00217
                       0.06094                       0.00037                      -0.00209
                       0.06094                       0.00038                      -0.00207
        </DataArray>
        <DataArray type="Float32" Name="TranslationalAcceleration" NumberOfComponents="3" format="ascii">
                      -0.08775                       0.01720                      -0.00371
                      -0.02493                       0.00133                       0.00635
                      -0.06023                       0.00072                       0.01953
                      -0.07992                      -0.00354                       0.03295
                      -0.08987                      -0.01214                       0.05007
                      -0.08815                      -0.02411                       0.07124
                      -0.07976                      -0.03638                       0.09289
                      -0.07037                      -0.04873                       0.11465
                      -0.06232                      -0.06056                       0.13678
                      -0.05580                      -0.07160                       0.15958
                      -0.04948                      -0.08183                       0.18337
                      -0.04109                      -0.09135                       0.20846
                      -0.02812                      -0.10038                       0.23503
                      -0.00843                      -0.10910                       0.26309
                       0.01912                      -0.11763                       0.29245
                       0.04788                      -0.12453                       0.31756
                       0.07366                      -0.12972                       0.33780
                       0.10061                      -0.13402                       0.35794
                       0.11376                      -0.13624                       0.36772
        </DataArray>
        <DataArray type="Float32" Name="OrientationX" NumberOfComponents="3" format="ascii">
                       0.98765                       0.08406                       0.13225
                       0.98765                       0.08406                       0.13225
                       0.98765                       0.08407                       0.13225
                       0.98764                       0.08409                       0.13225
                       0.98764                       0.08411                       0.13225
                       0.99177                       0.07858                       0.10112
                       0.99412                       0.07444                       0.07864
                       0.99575                       0.07068                       0.05901
                       0.99705                       0.06657                       0.03828
                       0.99792                       0.06220                       0.01696
                       0.99832                       0.05790                      -0.00316
                       0.99830                       0.05351                      -0.02308
                       0.99794                       0.04936                      -0.04107
                       0.99745                       0.04598                      -0.05462
                       0.99678                       0.04262                      -0.06793
                       0.99608                       0.03982                      -0.07905
                       0.99547                       0.03774                      -0.08731
                       0.99512                       0.03651                      -0.09167
                       0.99513                       0.03637                      -0.09161
        </DataArray>
        <DataArray type="Float32" Name="OrientationY" NumberOfComponents="3" format="ascii">
                       0.14493                      -0.16902                      -0.97490
                       0.14494                      -0.16921                      -0.97486
                       0.14497                      -0.16972                      -0.97477
                       0.14501                      -0.17036                      -0.97465
                       0.14508                      -0.17126                      -0.97449
                       0.11358                      -0.17501                      -0.97799
                       0.09084                      -0.17791                      -0.97985
                       0.07095                      -0.18044                      -0.98102
                       0.04990                      -0.18285                      -0.98187
                       0.02823                      -0.18509                      -0.98232
                       0.00773                      -0.18702                      -0.98233
                      -0.01259                      -0.18873                      -0.98195
                      -0.03098                      -0.19015                      -0.98127
                      -0.04488                      -0.19119                      -0.98053
                      -0.05855                      -0.19209                      -0.97963
                      -0.06997                      -0.19276                      -0.97875
                      -0.07845                      -0.19321                      -0.97802
                      -0.08296                      -0.19347                      -0.97759
                      -0.08292                      -0.19350                      -0.97759
        </DataArray>
        <DataArray type="Float32" Name="OrientationZ" NumberOfComponents="3" format="ascii">
                      -0.05959                       0.98202                      -0.17911
                      -0.05957                       0.98199                      -0.17930
                      -0.05950                       0.98190                      -0.17981
                      -0.05943                       0.98179                      -0.18044
                      -0.05932                       0.98163                      -0.18134
                      -0.05915                       0.98143                      -0.18249
                      -0.05895                       0.98123                      -0.18363
                      -0.05869                       0.98104                      -0.18468
                      -0.05837                       0.98088                      -0.18563
                      -0.05796                       0.98075                      -0.18646
                      -0.05747                       0.98065                      -0.18716
                      -0.05690                       0.98057                      -0.18774
                      -0.05624                       0.98051                      -0.18823
                      -0.05553                       0.98048                      -0.18864
                      -0.05480                       0.98045                      -0.18898
                      -0.05421                       0.98044                      -0.18922
                      -0.05378                       0.98043                      -0.18938
                      -0.05342                       0.98043                      -0.18950
                      -0.05328                       0.98043                      -0.18954
        </DataArray>
        <DataArray type="Float32" Name="Force" NumberOfComponents="3" format="ascii">
                      70.31096                       1.57492                     -14.75899
                      70.23265                       1.43505                     -15.48249
                      75.29744                       1.23857                     -18.19743
                      57.04294                       0.72964                     -14.88704
                     387.42140                      40.06820                      91.77865
                     352.14151                      33.12283                      65.85752
                     344.78368                      30.85168                      56.39951
                     294.73669                      24.64888                      39.32927
                     257.11391                      19.59793                      24.45157
                     244.88431                      17.58420                      18.00686
                     222.71952                      14.22027                       7.35006
                     211.11126                      12.57088                       2.72902
                     181.30497                       9.76324                      -2.60773
                     169.57448                       8.57239                      -4.79578
                     157.56355                       7.45283                      -6.59269
                     147.28005                       6.57153                      -7.82271
                     134.72482                       5.74506                      -8.28067
                      92.85398                       3.85054                      -6.11121
                      93.38694                       3.85653                      -6.15640
        </DataArray>
        <DataArray type="Float32" Name="Moment" NumberOfComponents="3" format="ascii">
                       0.00000                       0.00000                       0.00000
                       0.00000                       0.00000                       0.00000
                       0.00000                       0.00000                       0.00000
                       0.00000                       0.00000                       0.00000
                      17.85639                    -296.59296                      54.10842
                      18.43014                    -307.48640                      56.10298
                      16.99624                    -285.02511                      52.01249
                      15.71403                    -265.10118                      48.38499
                      13.91788                    -236.44895                      43.16414
                      12.22896                    -209.47321                      38.24858
                       9.79049                    -169.32464                      30.92603
                       8.50250                    -148.68541                      27.16475
                       7.22001                    -127.83637                      23.36360
                       6.09933                    -109.45805                      20.01203
                       5.07683                     -92.38476                      16.89682
                       4.30066                     -79.14842                      14.48025
                       3.51212                     -65.17183                      11.92578
                       1.62961                     -30.45177                       5.57337
                       1.63058                     -30.55657                       5.59296
        </DataArray>
      </PointData>
      <Lines>
        <DataArray type="Int32" Name="connectivity" format="ascii">
      0      1
      1      2
      2      3
      3      4
      4      5
      5      6
      6      7
      7      8
      8      9
      9     10
     10     11
     11     12
     12     13
     13     14
     14     15
     15     16
     16     17
     17     18
        </DataArray>
        <DataArray type="Int32" Name="offsets" format="ascii">
      2
      4
      6
      8
     10
     12
     14
     16
     18
     20
     22
     24
     26
     28
     30
     32
     34
     36
        </DataArray>
      </Lines>
    </Piece>
  </PolyData>
</VTKFile>
