<?xml version="1.0"?>
<VTKFile type="PolyData" version="0.1" byte_order="LittleEndian">
  <PolyData>
    <Piece NumberOfPoints="     19" NumberOfVerts="  0" NumberOfLines="     18"
           NumberOfStrips="  0" NumberOfPolys="      0">
      <Points>
        <DataArray type="Float32" NumberOfComponents="3" format="ascii">
                      -4.92192                      -0.19279                      91.48720
                      -4.86390                      -0.36949                      92.84117
                      -4.77095                      -0.81681                      95.53799
                      -4.68857                      -1.30880                      98.22953
                      -4.59128                      -1.95075                     101.59078
                      -4.41839                      -2.58016                     105.63980
                      -4.21772                      -3.08158                     109.70399
                      -4.01649                      -3.58129                     113.76837
                      -3.81185                      -4.07751                     117.83303
                      -3.60423                      -4.57205                     121.89777
                      -3.39467                      -5.06848                     125.96215
                      -3.18214                      -5.56522                     130.02635
                      -2.96711                      -6.06217                     134.09038
                      -2.75025                      -6.55926                     138.15431
                      -2.52989                      -7.05657                     142.21804
                      -2.34359                      -7.47111                     145.60437
                      -2.19312                      -7.79497                     148.31433
                      -2.04160                      -8.06432                     151.03134
                      -1.96661                      -8.24034                     152.38448
        </DataArray>
      </Points>
      <PointData>
        <DataArray type="Float32" Name="TranslationalVelocity" NumberOfComponents="3" format="ascii">
                       0.05167                      -0.06636                      -0.00317
                       0.05219                      -0.11796                      -0.00992
                       0.05272                      -0.22067                      -0.02698
                       0.05281                      -0.32319                      -0.04573
                       0.05230                      -0.45123                      -0.07018
                       0.05121                      -0.60566                      -0.09417
                       0.04921                      -0.76073                      -0.11324
                       0.04553                      -0.91573                      -0.13214
                       0.03985                      -1.07062                      -0.15079
                       0.03186                      -1.22535                      -0.16922
                       0.02127                      -1.37987                      -0.18755
                       0.00784                      -1.53415                      -0.20571
                      -0.00860                      -1.68821                      -0.22368
                      -0.02813                      -1.84204                      -0.24146
                      -0.05073                      -1.99570                      -0.25904
                      -0.07188                      -2.12366                      -0.27354
                      -0.09011                      -2.22605                      -0.28476
                      -0.10928                      -2.32873                      -0.29387
                      -0.11936                      -2.37988                      -0.29996
        </DataArray>
        <DataArray type="Float32" Name="RotationalVelocity" NumberOfComponents="3" format="ascii">
                       0.03796                       0.00082                      -0.00331
                       0.03796                       0.00080                      -0.00331
                       0.03797                       0.00072                      -0.00332
                       0.03798                       0.00061                      -0.00334
                       0.03799                       0.00042                      -0.00336
                       0.03799                       0.00013                      -0.00339
                       0.03797                      -0.00024                      -0.00343
                       0.03794                      -0.00067                      -0.00348
                       0.03790                      -0.00118                      -0.00353
                       0.03785                      -0.00177                      -0.00358
                       0.03779                      -0.00243                      -0.00364
                       0.03774                      -0.00314                      -0.00370
                       0.03768                      -0.00390                      -0.00376
                       0.03763                      -0.00467                      -0.00382
                       0.03759                      -0.00542                      -0.00387
                       0.03757                      -0.00598                      -0.00390
                       0.03757                      -0.00636                      -0.00392
                       0.03757                      -0.00665                      -0.00392
                       0.03757                      -0.00675                      -0.00392
        </DataArray>
        <DataArray type="Float32" Name="TranslationalAcceleration" NumberOfComponents="3" format="ascii">
                       0.06798                      -0.01961                       0.03077
                       0.02881                      -0.01222                       0.00600
                       0.07594                      -0.03364                       0.01253
                       0.10931                      -0.05120                       0.01322
                       0.13470                      -0.06944                       0.00874
                       0.14439                      -0.08801                      -0.00045
                       0.13570                      -0.10535                      -0.01054
                       0.11239                      -0.12319                      -0.02027
                       0.07938                      -0.14337                      -0.02890
                       0.04280                      -0.16744                      -0.03654
                       0.01063                      -0.19664                      -0.04397
                      -0.00676                      -0.23197                      -0.05239
                       0.00396                      -0.27409                      -0.06328
                       0.05962                      -0.32336                      -0.07813
                       0.18111                      -0.37984                      -0.09835
                       0.35277                      -0.43227                      -0.12022
                       0.54638                      -0.47738                      -0.14103
                       0.80148                      -0.52531                      -0.16401
                       0.95559                      -0.55003                      -0.17720
        </DataArray>
        <DataArray type="Float32" Name="OrientationX" NumberOfComponents="3" format="ascii">
                       0.96964                      -0.23371                      -0.07202
                       0.96963                      -0.23370                      -0.07207
                       0.96962                      -0.23370                      -0.07223
                       0.96961                      -0.23369                      -0.07246
                       0.96958                      -0.23369                      -0.07283
                       0.97672                      -0.20284                      -0.06974
                       0.98124                      -0.18051                      -0.06774
                       0.98474                      -0.16097                      -0.06614
                       0.98801                      -0.14029                      -0.06448
                       0.99091                      -0.11898                      -0.06281
                       0.99321                      -0.09883                      -0.06134
                       0.99508                      -0.07883                      -0.05993
                       0.99642                      -0.06073                      -0.05878
                       0.99720                      -0.04707                      -0.05818
                       0.99778                      -0.03364                      -0.05754
                       0.99813                      -0.02239                      -0.05689
                       0.99831                      -0.01403                      -0.05634
                       0.99838                      -0.00962                      -0.05617
                       0.99837                      -0.00969                      -0.05631
        </DataArray>
        <DataArray type="Float32" Name="OrientationY" NumberOfComponents="3" format="ascii">
                       0.24073                       0.96401                       0.11285
                       0.24074                       0.96401                       0.11287
                       0.24075                       0.96400                       0.11290
                       0.24078                       0.96399                       0.11295
                       0.24083                       0.96397                       0.11301
                       0.20987                       0.97090                       0.11536
                       0.18749                       0.97527                       0.11701
                       0.16793                       0.97866                       0.11842
                       0.14723                       0.98181                       0.11987
                       0.12591                       0.98460                       0.12130
                       0.10576                       0.98680                       0.12261
                       0.08578                       0.98858                       0.12387
                       0.06771                       0.98984                       0.12499
                       0.05410                       0.99058                       0.12582
                       0.04071                       0.99111                       0.12663
                       0.02950                       0.99143                       0.12729
                       0.02115                       0.99158                       0.12777
                       0.01676                       0.99163                       0.12802
                       0.01685                       0.99163                       0.12802
        </DataArray>
        <DataArray type="Float32" Name="OrientationZ" NumberOfComponents="3" format="ascii">
                       0.04305                      -0.12676                       0.99100
                       0.04310                      -0.12679                       0.99099
                       0.04324                      -0.12686                       0.99098
                       0.04345                      -0.12696                       0.99096
                       0.04380                      -0.12711                       0.99092
                       0.04432                      -0.12731                       0.99087
                       0.04494                      -0.12752                       0.99082
                       0.04567                      -0.12772                       0.99076
                       0.04649                      -0.12792                       0.99069
                       0.04741                      -0.12810                       0.99063
                       0.04841                      -0.12827                       0.99056
                       0.04948                      -0.12841                       0.99049
                       0.05060                      -0.12852                       0.99041
                       0.05171                      -0.12862                       0.99035
                       0.05277                      -0.12869                       0.99028
                       0.05355                      -0.12873                       0.99023
                       0.05408                      -0.12875                       0.99020
                       0.05446                      -0.12876                       0.99018
                       0.05459                      -0.12876                       0.99017
        </DataArray>
        <DataArray type="Float32" Name="Force" NumberOfComponents="3" format="ascii">
                     108.14387                    -106.40444                     -18.30911
                     108.43886                    -106.03786                     -18.27996
                     118.61143                    -114.55640                     -19.82948
                      90.22247                     -86.05960                     -14.96499
                     484.12352                    -163.96635                     -42.37307
                     502.82813                    -143.50980                     -40.84908
                     481.84174                    -125.75262                     -37.94585
                     456.19116                    -106.50656                     -34.65700
                     432.20767                     -85.07198                     -31.17082
                     403.70340                     -70.43464                     -28.33627
                     391.94225                     -54.05423                     -26.07610
                     363.78102                     -42.66419                     -23.63754
                     336.87520                     -33.22181                     -21.46534
                     308.99863                     -26.23740                     -19.49648
                     281.28019                     -20.09661                     -17.56454
                     258.26949                     -15.54703                     -15.96152
                     232.92939                     -12.07136                     -14.26889
                     158.70705                      -7.50604                      -9.69241
                     158.97908                      -7.50906                      -9.72888
        </DataArray>
        <DataArray type="Float32" Name="Moment" NumberOfComponents="3" format="ascii">
                       0.00000                       0.00000                       0.00000
                       0.00000                       0.00000                       0.00000
                       0.00000                       0.00000                       0.00000
                       0.00000                       0.00000                       0.00000
                     -36.14703                     104.61833                    -817.81914
                     -37.45811                     107.13896                    -837.48482
                     -34.79993                      98.14696                    -767.15349
                     -32.35008                      89.78517                    -701.74953
                     -29.09175                      79.31045                    -619.83528
                     -25.89162                      69.22027                    -540.93355
                     -21.84621                      57.19594                    -446.92775
                     -19.26927                      49.35730                    -385.64024
                     -16.70813                      41.85564                    -326.99579
                     -14.37980                      35.24691                    -275.33821
                     -12.16661                      29.22495                    -228.27514
                     -10.41404                      24.64854                    -192.51557
                      -8.55158                      20.04551                    -156.55677
                      -3.98715                       9.27982                     -72.47354
                      -3.99863                       9.28425                     -72.50727
        </DataArray>
      </PointData>
      <Lines>
        <DataArray type="Int32" Name="connectivity" format="ascii">
      0      1
      1      2
      2      3
      3      4
      4      5
      5      6
      6      7
      7      8
      8      9
      9     10
     10     11
     11     12
     12     13
     13     14
     14     15
     15     16
     16     17
     17     18
        </DataArray>
        <DataArray type="Int32" Name="offsets" format="ascii">
      2
      4
      6
      8
     10
     12
     14
     16
     18
     20
     22
     24
     26
     28
     30
     32
     34
     36
        </DataArray>
      </Lines>
    </Piece>
  </PolyData>
</VTKFile>
