<?xml version="1.0"?>
<VTKFile type="PolyData" version="0.1" byte_order="LittleEndian">
  <PolyData>
    <Piece NumberOfPoints="     19" NumberOfVerts="  0" NumberOfLines="     18"
           NumberOfStrips="  0" NumberOfPolys="      0">
      <Points>
        <DataArray type="Float32" NumberOfComponents="3" format="ascii">
                      -5.02945                      -1.45686                      90.34524
                      -5.06287                      -2.78726                      90.65632
                      -5.15981                      -5.46877                      91.18722
                      -5.27067                      -8.16026                      91.67370
                      -5.41693                     -11.53088                      92.25342
                      -5.52587                     -15.54627                      93.07933
                      -5.59738                     -19.53465                      94.02455
                      -5.66795                     -23.52367                      94.96740
                      -5.73452                     -27.51298                      95.90976
                      -5.79765                     -31.50289                      96.85028
                      -5.85862                     -35.49401                      97.78604
                      -5.91629                     -39.48588                      98.71906
                      -5.97119                     -43.47834                      99.64997
                      -6.02401                     -47.47123                     100.57932
                      -6.07318                     -51.46454                     101.50725
                      -6.11146                     -54.79261                     102.27958
                      -6.14008                     -57.45345                     102.90455
                      -6.16378                     -60.10250                     103.58252
                      -6.17942                     -61.43607                     103.88076
        </DataArray>
      </Points>
      <PointData>
        <DataArray type="Float32" Name="TranslationalVelocity" NumberOfComponents="3" format="ascii">
                       0.00647                      -0.04423                      -0.18375
                      -0.00821                      -0.08345                      -0.35308
                      -0.03781                      -0.14996                      -0.69438
                      -0.06748                      -0.21067                      -1.03701
                      -0.10453                      -0.28289                      -1.46619
                      -0.14841                      -0.38690                      -1.97764
                      -0.19167                      -0.50657                      -2.48585
                      -0.23462                      -0.62599                      -2.99431
                      -0.27722                      -0.74545                      -3.50299
                      -0.31944                      -0.86476                      -4.01191
                      -0.36126                      -0.98353                      -4.52112
                      -0.40266                      -1.10201                      -5.03055
                      -0.44364                      -1.22029                      -5.54016
                      -0.48421                      -1.33842                      -6.04990
                      -0.52441                      -1.45642                      -6.55977
                      -0.55764                      -1.55467                      -6.98474
                      -0.58406                      -1.63420                      -7.32453
                      -0.61023                      -1.72055                      -7.66284
                      -0.62339                      -1.75849                      -7.83316
        </DataArray>
        <DataArray type="Float32" Name="RotationalVelocity" NumberOfComponents="3" format="ascii">
                       0.12728                       0.00039                      -0.01113
                       0.12728                       0.00039                      -0.01113
                       0.12730                       0.00040                      -0.01111
                       0.12732                       0.00040                      -0.01109
                       0.12735                       0.00041                      -0.01105
                       0.12740                       0.00042                      -0.01099
                       0.12744                       0.00043                      -0.01092
                       0.12749                       0.00045                      -0.01084
                       0.12753                       0.00046                      -0.01075
                       0.12757                       0.00048                      -0.01065
                       0.12760                       0.00050                      -0.01055
                       0.12763                       0.00052                      -0.01045
                       0.12765                       0.00054                      -0.01035
                       0.12767                       0.00056                      -0.01025
                       0.12769                       0.00058                      -0.01016
                       0.12770                       0.00059                      -0.01010
                       0.12771                       0.00059                      -0.01006
                       0.12771                       0.00059                      -0.01004
                       0.12771                       0.00059                      -0.01003
        </DataArray>
        <DataArray type="Float32" Name="TranslationalAcceleration" NumberOfComponents="3" format="ascii">
                       0.05411                       0.00109                      -0.01179
                       0.01505                       0.01970                      -0.01851
                       0.03612                       0.05971                      -0.05254
                       0.04739                       0.10047                      -0.08355
                       0.05226                       0.15178                      -0.11979
                       0.04996                       0.21143                      -0.16293
                       0.04396                       0.26936                      -0.20654
                       0.03766                       0.32746                      -0.24948
                       0.03279                       0.38589                      -0.29223
                       0.02987                       0.44467                      -0.33495
                       0.02851                       0.50378                      -0.37757
                       0.02783                       0.56308                      -0.41998
                       0.02677                       0.62246                      -0.46203
                       0.02452                       0.68185                      -0.50355
                       0.02082                       0.74124                      -0.54454
                       0.01710                       0.79075                      -0.57833
                       0.01440                       0.83032                      -0.60546
                       0.01292                       0.86944                      -0.63360
                       0.01303                       0.88945                      -0.64721
        </DataArray>
        <DataArray type="Float32" Name="OrientationX" NumberOfComponents="3" format="ascii">
                       0.94983                      -0.09370                      -0.29840
                       0.94983                      -0.09362                      -0.29842
                       0.94984                      -0.09336                      -0.29849
                       0.94984                      -0.09298                      -0.29859
                       0.94985                      -0.09239                      -0.29876
                       0.95932                      -0.08482                      -0.26929
                       0.96554                      -0.07900                      -0.24799
                       0.97055                      -0.07372                      -0.22935
                       0.97542                      -0.06813                      -0.20957
                       0.97997                      -0.06234                      -0.18914
                       0.98385                      -0.05676                      -0.16978
                       0.98728                      -0.05118                      -0.15053
                       0.99004                      -0.04600                      -0.13308
                       0.99190                      -0.04182                      -0.11992
                       0.99355                      -0.03777                      -0.10692
                       0.99478                      -0.03450                      -0.09600
                       0.99561                      -0.03214                      -0.08785
                       0.99603                      -0.03077                      -0.08354
                       0.99603                      -0.03065                      -0.08360
        </DataArray>
        <DataArray type="Float32" Name="OrientationY" NumberOfComponents="3" format="ascii">
                       0.31187                       0.21160                       0.92626
                       0.31187                       0.21143                       0.92630
                       0.31186                       0.21098                       0.92641
                       0.31186                       0.21042                       0.92653
                       0.31187                       0.20963                       0.92671
                       0.28144                       0.21145                       0.93599
                       0.25936                       0.21232                       0.94216
                       0.23999                       0.21290                       0.94714
                       0.21944                       0.21354                       0.95197
                       0.19823                       0.21422                       0.95646
                       0.17810                       0.21482                       0.96028
                       0.15809                       0.21539                       0.96365
                       0.13993                       0.21586                       0.96635
                       0.12616                       0.21613                       0.96818
                       0.11259                       0.21640                       0.96979
                       0.10122                       0.21663                       0.97099
                       0.09275                       0.21680                       0.97180
                       0.08824                       0.21687                       0.97220
                       0.08827                       0.21685                       0.97221
        </DataArray>
        <DataArray type="Float32" Name="OrientationZ" NumberOfComponents="3" format="ascii">
                      -0.02365                      -0.97285                       0.23021
                      -0.02363                      -0.97290                       0.23002
                      -0.02352                      -0.97302                       0.22952
                      -0.02332                      -0.97318                       0.22887
                      -0.02299                      -0.97341                       0.22793
                      -0.02245                      -0.97370                       0.22672
                      -0.02178                      -0.97400                       0.22549
                      -0.02100                      -0.97429                       0.22432
                      -0.02010                      -0.97456                       0.22324
                      -0.01911                      -0.97479                       0.22228
                      -0.01803                      -0.97500                       0.22145
                      -0.01689                      -0.97519                       0.22074
                      -0.01573                      -0.97534                       0.22015
                      -0.01457                      -0.97547                       0.21965
                      -0.01350                      -0.97557                       0.21925
                      -0.01270                      -0.97564                       0.21899
                      -0.01218                      -0.97569                       0.21883
                      -0.01180                      -0.97572                       0.21872
                      -0.01167                      -0.97572                       0.21869
        </DataArray>
        <DataArray type="Float32" Name="Force" NumberOfComponents="3" format="ascii">
                      83.34872                      -5.82674                     -16.05958
                      83.42358                      -5.43839                     -14.42599
                      90.99948                      -5.07293                     -12.16709
                      69.12855                      -3.20036                      -6.55656
                     374.61074                     -46.22340                    -158.30275
                     362.46208                     -39.90146                    -133.81958
                     363.68777                     -37.64679                    -125.42052
                     325.36642                     -30.98126                    -102.07264
                     293.82148                     -24.86206                     -80.28052
                     286.29322                     -22.41889                     -71.94150
                     266.95603                     -17.94400                     -55.89752
                     258.42065                     -15.80150                     -48.82838
                     225.44975                     -12.01089                     -36.28390
                     214.84384                     -10.43310                     -31.40840
                     203.85345                      -9.00222                     -26.98904
                     194.26956                      -7.91314                     -23.58672
                     180.40759                      -6.87395                     -20.31052
                     126.15966                      -4.60338                     -13.55574
                     127.79112                      -4.64003                     -13.70796
        </DataArray>
        <DataArray type="Float32" Name="Moment" NumberOfComponents="3" format="ascii">
                       0.00000                       0.00000                       0.00000
                       0.00000                       0.00000                       0.00000
                       0.00000                       0.00000                       0.00000
                       0.00000                       0.00000                       0.00000
                       8.65401                     369.38991                     -87.38050
                       8.53993                     375.03405                     -88.69410
                       7.56138                     344.00618                     -81.33233
                       6.70871                     318.34711                     -75.24059
                       5.69328                     283.76502                     -67.04211
                       4.78077                     252.11073                     -59.53923
                       3.64310                     204.79813                     -48.34471
                       2.99901                     181.06375                     -42.72255
                       2.40643                     157.09362                     -37.04962
                       1.91620                     135.91562                     -32.04041
                       1.50572                     116.15422                     -27.37037
                       1.22189                     100.71389                     -23.72472
                       0.97074                      83.77525                     -19.73057
                       0.44258                      39.56537                      -9.31696
                       0.44102                      39.90787                      -9.39714
        </DataArray>
      </PointData>
      <Lines>
        <DataArray type="Int32" Name="connectivity" format="ascii">
      0      1
      1      2
      2      3
      3      4
      4      5
      5      6
      6      7
      7      8
      8      9
      9     10
     10     11
     11     12
     12     13
     13     14
     14     15
     15     16
     16     17
     17     18
        </DataArray>
        <DataArray type="Int32" Name="offsets" format="ascii">
      2
      4
      6
      8
     10
     12
     14
     16
     18
     20
     22
     24
     26
     28
     30
     32
     34
     36
        </DataArray>
      </Lines>
    </Piece>
  </PolyData>
</VTKFile>
