<?xml version="1.0"?>
<VTKFile type="PolyData" version="0.1" byte_order="LittleEndian">
  <PolyData>
    <Piece NumberOfPoints="     19" NumberOfVerts="  0" NumberOfLines="     18"
           NumberOfStrips="  0" NumberOfPolys="      0">
      <Points>
        <DataArray type="Float32" NumberOfComponents="3" format="ascii">
                      -4.98924                       0.15767                      88.53998
                      -5.17265                       0.30355                      87.19344
                      -5.55824                       0.68919                      84.51293
                      -5.95024                       1.11926                      81.83785
                      -6.43976                       1.68350                      78.49641
                      -6.96411                       2.21886                      74.46323
                      -7.44874                       2.62584                      70.41138
                      -7.91346                       3.03156                      66.35705
                      -8.35067                       3.43470                      62.29939
                      -8.75580                       3.83753                      58.23842
                      -9.12494                       4.24399                      54.17444
                      -9.45264                       4.65271                      50.10713
                      -9.73556                       5.06367                      46.03662
                      -9.97146                       5.47669                      41.96323
                     -10.15698                       5.89140                      37.88736
                     -10.27205                       6.23778                      34.48939
                     -10.34046                       6.50711                      31.76982
                     -10.38941                       6.72141                      29.04432
                     -10.40700                       6.86973                      27.68632
        </DataArray>
      </Points>
      <PointData>
        <DataArray type="Float32" Name="TranslationalVelocity" NumberOfComponents="3" format="ascii">
                       0.08901                       1.30226                       0.14606
                       0.09897                       2.51528                       0.27612
                       0.12664                       4.93080                       0.61964
                       0.15793                       7.34068                       1.00241
                       0.19900                      10.34870                       1.50411
                       0.23625                      13.97083                       1.97963
                       0.26253                      17.60277                       2.34080
                       0.28836                      21.23200                       2.70059
                       0.31418                      24.85910                       3.05780
                       0.34104                      28.48430                       3.41441
                       0.37044                      32.10765                       3.77387
                       0.40384                      35.72961                       4.13497
                       0.44312                      39.35036                       4.49769
                       0.49056                      42.96988                       4.86187
                       0.54882                      46.58775                       5.22729
                       0.60809                      49.60085                       5.53238
                       0.66293                      52.01047                       5.76957
                       0.72157                      54.42355                       5.95818
                       0.75790                      55.62518                       6.08892
        </DataArray>
        <DataArray type="Float32" Name="RotationalVelocity" NumberOfComponents="3" format="ascii">
                       0.88997                       0.00137                      -0.08114
                       0.88982                       0.00136                      -0.08112
                       0.88942                       0.00135                      -0.08107
                       0.88892                       0.00137                      -0.08102
                       0.88822                       0.00142                      -0.08093
                       0.88735                       0.00153                      -0.08083
                       0.88651                       0.00163                      -0.08073
                       0.88577                       0.00166                      -0.08067
                       0.88516                       0.00155                      -0.08065
                       0.88468                       0.00118                      -0.08072
                       0.88435                       0.00048                      -0.08089
                       0.88413                      -0.00064                      -0.08120
                       0.88402                      -0.00227                      -0.08167
                       0.88397                      -0.00446                      -0.08231
                       0.88395                      -0.00723                      -0.08316
                       0.88394                      -0.00997                      -0.08402
                       0.88391                      -0.01244                      -0.08483
                       0.88387                      -0.01514                      -0.08573
                       0.88383                      -0.01655                      -0.08622
        </DataArray>
        <DataArray type="Float32" Name="TranslationalAcceleration" NumberOfComponents="3" format="ascii">
                       0.03709                      -0.12767                       1.18799
                       0.11072                      -0.08714                       1.44050
                       0.32221                      -0.31160                       4.11702
                       0.52049                      -0.54843                       6.57748
                       0.74939                      -0.84037                       9.44924
                       0.99615                      -1.05351                      12.71380
                       1.21311                      -1.14986                      15.89165
                       1.40164                      -1.24117                      19.05678
                       1.56342                      -1.33218                      22.25011
                       1.69960                      -1.42802                      25.48456
                       1.81066                      -1.53321                      28.75295
                       1.89596                      -1.64700                      32.03625
                       1.95357                      -1.76927                      35.31137
                       1.97998                      -1.89999                      38.55920
                       1.96988                      -2.04032                      41.77215
                       1.92758                      -2.16680                      44.43058
                       1.86720                      -2.26863                      46.55881
                       1.76930                      -2.33499                      48.71064
                       1.71794                      -2.40462                      49.79992
        </DataArray>
        <DataArray type="Float32" Name="OrientationX" NumberOfComponents="3" format="ascii">
                       0.96655                       0.23336                      -0.10645
                       0.96659                       0.23333                      -0.10616
                       0.96671                       0.23323                      -0.10521
                       0.96690                       0.23309                      -0.10380
                       0.96720                       0.23287                      -0.10147
                       0.97416                       0.20158                      -0.10190
                       0.97879                       0.17876                      -0.10007
                       0.98258                       0.15868                      -0.09670
                       0.98622                       0.13739                      -0.09217
                       0.98956                       0.11543                      -0.08634
                       0.99238                       0.09458                      -0.07898
                       0.99479                       0.07387                      -0.07031
                       0.99666                       0.05506                      -0.06037
                       0.99795                       0.04073                      -0.04932
                       0.99891                       0.02668                      -0.03826
                       0.99945                       0.01501                      -0.02967
                       0.99970                       0.00639                      -0.02364
                       0.99983                       0.00182                      -0.01843
                       0.99987                       0.00186                      -0.01619
        </DataArray>
        <DataArray type="Float32" Name="OrientationY" NumberOfComponents="3" format="ascii">
                       0.21888                      -0.96679                      -0.13197
                       0.21889                      -0.96680                      -0.13187
                       0.21894                      -0.96683                      -0.13159
                       0.21899                      -0.96686                      -0.13123
                       0.21909                      -0.96691                      -0.13070
                       0.18827                      -0.97390                      -0.12679
                       0.16601                      -0.97832                      -0.12384
                       0.14660                      -0.98173                      -0.12129
                       0.12611                      -0.98488                      -0.11876
                       0.10505                      -0.98764                      -0.11637
                       0.08524                      -0.98978                      -0.11431
                       0.06567                      -0.99148                      -0.11254
                       0.04810                      -0.99263                      -0.11119
                       0.03508                      -0.99327                      -0.11036
                       0.02234                      -0.99371                      -0.10972
                       0.01168                      -0.99394                      -0.10930
                       0.00377                      -0.99403                      -0.10903
                      -0.00020                      -0.99406                      -0.10883
                       0.00008                      -0.99407                      -0.10874
        </DataArray>
        <DataArray type="Float32" Name="OrientationZ" NumberOfComponents="3" format="ascii">
                      -0.13371                       0.10426                      -0.98552
                      -0.13340                       0.10422                      -0.98557
                      -0.13241                       0.10417                      -0.98571
                      -0.13095                       0.10415                      -0.98590
                      -0.12855                       0.10419                      -0.98621
                      -0.12480                       0.10433                      -0.98668
                      -0.12004                       0.10460                      -0.98724
                      -0.11418                       0.10500                      -0.98790
                      -0.10709                       0.10550                      -0.98864
                      -0.09870                       0.10608                      -0.98945
                      -0.08898                       0.10671                      -0.99030
                      -0.07802                       0.10733                      -0.99116
                      -0.06605                       0.10791                      -0.99196
                      -0.05348                       0.10840                      -0.99267
                      -0.04095                       0.10874                      -0.99323
                      -0.03113                       0.10890                      -0.99357
                      -0.02419                       0.10891                      -0.99376
                      -0.01852                       0.10882                      -0.99389
                      -0.01630                       0.10873                      -0.99394
        </DataArray>
        <DataArray type="Float32" Name="Force" NumberOfComponents="3" format="ascii">
                      -1.07732                    -112.98163                     -11.80579
                     102.62916                    -174.57992                     -32.35873
                     126.87711                    -254.75639                     -43.98942
                     108.16286                    -251.30492                     -40.94470
                     948.07980                     308.05127                     -91.01024
                     910.07560                     257.01318                     -87.94505
                    1007.41859                     227.89410                     -98.41504
                    1302.47581                     250.50303                    -124.08186
                    1396.27085                     216.64972                    -128.38557
                    1593.00473                     208.68463                    -136.90166
                    1994.45444                     209.81213                    -157.10456
                    2239.53156                     191.86738                    -156.10384
                    2654.19328                     206.14451                    -155.07959
                    2848.07165                     182.66278                    -134.30827
                    3024.32521                     156.79485                    -108.32685
                    3145.02019                     132.61791                     -84.77014
                    3125.60762                     111.09690                     -64.59142
                    2353.03667                      80.81384                     -35.48719
                    1271.80417                     -27.20236                     -23.75908
        </DataArray>
        <DataArray type="Float32" Name="Moment" NumberOfComponents="3" format="ascii">
                       0.00000                       0.00000                       0.00000
                       0.00000                       0.00000                       0.00000
                       0.00000                       0.00000                       0.00000
                       0.00000                       0.00000                       0.00000
                      55.80369                     -45.26620                     428.10609
                      90.93748                     -75.99315                     718.95740
                     101.89733                     -88.54058                     838.03643
                     130.26914                    -119.02028                    1127.13871
                     161.26996                    -157.10623                    1488.79293
                     158.80918                    -167.87049                    1592.03170
                     148.78030                    -174.43969                    1655.81425
                     133.77262                    -178.84475                    1699.34024
                      92.46990                    -145.97858                    1388.57935
                      73.25907                    -142.74225                    1359.36075
                      53.56273                    -136.17315                    1298.29170
                      38.35594                    -128.11822                    1222.59351
                      26.30251                    -112.94854                    1078.51929
                      10.03771                     -56.25616                     537.45651
                       7.76653                     -49.42910                     472.32866
        </DataArray>
      </PointData>
      <Lines>
        <DataArray type="Int32" Name="connectivity" format="ascii">
      0      1
      1      2
      2      3
      3      4
      4      5
      5      6
      6      7
      7      8
      8      9
      9     10
     10     11
     11     12
     12     13
     13     14
     14     15
     15     16
     16     17
     17     18
        </DataArray>
        <DataArray type="Int32" Name="offsets" format="ascii">
      2
      4
      6
      8
     10
     12
     14
     16
     18
     20
     22
     24
     26
     28
     30
     32
     34
     36
        </DataArray>
      </Lines>
    </Piece>
  </PolyData>
</VTKFile>
