<?xml version="1.0"?>
<VTKFile type="PolyData" version="0.1" byte_order="LittleEndian">
  <PolyData>
    <Piece NumberOfPoints="     19" NumberOfVerts="  0" NumberOfLines="     18"
           NumberOfStrips="  0" NumberOfPolys="      0">
      <Points>
        <DataArray type="Float32" NumberOfComponents="3" format="ascii">
                      -4.95975                      -1.51029                      89.96239
                      -5.02441                      -2.87472                      89.91647
                      -5.18270                      -5.59916                      89.73106
                      -5.35291                      -8.32149                      89.49983
                      -5.56961                     -11.72310                      89.18096
                      -5.75545                     -15.81236                      88.92973
                      -5.89301                     -19.90775                      88.79814
                      -6.01585                     -24.00350                      88.66102
                      -6.11745                     -28.09978                      88.51968
                      -6.19477                     -32.19646                      88.37222
                      -6.24565                     -36.29324                      88.21529
                      -6.26590                     -40.39005                      88.05067
                      -6.25352                     -44.48671                      87.87897
                      -6.20755                     -48.58298                      87.70090
                      -6.12572                     -52.67851                      87.51702
                      -6.03004                     -56.09062                      87.35992
                      -5.93687                     -58.81992                      87.24014
                      -5.82645                     -61.55124                      87.17371
                      -5.77081                     -62.91439                      87.09862
        </DataArray>
      </Points>
      <PointData>
        <DataArray type="Float32" Name="TranslationalVelocity" NumberOfComponents="3" format="ascii">
                      -0.07218                       0.03588                      -0.97059
                      -0.15117                       0.06939                      -1.85567
                      -0.30856                       0.19878                      -3.62301
                      -0.46528                       0.35853                      -5.38907
                      -0.66005                       0.57774                      -7.59599
                      -0.89226                       0.75117                     -10.24944
                      -1.12227                       0.84414                     -12.90732
                      -1.34933                       0.93980                     -15.56593
                      -1.57310                       1.03695                     -18.22538
                      -1.79329                       1.13671                     -20.88556
                      -2.00970                       1.24116                     -23.54626
                      -2.22220                       1.34897                     -26.20738
                      -2.43081                       1.45971                     -28.86876
                      -2.63564                       1.57292                     -31.53020
                      -2.83695                       1.68820                     -34.19146
                      -3.00225                       1.78554                     -36.40886
                      -3.13318                       1.85887                     -38.18267
                      -3.26306                       1.89682                     -39.95794
                      -3.32779                       1.94304                     -40.84398
        </DataArray>
        <DataArray type="Float32" Name="RotationalVelocity" NumberOfComponents="3" format="ascii">
                       0.64869                       0.00020                      -0.05791
                       0.64869                       0.00020                      -0.05787
                       0.64872                       0.00019                      -0.05771
                       0.64876                       0.00019                      -0.05748
                       0.64882                       0.00017                      -0.05711
                       0.64892                       0.00014                      -0.05654
                       0.64904                       0.00011                      -0.05587
                       0.64916                       0.00011                      -0.05512
                       0.64929                       0.00018                      -0.05428
                       0.64942                       0.00036                      -0.05337
                       0.64953                       0.00066                      -0.05241
                       0.64962                       0.00111                      -0.05142
                       0.64970                       0.00169                      -0.05043
                       0.64976                       0.00239                      -0.04948
                       0.64980                       0.00312                      -0.04863
                       0.64981                       0.00370                      -0.04804
                       0.64982                       0.00408                      -0.04769
                       0.64983                       0.00433                      -0.04748
                       0.64983                       0.00438                      -0.04744
        </DataArray>
        <DataArray type="Float32" Name="TranslationalAcceleration" NumberOfComponents="3" format="ascii">
                       0.01225                       0.67267                      -0.04381
                       0.00006                       0.78131                      -0.04808
                       0.00231                       2.23265                      -0.09941
                       0.00442                       3.56505                      -0.12225
                       0.00492                       5.11753                      -0.13107
                      -0.00501                       6.87228                      -0.19184
                      -0.02552                       8.57382                      -0.30093
                      -0.05163                      10.27033                      -0.40643
                      -0.08273                      11.98499                      -0.51096
                      -0.11751                      13.72503                      -0.61495
                      -0.15400                      15.48623                      -0.71767
                      -0.18966                      17.25755                      -0.82039
                      -0.22113                      19.02582                      -0.92371
                      -0.24414                      20.78037                      -1.02840
                      -0.25355                      22.51754                      -1.13562
                      -0.24618                      23.95701                      -1.22805
                      -0.22799                      25.11114                      -1.30879
                      -0.19656                      26.27817                      -1.41730
                      -0.17467                      26.87242                      -1.45576
        </DataArray>
        <DataArray type="Float32" Name="OrientationX" NumberOfComponents="3" format="ascii">
                       0.94778                      -0.03435                      -0.31707
                       0.94779                      -0.03408                      -0.31706
                       0.94783                      -0.03323                      -0.31704
                       0.94788                      -0.03198                      -0.31701
                       0.94797                      -0.02991                      -0.31696
                       0.95766                      -0.02818                      -0.28651
                       0.96410                      -0.02526                      -0.26434
                       0.96933                      -0.02139                      -0.24481
                       0.97444                      -0.01669                      -0.22402
                       0.97923                      -0.01111                      -0.20245
                       0.98332                      -0.00457                      -0.18183
                       0.98692                       0.00279                      -0.16119
                       0.98977                       0.01084                      -0.14227
                       0.99163                       0.01937                      -0.12765
                       0.99318                       0.02768                      -0.11322
                       0.99429                       0.03396                      -0.10117
                       0.99500                       0.03822                      -0.09226
                       0.99530                       0.04162                      -0.08744
                       0.99525                       0.04294                      -0.08738
        </DataArray>
        <DataArray type="Float32" Name="OrientationY" NumberOfComponents="3" format="ascii">
                       0.31551                      -0.04407                       0.94790
                       0.31550                      -0.04421                       0.94789
                       0.31549                      -0.04459                       0.94788
                       0.31548                      -0.04506                       0.94786
                       0.31548                      -0.04571                       0.94783
                       0.28509                      -0.04563                       0.95741
                       0.26302                      -0.04588                       0.96370
                       0.24365                      -0.04624                       0.96876
                       0.22305                      -0.04657                       0.97369
                       0.20173                      -0.04692                       0.97832
                       0.18142                      -0.04731                       0.98227
                       0.16114                      -0.04779                       0.98577
                       0.14263                      -0.04836                       0.98859
                       0.12847                      -0.04897                       0.99050
                       0.11449                      -0.04962                       0.99218
                       0.10280                      -0.05019                       0.99343
                       0.09413                      -0.05060                       0.99427
                       0.08951                      -0.05080                       0.99469
                       0.08952                      -0.05075                       0.99469
        </DataArray>
        <DataArray type="Float32" Name="OrientationZ" NumberOfComponents="3" format="ascii">
                      -0.04653                      -0.99844                      -0.03093
                      -0.04632                      -0.99844                      -0.03115
                      -0.04564                      -0.99845                      -0.03178
                      -0.04460                      -0.99847                      -0.03262
                      -0.04284                      -0.99851                      -0.03389
                      -0.04005                      -0.99856                      -0.03566
                      -0.03647                      -0.99863                      -0.03759
                      -0.03204                      -0.99870                      -0.03961
                      -0.02669                      -0.99878                      -0.04166
                      -0.02037                      -0.99884                      -0.04370
                      -0.01309                      -0.99887                      -0.04570
                      -0.00496                      -0.99885                      -0.04761
                       0.00383                      -0.99877                      -0.04941
                       0.01293                      -0.99861                      -0.05105
                       0.02184                      -0.99838                      -0.05245
                       0.02866                      -0.99816                      -0.05340
                       0.03333                      -0.99799                      -0.05395
                       0.03696                      -0.99784                      -0.05428
                       0.03827                      -0.99779                      -0.05436
        </DataArray>
        <DataArray type="Float32" Name="Force" NumberOfComponents="3" format="ascii">
                       0.39515                      -0.15554                       4.42606
                      90.53863                      -4.85518                      21.16248
                     107.69639                      -6.33077                      45.56769
                      90.66280                      -5.75091                      54.98898
                     584.96048                     -17.84345                    -227.13210
                     655.07973                     -18.37551                    -242.29292
                     810.84093                     -20.13525                    -283.74233
                     887.58561                     -18.04984                    -304.30455
                    1041.83524                     -13.79907                    -402.28480
                    1241.44606                      -8.85120                    -458.34282
                    1453.73415                       0.26181                    -522.50745
                    1674.77842                      12.81372                    -552.05620
                    2113.56144                      33.34741                    -636.28402
                    2239.58643                      54.26581                    -614.21390
                    2303.02840                      74.53184                    -565.83950
                    2301.57961                      88.36356                    -505.79973
                    2163.65241                      91.42731                    -423.33675
                    1473.47815                      66.38496                    -253.69998
                     665.68189                      28.32259                     -48.52276
        </DataArray>
        <DataArray type="Float32" Name="Moment" NumberOfComponents="3" format="ascii">
                       0.00000                       0.00000                       0.00000
                       0.00000                       0.00000                       0.00000
                       0.00000                       0.00000                       0.00000
                       0.00000                       0.00000                       0.00000
                       8.30493                     194.63315                       6.09835
                      11.66708                     293.61093                       9.27646
                      12.51714                     347.64889                      11.09957
                      13.39372                     426.24823                      13.78344
                       9.38369                     362.01381                      11.88412
                       6.66822                     342.61580                      11.44487
                       4.27618                     354.46725                      12.07491
                       1.71154                     447.99897                      15.59076
                      -2.87347                     567.61648                      20.20369
                      -8.24442                     578.81042                      21.07657
                     -13.17169                     567.27880                      21.11122
                     -16.52183                     549.27121                      20.77749
                     -17.65371                     507.68758                      19.41721
                     -10.03999                     261.37561                      10.08160
                      -8.74627                     220.16117                       8.51774
        </DataArray>
      </PointData>
      <Lines>
        <DataArray type="Int32" Name="connectivity" format="ascii">
      0      1
      1      2
      2      3
      3      4
      4      5
      5      6
      6      7
      7      8
      8      9
      9     10
     10     11
     11     12
     12     13
     13     14
     14     15
     15     16
     16     17
     17     18
        </DataArray>
        <DataArray type="Int32" Name="offsets" format="ascii">
      2
      4
      6
      8
     10
     12
     14
     16
     18
     20
     22
     24
     26
     28
     30
     32
     34
     36
        </DataArray>
      </Lines>
    </Piece>
  </PolyData>
</VTKFile>
