<?xml version="1.0"?>
<VTKFile type="PolyData" version="0.1" byte_order="LittleEndian">
  <PolyData>
    <Piece NumberOfPoints="     19" NumberOfVerts="  0" NumberOfLines="     18"
           NumberOfStrips="  0" NumberOfPolys="      0">
      <Points>
        <DataArray type="Float32" NumberOfComponents="3" format="ascii">
                      -5.17927                       0.45369                      88.58254
                      -5.35279                       0.86893                      87.29203
                      -5.71863                       1.78911                      84.74221
                      -6.09243                       2.75163                      82.20689
                      -6.56285                       3.97991                      79.04593
                      -7.07427                       5.31766                      75.20229
                      -7.55916                       6.53137                      71.31570
                      -8.03869                       7.74243                      67.42762
                      -8.50891                       8.94936                      63.53712
                      -8.96901                      10.15418                      59.64478
                      -9.41873                      11.36057                      55.75175
                      -9.85607                      12.56724                      51.85743
                     -10.28066                      13.77427                      47.96182
                     -10.69254                      14.98168                      44.06498
                     -11.08977                      16.18949                      40.16676
                     -11.40950                      17.19615                      36.91715
                     -11.65902                      17.99387                      34.31455
                     -11.90552                      18.73894                      31.69499
                     -12.02617                      19.15106                      30.39765
        </DataArray>
      </Points>
      <PointData>
        <DataArray type="Float32" Name="TranslationalVelocity" NumberOfComponents="3" format="ascii">
                       0.01388                       0.34249                       0.10619
                       0.02228                       0.64783                       0.20330
                       0.04097                       1.25137                       0.41843
                       0.06056                       1.85135                       0.64330
                       0.08562                       2.59893                       0.93001
                       0.11301                       3.50587                       1.24189
                       0.13801                       4.42132                       1.52450
                       0.16318                       5.33604                       1.80618
                       0.18858                       6.25027                       2.08662
                       0.21433                       7.16395                       2.36631
                       0.24062                       8.07695                       2.64612
                       0.26753                       8.98950                       2.92581
                       0.29517                       9.90171                       3.20540
                       0.32363                      10.81369                       3.48494
                       0.35299                      11.72549                       3.76443
                       0.37819                      12.48522                       3.99729
                       0.39867                      13.09345                       4.18175
                       0.41853                      13.70544                       4.35394
                       0.42941                      14.00844                       4.44918
        </DataArray>
        <DataArray type="Float32" Name="RotationalVelocity" NumberOfComponents="3" format="ascii">
                       0.23390                       0.00008                      -0.02048
                       0.23385                       0.00007                      -0.02048
                       0.23374                       0.00006                      -0.02047
                       0.23361                       0.00004                      -0.02046
                       0.23341                       0.00001                      -0.02045
                       0.23316                      -0.00003                      -0.02044
                       0.23291                      -0.00007                      -0.02045
                       0.23268                      -0.00013                      -0.02046
                       0.23248                      -0.00021                      -0.02048
                       0.23231                      -0.00031                      -0.02050
                       0.23217                      -0.00045                      -0.02053
                       0.23205                      -0.00061                      -0.02055
                       0.23196                      -0.00081                      -0.02057
                       0.23189                      -0.00103                      -0.02057
                       0.23184                      -0.00127                      -0.02057
                       0.23180                      -0.00147                      -0.02055
                       0.23178                      -0.00162                      -0.02054
                       0.23176                      -0.00175                      -0.02052
                       0.23175                      -0.00180                      -0.02051
        </DataArray>
        <DataArray type="Float32" Name="TranslationalAcceleration" NumberOfComponents="3" format="ascii">
                       0.06345                      -0.01157                       0.08974
                       0.02428                      -0.01002                       0.10349
                       0.06189                      -0.03250                       0.29493
                       0.08762                      -0.05574                       0.47029
                       0.10807                      -0.08410                       0.67433
                       0.12109                      -0.10825                       0.90512
                       0.12696                      -0.12408                       1.12913
                       0.12901                      -0.13996                       1.35218
                       0.12863                      -0.15633                       1.57758
                       0.12571                      -0.17353                       1.80643
                       0.11913                      -0.19173                       2.03823
                       0.10722                      -0.21064                       2.27159
                       0.08821                      -0.23004                       2.50478
                       0.06070                      -0.24971                       2.73642
                       0.02412                      -0.26951                       2.96601
                      -0.01300                      -0.28622                       3.15642
                      -0.04599                      -0.29922                       3.30928
                      -0.08058                      -0.30939                       3.46442
                      -0.09821                      -0.31688                       3.54310
        </DataArray>
        <DataArray type="Float32" Name="OrientationX" NumberOfComponents="3" format="ascii">
                       0.97105                       0.23226                      -0.05588
                       0.97106                       0.23223                      -0.05577
                       0.97111                       0.23212                      -0.05545
                       0.97117                       0.23195                      -0.05498
                       0.97128                       0.23167                      -0.05421
                       0.97743                       0.20160                      -0.06321
                       0.98133                       0.17953                      -0.06901
                       0.98438                       0.15996                      -0.07352
                       0.98720                       0.13911                      -0.07800
                       0.98967                       0.11745                      -0.08227
                       0.99161                       0.09670                      -0.08577
                       0.99315                       0.07593                      -0.08886
                       0.99422                       0.05685                      -0.09107
                       0.99489                       0.04197                      -0.09178
                       0.99534                       0.02733                      -0.09246
                       0.99553                       0.01519                      -0.09326
                       0.99555                       0.00624                      -0.09400
                       0.99558                       0.00126                      -0.09392
                       0.99563                       0.00106                      -0.09339
        </DataArray>
        <DataArray type="Float32" Name="OrientationY" NumberOfComponents="3" format="ascii">
                       0.20265                      -0.92476                      -0.32212
                       0.20266                      -0.92478                      -0.32205
                       0.20268                      -0.92484                      -0.32187
                       0.20269                      -0.92491                      -0.32165
                       0.20270                      -0.92502                      -0.32133
                       0.17161                      -0.93207                      -0.31906
                       0.14904                      -0.93659                      -0.31716
                       0.12922                      -0.94013                      -0.31537
                       0.10817                      -0.94342                      -0.31345
                       0.08642                      -0.94633                      -0.31143
                       0.06574                      -0.94863                      -0.30947
                       0.04516                      -0.95047                      -0.30751
                       0.02642                      -0.95176                      -0.30571
                       0.01211                      -0.95249                      -0.30433
                      -0.00198                      -0.95300                      -0.30298
                      -0.01373                      -0.95326                      -0.30185
                      -0.02245                      -0.95336                      -0.30100
                      -0.02714                      -0.95339                      -0.30051
                      -0.02717                      -0.95340                      -0.30048
        </DataArray>
        <DataArray type="Float32" Name="OrientationZ" NumberOfComponents="3" format="ascii">
                      -0.12649                       0.30147                      -0.94505
                      -0.12637                       0.30142                      -0.94508
                      -0.12599                       0.30133                      -0.94516
                      -0.12546                       0.30123                      -0.94526
                      -0.12458                       0.30112                      -0.94541
                      -0.12324                       0.30101                      -0.94562
                      -0.12157                       0.30095                      -0.94586
                      -0.11957                       0.30095                      -0.94612
                      -0.11719                       0.30100                      -0.94640
                      -0.11443                       0.30110                      -0.94670
                      -0.11129                       0.30123                      -0.94703
                      -0.10781                       0.30139                      -0.94739
                      -0.10406                       0.30153                      -0.94776
                      -0.10019                       0.30166                      -0.94814
                      -0.09640                       0.30175                      -0.94850
                      -0.09349                       0.30178                      -0.94878
                      -0.09149                       0.30177                      -0.94898
                      -0.08993                       0.30173                      -0.94914
                      -0.08935                       0.30170                      -0.94921
        </DataArray>
        <DataArray type="Float32" Name="Force" NumberOfComponents="3" format="ascii">
                       4.92744                     -77.72391                     -25.45298
                      82.20007                    -107.90571                     -45.41197
                      92.01394                    -121.29537                     -50.95692
                      73.25946                     -97.73555                     -40.89762
                     626.48112                     240.52366                      -5.84752
                     765.09069                     311.99341                      -0.22438
                     844.32460                     319.78389                      -6.56777
                     755.43121                     237.38930                     -19.79639
                     777.60915                     243.60816                     -18.65169
                     809.05854                     236.20131                     -22.53402
                     824.01547                     240.98756                     -20.07118
                     839.78411                     227.08876                     -23.24917
                     934.25651                     218.34297                     -33.07340
                     928.23804                     201.12890                     -34.08398
                     912.00551                     182.36066                     -34.67935
                     891.65329                     166.25609                     -34.98944
                     845.22435                     149.08058                     -34.08734
                     600.58145                     103.12123                     -24.11878
                     257.99577                       7.21772                     -21.99186
        </DataArray>
        <DataArray type="Float32" Name="Moment" NumberOfComponents="3" format="ascii">
                       0.00000                       0.00000                       0.00000
                       0.00000                       0.00000                       0.00000
                       0.00000                       0.00000                       0.00000
                       0.00000                       0.00000                       0.00000
                      24.48490                     -59.25769                     185.79718
                      27.70706                     -67.79218                     212.58296
                      28.79468                     -71.42572                     224.01181
                      35.42624                     -89.35942                     280.30944
                      32.25378                     -83.01362                     260.46092
                      30.11471                     -79.38371                     249.13562
                      23.45505                     -63.57741                     199.58762
                      21.47215                     -60.08692                     188.69083
                      22.80512                     -66.11804                     207.70231
                      20.26427                     -61.02445                     191.77000
                      17.72127                     -55.46691                     174.36641
                      15.62554                     -50.42935                     158.57283
                      13.15834                     -43.39577                     136.48125
                       6.02827                     -20.22758                      63.62565
                       5.39845                     -18.23090                      57.34816
        </DataArray>
      </PointData>
      <Lines>
        <DataArray type="Int32" Name="connectivity" format="ascii">
      0      1
      1      2
      2      3
      3      4
      4      5
      5      6
      6      7
      7      8
      8      9
      9     10
     10     11
     11     12
     12     13
     13     14
     14     15
     15     16
     16     17
     17     18
        </DataArray>
        <DataArray type="Int32" Name="offsets" format="ascii">
      2
      4
      6
      8
     10
     12
     14
     16
     18
     20
     22
     24
     26
     28
     30
     32
     34
     36
        </DataArray>
      </Lines>
    </Piece>
  </PolyData>
</VTKFile>
