<?xml version="1.0"?>
<VTKFile type="PolyData" version="0.1" byte_order="LittleEndian">
  <PolyData>
    <Piece NumberOfPoints="     22" NumberOfVerts="  0" NumberOfLines="     21"
           NumberOfStrips="  0" NumberOfPolys="      0">
      <Points>
        <DataArray type="Float32" NumberOfComponents="3" format="ascii">
                       0.00001                      -0.00000                       2.19000
                       0.00005                      -0.00001                       6.57000
                       0.00014                      -0.00003                      10.95000
                       0.00028                      -0.00005                      15.33000
                       0.00045                      -0.00008                      19.71000
                       0.00066                      -0.00012                      24.09000
                       0.00088                      -0.00016                      28.47000
                       0.00111                      -0.00020                      32.85000
                       0.00133                      -0.00025                      37.23000
                       0.00152                      -0.00030                      41.61000
                       0.00169                      -0.00034                      45.99000
                       0.00182                      -0.00039                      50.37000
                       0.00188                      -0.00044                      54.75000
                       0.00189                      -0.00048                      59.13000
                       0.00183                      -0.00052                      63.51000
                       0.00170                      -0.00056                      67.89000
                       0.00150                      -0.00059                      72.27000
                       0.00124                      -0.00062                      76.65000
                       0.00091                      -0.00064                      81.03000
                       0.00053                      -0.00065                      85.41000
                       0.00032                      -0.00066                      87.60000
                       0.00000                       0.00000                       0.00000
        </DataArray>
      </Points>
      <PointData>
        <DataArray type="Float32" Name="TranslationalVelocity" NumberOfComponents="3" format="ascii">
                       0.00000                       0.00000                       0.00000
                       0.00000                       0.00004                       0.00000
                       0.00000                       0.00010                       0.00000
                      -0.00001                       0.00019                       0.00000
                      -0.00005                       0.00030                       0.00000
                      -0.00011                       0.00044                       0.00000
                      -0.00021                       0.00060                       0.00000
                      -0.00035                       0.00079                       0.00000
                      -0.00055                       0.00100                       0.00000
                      -0.00082                       0.00124                       0.00000
                      -0.00117                       0.00151                       0.00000
                      -0.00161                       0.00181                       0.00000
                      -0.00217                       0.00214                       0.00000
                      -0.00284                       0.00250                       0.00000
                      -0.00364                       0.00289                       0.00000
                      -0.00456                       0.00330                       0.00000
                      -0.00561                       0.00374                       0.00000
                      -0.00676                       0.00420                      -0.00000
                      -0.00799                       0.00468                      -0.00000
                      -0.00925                       0.00517                      -0.00000
                      -0.00988                       0.00542                      -0.00000
                       0.00000                      -0.00000                       0.00000
        </DataArray>
        <DataArray type="Float32" Name="RotationalVelocity" NumberOfComponents="3" format="ascii">
                      -0.00000                       0.00000                       0.00000
                      -0.00001                       0.00000                       0.00000
                      -0.00002                      -0.00000                       0.00000
                      -0.00002                      -0.00001                       0.00000
                      -0.00003                      -0.00001                       0.00000
                      -0.00003                      -0.00002                       0.00000
                      -0.00004                      -0.00003                       0.00000
                      -0.00005                      -0.00004                       0.00000
                      -0.00005                      -0.00005                       0.00000
                      -0.00006                      -0.00007                       0.00000
                      -0.00007                      -0.00009                       0.00000
                      -0.00007                      -0.00011                       0.00000
                      -0.00008                      -0.00014                       0.00000
                      -0.00009                      -0.00017                       0.00000
                      -0.00009                      -0.00020                       0.00000
                      -0.00010                      -0.00023                       0.00000
                      -0.00010                      -0.00025                       0.00000
                      -0.00011                      -0.00027                       0.00000
                      -0.00011                      -0.00029                       0.00000
                      -0.00011                      -0.00029                       0.00000
                      -0.00011                      -0.00028                       0.00000
                       0.00000                      -0.00000                       0.00000
        </DataArray>
        <DataArray type="Float32" Name="TranslationalAcceleration" NumberOfComponents="3" format="ascii">
                       0.00002                      -0.00001                      -0.00000
                       0.00024                      -0.00013                      -0.00000
                       0.00074                      -0.00033                      -0.00000
                       0.00157                      -0.00063                      -0.00000
                       0.00277                      -0.00100                      -0.00000
                       0.00435                      -0.00145                      -0.00000
                       0.00632                      -0.00198                      -0.00000
                       0.00872                      -0.00260                      -0.00000
                       0.01158                      -0.00329                      -0.00000
                       0.01494                      -0.00407                      -0.00000
                       0.01884                      -0.00494                      -0.00000
                       0.02336                      -0.00590                      -0.00000
                       0.02855                      -0.00695                      -0.00000
                       0.03444                      -0.00809                      -0.00000
                       0.04108                      -0.00931                      -0.00000
                       0.04846                      -0.01061                      -0.00000
                       0.05652                      -0.01198                      -0.00000
                       0.06514                      -0.01341                      -0.00000
                       0.07413                      -0.01488                      -0.00000
                       0.08318                      -0.01640                      -0.00000
                       0.08758                      -0.01717                      -0.00000
                       0.00000                      -0.00000                       0.00000
        </DataArray>
        <DataArray type="Float32" Name="RotationalAcceleration" NumberOfComponents="3" format="ascii">
                       0.00001                       0.00002                       0.00000
                       0.00004                       0.00008                       0.00000
                       0.00006                       0.00015                       0.00000
                       0.00008                       0.00023                       0.00000
                       0.00009                       0.00032                       0.00000
                       0.00011                       0.00040                       0.00000
                       0.00013                       0.00050                       0.00000
                       0.00015                       0.00060                       0.00000
                       0.00017                       0.00071                       0.00000
                       0.00019                       0.00083                       0.00000
                       0.00021                       0.00096                       0.00000
                       0.00023                       0.00111                       0.00000
                       0.00025                       0.00126                       0.00000
                       0.00027                       0.00143                       0.00000
                       0.00029                       0.00160                       0.00000
                       0.00030                       0.00177                       0.00000
                       0.00032                       0.00191                       0.00000
                       0.00033                       0.00202                       0.00000
                       0.00034                       0.00207                       0.00000
                       0.00035                       0.00204                       0.00000
                       0.00035                       0.00198                       0.00000
                       0.00000                      -0.00000                       0.00000
        </DataArray>
        <DataArray type="Float32" Name="OrientationX" NumberOfComponents="3" format="ascii">
                       1.00000                       0.00000                      -0.00001
                       1.00000                       0.00000                      -0.00002
                       1.00000                       0.00000                      -0.00003
                       1.00000                       0.00000                      -0.00004
                       1.00000                       0.00000                      -0.00004
                       1.00000                       0.00000                      -0.00005
                       1.00000                       0.00000                      -0.00005
                       1.00000                       0.00000                      -0.00005
                       1.00000                       0.00000                      -0.00005
                       1.00000                       0.00000                      -0.00004
                       1.00000                       0.00000                      -0.00003
                       1.00000                       0.00000                      -0.00002
                       1.00000                       0.00000                      -0.00001
                       1.00000                      -0.00000                       0.00001
                       1.00000                      -0.00000                       0.00002
                       1.00000                      -0.00000                       0.00004
                       1.00000                      -0.00000                       0.00005
                       1.00000                      -0.00000                       0.00007
                       1.00000                      -0.00000                       0.00008
                       1.00000                      -0.00000                       0.00009
                       1.00000                      -0.00000                       0.00010
                       1.00000                      -0.00000                       0.00000
        </DataArray>
        <DataArray type="Float32" Name="OrientationY" NumberOfComponents="3" format="ascii">
                       0.00000                       1.00000                       0.00000
                       0.00000                       1.00000                       0.00000
                       0.00000                       1.00000                       0.00000
                       0.00000                       1.00000                       0.00001
                       0.00000                       1.00000                       0.00001
                       0.00000                       1.00000                       0.00001
                       0.00000                       1.00000                       0.00001
                       0.00000                       1.00000                       0.00001
                       0.00000                       1.00000                       0.00001
                       0.00000                       1.00000                       0.00001
                       0.00000                       1.00000                       0.00001
                       0.00000                       1.00000                       0.00001
                       0.00000                       1.00000                       0.00001
                      -0.00000                       1.00000                       0.00001
                      -0.00000                       1.00000                       0.00001
                      -0.00000                       1.00000                       0.00001
                      -0.00000                       1.00000                       0.00001
                      -0.00000                       1.00000                       0.00001
                      -0.00000                       1.00000                       0.00000
                      -0.00000                       1.00000                       0.00000
                      -0.00000                       1.00000                       0.00000
                      -0.00000                       1.00000                      -0.00000
        </DataArray>
        <DataArray type="Float32" Name="OrientationZ" NumberOfComponents="3" format="ascii">
                       0.00001                      -0.00000                       1.00000
                       0.00002                      -0.00000                       1.00000
                       0.00003                      -0.00000                       1.00000
                       0.00004                      -0.00001                       1.00000
                       0.00004                      -0.00001                       1.00000
                       0.00005                      -0.00001                       1.00000
                       0.00005                      -0.00001                       1.00000
                       0.00005                      -0.00001                       1.00000
                       0.00005                      -0.00001                       1.00000
                       0.00004                      -0.00001                       1.00000
                       0.00003                      -0.00001                       1.00000
                       0.00002                      -0.00001                       1.00000
                       0.00001                      -0.00001                       1.00000
                      -0.00001                      -0.00001                       1.00000
                      -0.00002                      -0.00001                       1.00000
                      -0.00004                      -0.00001                       1.00000
                      -0.00005                      -0.00001                       1.00000
                      -0.00007                      -0.00001                       1.00000
                      -0.00008                      -0.00000                       1.00000
                      -0.00009                      -0.00000                       1.00000
                      -0.00010                      -0.00000                       1.00000
                       0.00000                      -0.00000                       1.00000
        </DataArray>
      </PointData>
      <Lines>
        <DataArray type="Int32" Name="connectivity" format="ascii">
      0      1
      1      2
      2      3
      3      4
      4      5
      5      6
      6      7
      7      8
      8      9
      9     10
     10     11
     11     12
     12     13
     13     14
     14     15
     15     16
     16     17
     17     18
     18     19
     19     20
     21      0
        </DataArray>
        <DataArray type="Int32" Name="offsets" format="ascii">
      2
      4
      6
      8
     10
     12
     14
     16
     18
     20
     22
     24
     26
     28
     30
     32
     34
     36
     38
     40
     42
        </DataArray>
      </Lines>
    </Piece>
  </PolyData>
</VTKFile>
