<?xml version="1.0"?>
<VTKFile type="PolyData" version="0.1" byte_order="LittleEndian">
  <PolyData>
    <Piece NumberOfPoints="     19" NumberOfVerts="  0" NumberOfLines="     18"
           NumberOfStrips="  0" NumberOfPolys="      0">
      <Points>
        <DataArray type="Float32" NumberOfComponents="3" format="ascii">
                      -5.09400                       1.29125                      89.26599
                      -5.21359                       2.47711                      88.59716
                      -5.46756                       4.89461                      87.34287
                      -5.72839                       7.33344                      86.12707
                      -6.05828                      10.39425                      84.62877
                      -6.41179                      13.99621                      82.69807
                      -6.75026                      17.53207                      80.64885
                      -7.08982                      21.06450                      78.59401
                      -7.42780                      24.59287                      76.53202
                      -7.76444                      28.11834                      74.46498
                      -8.10032                      31.64299                      72.39660
                      -8.43435                      35.16640                      70.32595
                      -8.76678                      38.68884                      68.25351
                      -9.09796                      42.21056                      66.17975
                      -9.42589                      45.73184                      64.10483
                      -9.69644                      48.66600                      62.37487
                      -9.91192                      51.00911                      60.98363
                     -10.13097                      53.32418                      59.54463
                     -10.23739                      54.50260                      58.86081
        </DataArray>
      </Points>
      <PointData>
        <DataArray type="Float32" Name="TranslationalVelocity" NumberOfComponents="3" format="ascii">
                       0.07085                      -0.00688                       0.01770
                       0.07018                      -0.00293                       0.02484
                       0.06860                       0.00449                       0.03947
                       0.06670                       0.01169                       0.05433
                       0.06391                       0.02056                       0.07312
                       0.05947                       0.03197                       0.09532
                       0.05334                       0.04404                       0.11724
                       0.04479                       0.05597                       0.13925
                       0.03250                       0.06765                       0.16131
                       0.01479                       0.07889                       0.18341
                      -0.01024                       0.08951                       0.20559
                      -0.04476                       0.09934                       0.22789
                      -0.09105                       0.10826                       0.25045
                      -0.15154                       0.11615                       0.27345
                      -0.22869                       0.12296                       0.29716
                      -0.30785                       0.12781                       0.31774
                      -0.38145                       0.13123                       0.33488
                      -0.46536                       0.13442                       0.35274
                      -0.51101                       0.13573                       0.36210
        </DataArray>
        <DataArray type="Float32" Name="RotationalVelocity" NumberOfComponents="3" format="ascii">
                       0.00581                       0.00199                      -0.00050
                       0.00581                       0.00201                      -0.00048
                       0.00584                       0.00207                      -0.00040
                       0.00586                       0.00215                      -0.00030
                       0.00589                       0.00229                      -0.00014
                       0.00592                       0.00252                       0.00010
                       0.00592                       0.00286                       0.00045
                       0.00589                       0.00338                       0.00097
                       0.00583                       0.00412                       0.00175
                       0.00576                       0.00516                       0.00287
                       0.00567                       0.00653                       0.00440
                       0.00557                       0.00827                       0.00639
                       0.00550                       0.01038                       0.00887
                       0.00546                       0.01281                       0.01183
                       0.00549                       0.01547                       0.01521
                       0.00558                       0.01777                       0.01826
                       0.00572                       0.01957                       0.02079
                       0.00592                       0.02127                       0.02332
                       0.00605                       0.02205                       0.02456
        </DataArray>
        <DataArray type="Float32" Name="TranslationalAcceleration" NumberOfComponents="3" format="ascii">
                      -0.11122                       0.01656                      -0.10315
                      -0.01763                       0.00659                      -0.03054
                      -0.03302                       0.01619                      -0.07633
                      -0.02346                       0.02271                      -0.10472
                       0.02005                       0.02966                      -0.12162
                       0.11020                       0.03947                      -0.11984
                       0.22020                       0.05391                      -0.10117
                       0.32245                       0.07400                      -0.06959
                       0.39211                       0.09955                      -0.02696
                       0.40707                       0.12926                       0.02588
                       0.35078                       0.16093                       0.08840
                       0.21467                       0.19184                       0.15943
                       0.00104                       0.21903                       0.23652
                      -0.27430                       0.23964                       0.31507
                      -0.57915                       0.25133                       0.38714
                      -0.81787                       0.25319                       0.43383
                      -0.97080                       0.24939                       0.45626
                      -1.07048                       0.24101                       0.45990
                      -1.07968                       0.23546                       0.45151
        </DataArray>
        <DataArray type="Float32" Name="OrientationX" NumberOfComponents="3" format="ascii">
                       0.98414                       0.15139                       0.09248
                       0.98414                       0.15139                       0.09249
                       0.98414                       0.15138                       0.09249
                       0.98414                       0.15137                       0.09250
                       0.98414                       0.15135                       0.09252
                       0.98858                       0.13597                       0.06494
                       0.99117                       0.12467                       0.04509
                       0.99302                       0.11463                       0.02782
                       0.99454                       0.10387                       0.00963
                       0.99566                       0.09263                      -0.00899
                       0.99630                       0.08180                      -0.02649
                       0.99652                       0.07091                      -0.04374
                       0.99639                       0.06086                      -0.05923
                       0.99609                       0.05296                      -0.07077
                       0.99560                       0.04515                      -0.08207
                       0.99505                       0.03865                      -0.09153
                       0.99456                       0.03382                      -0.09856
                       0.99428                       0.03109                      -0.10220
                       0.99430                       0.03094                      -0.10207
        </DataArray>
        <DataArray type="Float32" Name="OrientationY" NumberOfComponents="3" format="ascii">
                       0.15454                      -0.47561                      -0.86597
                       0.15456                      -0.47576                      -0.86589
                       0.15460                      -0.47616                      -0.86566
                       0.15465                      -0.47666                      -0.86538
                       0.15473                      -0.47737                      -0.86497
                       0.12336                      -0.48286                      -0.86696
                       0.10070                      -0.48676                      -0.86771
                       0.08088                      -0.49001                      -0.86796
                       0.05990                      -0.49308                      -0.86792
                       0.03830                      -0.49588                      -0.86755
                       0.01786                      -0.49823                      -0.86686
                      -0.00241                      -0.50025                      -0.86588
                      -0.02075                      -0.50184                      -0.86471
                      -0.03462                      -0.50292                      -0.86364
                      -0.04825                      -0.50383                      -0.86245
                      -0.05964                      -0.50446                      -0.86137
                      -0.06811                      -0.50487                      -0.86051
                      -0.07261                      -0.50509                      -0.86001
                      -0.07257                      -0.50511                      -0.86000
        </DataArray>
        <DataArray type="Float32" Name="OrientationZ" NumberOfComponents="3" format="ascii">
                      -0.08711                       0.86653                      -0.49146
                      -0.08708                       0.86645                      -0.49161
                      -0.08700                       0.86623                      -0.49201
                      -0.08690                       0.86596                      -0.49251
                      -0.08675                       0.86557                      -0.49322
                      -0.08652                       0.86508                      -0.49412
                      -0.08623                       0.86459                      -0.49502
                      -0.08586                       0.86415                      -0.49586
                      -0.08540                       0.86376                      -0.49661
                      -0.08482                       0.86344                      -0.49728
                      -0.08411                       0.86317                      -0.49785
                      -0.08328                       0.86297                      -0.49834
                      -0.08235                       0.86282                      -0.49876
                      -0.08133                       0.86271                      -0.49912
                      -0.08029                       0.86262                      -0.49944
                      -0.07946                       0.86257                      -0.49966
                      -0.07886                       0.86253                      -0.49982
                      -0.07836                       0.86251                      -0.49994
                      -0.07816                       0.86250                      -0.49998
        </DataArray>
        <DataArray type="Float32" Name="Force" NumberOfComponents="3" format="ascii">
                      72.20832                     -14.14154                     -37.73304
                      63.07775                     -13.53239                     -35.03445
                      67.73857                     -13.52091                     -35.82329
                      55.98996                     -10.60506                     -28.58664
                     466.15002                      96.17837                      87.43372
                     405.47919                      73.51303                      58.41228
                     390.16205                      65.96643                      48.08456
                     317.55159                      48.60592                      30.45571
                     266.32951                      35.28446                      16.16769
                     249.73424                      30.21205                      10.41735
                     221.13870                      22.04350                       1.26362
                     206.54743                      18.33002                      -2.43552
                     174.23183                      12.87620                      -6.26577
                     161.68148                      10.70728                      -7.65745
                     149.34529                       8.77304                      -8.71715
                     139.20132                       7.32385                      -9.38641
                     127.18953                       6.10975                      -9.44260
                      87.62211                       3.96927                      -6.83611
                      88.20039                       3.98070                      -6.87067
        </DataArray>
        <DataArray type="Float32" Name="Moment" NumberOfComponents="3" format="ascii">
                       0.00000                       0.00000                       0.00000
                       0.00000                       0.00000                       0.00000
                       0.00000                       0.00000                       0.00000
                       0.00000                       0.00000                       0.00000
                      24.85862                    -248.74828                     141.09384
                      25.99110                    -260.99908                     148.05078
                      24.13115                    -243.35321                     138.05027
                      22.40233                    -227.08131                     128.82965
                      19.83405                    -202.30366                     114.78351
                      17.40832                    -178.90191                     101.51735
                      13.85887                    -143.70626                      81.55667
                      12.01588                    -125.90265                      71.46381
                      10.18819                    -108.01859                      61.32326
                       8.60679                     -92.42983                      52.48315
                       7.17776                     -78.11036                      44.36076
                       6.10237                     -67.12200                      38.12598
                       5.00472                     -55.47827                      31.51567
                       2.33567                     -26.06084                      14.80579
                       2.34600                     -26.24458                      14.91072
        </DataArray>
      </PointData>
      <Lines>
        <DataArray type="Int32" Name="connectivity" format="ascii">
      0      1
      1      2
      2      3
      3      4
      4      5
      5      6
      6      7
      7      8
      8      9
      9     10
     10     11
     11     12
     12     13
     13     14
     14     15
     15     16
     16     17
     17     18
        </DataArray>
        <DataArray type="Int32" Name="offsets" format="ascii">
      2
      4
      6
      8
     10
     12
     14
     16
     18
     20
     22
     24
     26
     28
     30
     32
     34
     36
        </DataArray>
      </Lines>
    </Piece>
  </PolyData>
</VTKFile>
