<?xml version="1.0"?>
<VTKFile type="PolyData" version="0.1" byte_order="LittleEndian">
  <PolyData>
    <Piece NumberOfPoints="     19" NumberOfVerts="  0" NumberOfLines="     18"
           NumberOfStrips="  0" NumberOfPolys="      0">
      <Points>
        <DataArray type="Float32" NumberOfComponents="3" format="ascii">
                      -5.04744                      -1.47271                      89.72452
                      -5.13072                      -2.81240                      89.46721
                      -5.32719                      -5.47243                      88.86103
                      -5.53723                      -8.12303                      88.21026
                      -5.80678                     -11.43019                      87.36826
                      -6.06233                     -15.42744                      86.48799
                      -6.27858                     -19.44996                      85.72702
                      -6.49159                     -23.47216                      84.96314
                      -6.69774                     -27.49462                      84.19809
                      -6.89700                     -31.51702                      83.43041
                      -7.09005                     -35.53871                      82.65712
                      -7.27525                     -39.56013                      81.88017
                      -7.45262                     -43.58136                      81.10017
                      -7.62248                     -47.60248                      80.31768
                      -7.78304                     -51.62356                      79.53287
                      -7.90964                     -54.97447                      78.87727
                      -8.00617                     -57.65671                      78.35960
                      -8.09536                     -60.35000                      77.89486
                      -8.14288                     -61.68814                      77.62155
        </DataArray>
      </Points>
      <PointData>
        <DataArray type="Float32" Name="TranslationalVelocity" NumberOfComponents="3" format="ascii">
                      -0.03712                       0.06605                      -0.37727
                      -0.06733                       0.13385                      -0.72056
                      -0.12713                       0.29359                      -1.40216
                      -0.18648                       0.46502                      -2.08132
                      -0.26014                       0.68673                      -2.92872
                      -0.34847                       0.91787                      -3.95294
                      -0.43635                       1.11752                      -4.98372
                      -0.52281                       1.31781                      -6.01459
                      -0.60747                       1.51822                      -7.04579
                      -0.68991                       1.71912                      -8.07733
                      -0.76968                       1.92129                      -9.10913
                      -0.84639                       2.12421                     -10.14138
                      -0.91968                       2.32772                     -11.17415
                      -0.98926                       2.53169                     -12.20747
                      -1.05494                       2.73606                     -13.24134
                      -1.10656                       2.90662                     -14.10330
                      -1.14598                       3.04122                     -14.79345
                      -1.18403                       3.16208                     -15.48655
                      -1.20220                       3.23308                     -15.83096
        </DataArray>
        <DataArray type="Float32" Name="RotationalVelocity" NumberOfComponents="3" format="ascii">
                       0.25624                      -0.00006                      -0.02256
                       0.25624                      -0.00006                      -0.02254
                       0.25623                      -0.00007                      -0.02248
                       0.25623                      -0.00009                      -0.02239
                       0.25623                      -0.00012                      -0.02225
                       0.25624                      -0.00016                      -0.02203
                       0.25627                      -0.00022                      -0.02173
                       0.25631                      -0.00029                      -0.02137
                       0.25638                      -0.00040                      -0.02091
                       0.25647                      -0.00056                      -0.02036
                       0.25658                      -0.00076                      -0.01970
                       0.25670                      -0.00102                      -0.01895
                       0.25683                      -0.00134                      -0.01811
                       0.25696                      -0.00171                      -0.01722
                       0.25708                      -0.00210                      -0.01632
                       0.25716                      -0.00242                      -0.01560
                       0.25721                      -0.00266                      -0.01508
                       0.25724                      -0.00286                      -0.01465
                       0.25725                      -0.00294                      -0.01447
        </DataArray>
        <DataArray type="Float32" Name="TranslationalAcceleration" NumberOfComponents="3" format="ascii">
                      -0.05141                       0.10686                      -0.00695
                      -0.01518                       0.12420                      -0.00370
                      -0.03635                       0.35463                      -0.00445
                      -0.04763                       0.56627                      -0.00037
                      -0.05233                       0.81294                       0.00775
                      -0.05032                       1.09155                       0.00945
                      -0.04471                       1.36154                       0.00315
                      -0.03794                       1.63056                      -0.00271
                      -0.03197                       1.90253                      -0.00845
                      -0.02762                       2.17866                      -0.01404
                      -0.02490                       2.45831                      -0.01924
                      -0.02335                       2.73972                      -0.02411
                      -0.02227                       3.02077                      -0.02858
                      -0.02103                       3.29975                      -0.03256
                      -0.01937                       3.57602                      -0.03598
                      -0.01788                       3.80494                      -0.03835
                      -0.01718                       3.98850                      -0.04067
                      -0.01821                       4.17430                      -0.04670
                      -0.01873                       4.26871                      -0.04700
        </DataArray>
        <DataArray type="Float32" Name="OrientationX" NumberOfComponents="3" format="ascii">
                       0.94793                       0.00216                      -0.31848
                       0.94794                       0.00228                      -0.31846
                       0.94796                       0.00264                      -0.31839
                       0.94798                       0.00318                      -0.31830
                       0.94803                       0.00404                      -0.31816
                       0.95758                      -0.00099                      -0.28818
                       0.96388                      -0.00409                      -0.26631
                       0.96898                      -0.00642                      -0.24706
                       0.97395                      -0.00879                      -0.22661
                       0.97860                      -0.01111                      -0.20546
                       0.98259                      -0.01301                      -0.18531
                       0.98615                      -0.01471                      -0.16522
                       0.98903                      -0.01591                      -0.14688
                       0.99101                      -0.01618                      -0.13281
                       0.99277                      -0.01649                      -0.11891
                       0.99409                      -0.01694                      -0.10726
                       0.99498                      -0.01738                      -0.09859
                       0.99544                      -0.01728                      -0.09383
                       0.99546                      -0.01690                      -0.09372
        </DataArray>
        <DataArray type="Float32" Name="OrientationY" NumberOfComponents="3" format="ascii">
                       0.31275                      -0.19515                       0.92957
                       0.31274                      -0.19532                       0.92954
                       0.31272                      -0.19575                       0.92946
                       0.31270                      -0.19628                       0.92935
                       0.31268                      -0.19704                       0.92920
                       0.28228                      -0.19806                       0.93866
                       0.26020                      -0.19898                       0.94483
                       0.24084                      -0.19979                       0.94978
                       0.22030                      -0.20046                       0.95461
                       0.19909                      -0.20096                       0.95915
                       0.17896                      -0.20132                       0.96304
                       0.15892                      -0.20156                       0.96650
                       0.14070                      -0.20171                       0.96929
                       0.12685                      -0.20184                       0.97117
                       0.11316                      -0.20191                       0.97284
                       0.10167                      -0.20191                       0.97411
                       0.09308                      -0.20188                       0.97498
                       0.08844                      -0.20186                       0.97541
                       0.08840                      -0.20187                       0.97541
        </DataArray>
        <DataArray type="Float32" Name="OrientationZ" NumberOfComponents="3" format="ascii">
                      -0.06014                      -0.98077                      -0.18567
                      -0.06008                      -0.98074                      -0.18586
                      -0.05987                      -0.98065                      -0.18639
                      -0.05952                      -0.98054                      -0.18707
                      -0.05893                      -0.98039                      -0.18807
                      -0.05801                      -0.98019                      -0.18938
                      -0.05685                      -0.98000                      -0.19073
                      -0.05546                      -0.97982                      -0.19205
                      -0.05382                      -0.97966                      -0.19330
                      -0.05194                      -0.97954                      -0.19445
                      -0.04983                      -0.97944                      -0.19549
                      -0.04752                      -0.97937                      -0.19643
                      -0.04505                      -0.97932                      -0.19725
                      -0.04252                      -0.97928                      -0.19798
                      -0.04005                      -0.97927                      -0.19858
                      -0.03816                      -0.97926                      -0.19899
                      -0.03685                      -0.97926                      -0.19925
                      -0.03580                      -0.97926                      -0.19941
                      -0.03540                      -0.97927                      -0.19946
        </DataArray>
        <DataArray type="Float32" Name="Force" NumberOfComponents="3" format="ascii">
                       0.91453                      -1.54928                       7.88772
                      91.10012                      -9.73021                      21.92502
                     105.69057                     -12.69391                      33.00575
                      85.67836                     -11.31188                      32.33107
                     532.32207                       7.38039                    -207.23433
                     507.40047                       4.37612                    -180.58429
                     548.89017                       3.56238                    -185.30838
                     501.30291                       1.83437                    -157.60501
                     451.76374                      -0.29014                    -127.48004
                     470.81298                      -1.20742                    -123.00877
                     442.35902                      -3.58710                     -97.38463
                     452.85959                      -4.26522                     -90.70469
                     430.49820                      -3.89913                     -81.14168
                     464.52696                      -1.46872                     -95.40902
                     499.91388                       1.43810                    -111.67758
                     521.41391                       3.75858                    -122.85746
                     529.62243                       5.28592                    -128.64544
                     425.88224                       6.51851                    -112.84387
                     137.68534                      -2.58785                     -11.68017
        </DataArray>
        <DataArray type="Float32" Name="Moment" NumberOfComponents="3" format="ascii">
                       0.00000                       0.00000                       0.00000
                       0.00000                       0.00000                       0.00000
                       0.00000                       0.00000                       0.00000
                       0.00000                       0.00000                       0.00000
                      17.50923                     292.39329                      55.38912
                      19.21916                     326.70037                      61.91839
                      19.09294                     331.85748                      62.93364
                      19.08272                     340.73614                      64.66330
                      17.91768                     330.35587                      62.74481
                      16.91009                     323.73904                      61.54522
                      13.16340                     263.24629                      50.09680
                      11.42817                     240.19965                      45.76228
                       9.76956                     217.05662                      41.40224
                       8.30421                     195.91860                      37.41557
                       6.82386                     171.29830                      32.75219
                       5.73375                     151.35301                      28.96469
                       4.61055                     126.20373                      24.16685
                       1.90615                      53.75862                      10.29937
                       1.48102                      42.25329                       8.09663
        </DataArray>
      </PointData>
      <Lines>
        <DataArray type="Int32" Name="connectivity" format="ascii">
      0      1
      1      2
      2      3
      3      4
      4      5
      5      6
      6      7
      7      8
      8      9
      9     10
     10     11
     11     12
     12     13
     13     14
     14     15
     15     16
     16     17
     17     18
        </DataArray>
        <DataArray type="Int32" Name="offsets" format="ascii">
      2
      4
      6
      8
     10
     12
     14
     16
     18
     20
     22
     24
     26
     28
     30
     32
     34
     36
        </DataArray>
      </Lines>
    </Piece>
  </PolyData>
</VTKFile>
