<?xml version="1.0"?>
<VTKFile type="PolyData" version="0.1" byte_order="LittleEndian">
  <PolyData>
    <Piece NumberOfPoints="     19" NumberOfVerts="  0" NumberOfLines="     18"
           NumberOfStrips="  0" NumberOfPolys="      0">
      <Points>
        <DataArray type="Float32" NumberOfComponents="3" format="ascii">
                      -4.92438                      -0.23880                      91.48001
                      -4.86700                      -0.45951                      92.82754
                      -4.77565                      -0.99440                      95.50842
                      -4.69512                      -1.57376                      98.18257
                      -4.60042                      -2.32482                     101.52121
                      -4.43061                      -3.08595                     105.54767
                      -4.23317                      -3.71976                     109.59349
                      -4.03582                      -4.35189                     113.63957
                      -3.83579                      -4.98054                     117.68610
                      -3.63363                      -5.60754                     121.73280
                      -3.43046                      -6.23640                     125.77916
                      -3.22532                      -6.86554                     129.82537
                      -3.01873                      -7.49487                     133.87148
                      -2.81133                      -8.12432                     137.91753
                      -2.60142                      -8.75396                     141.96345
                      -2.42456                      -9.27878                     145.33498
                      -2.28201                      -9.69091                     148.03336
                      -2.13866                     -10.04880                     150.74059
                      -2.06790                     -10.26891                     152.08748
        </DataArray>
      </Points>
      <PointData>
        <DataArray type="Float32" Name="TranslationalVelocity" NumberOfComponents="3" format="ascii">
                       0.00902                      -0.25431                      -0.04022
                       0.00596                      -0.48836                      -0.07842
                      -0.00157                      -0.95385                      -0.17104
                      -0.00975                      -1.41829                      -0.27143
                      -0.02032                      -1.99852                      -0.40170
                      -0.03074                      -2.69985                      -0.53392
                      -0.03904                      -3.40578                      -0.64421
                      -0.04708                      -4.11258                      -0.75434
                      -0.05479                      -4.82024                      -0.86397
                      -0.06217                      -5.52864                      -0.97343
                      -0.06925                      -6.23757                      -1.08330
                      -0.07598                      -6.94696                      -1.19329
                      -0.08236                      -7.65671                      -1.30339
                      -0.08839                      -8.36672                      -1.41355
                      -0.09409                      -9.07695                      -1.52380
                      -0.09860                      -9.66895                      -1.61572
                      -0.10197                     -10.14285                      -1.68792
                      -0.10442                     -10.61839                      -1.75067
                      -0.10623                     -10.85501                      -1.78924
        </DataArray>
        <DataArray type="Float32" Name="RotationalVelocity" NumberOfComponents="3" format="ascii">
                       0.17301                       0.00021                      -0.01516
                       0.17304                       0.00021                      -0.01516
                       0.17313                       0.00022                      -0.01516
                       0.17324                       0.00023                      -0.01516
                       0.17340                       0.00026                      -0.01516
                       0.17360                       0.00030                      -0.01517
                       0.17380                       0.00035                      -0.01516
                       0.17399                       0.00041                      -0.01516
                       0.17416                       0.00048                      -0.01515
                       0.17431                       0.00056                      -0.01514
                       0.17444                       0.00064                      -0.01512
                       0.17454                       0.00072                      -0.01510
                       0.17462                       0.00081                      -0.01508
                       0.17469                       0.00089                      -0.01506
                       0.17474                       0.00097                      -0.01504
                       0.17478                       0.00102                      -0.01502
                       0.17480                       0.00105                      -0.01501
                       0.17481                       0.00108                      -0.01500
                       0.17481                       0.00109                      -0.01499
        </DataArray>
        <DataArray type="Float32" Name="TranslationalAcceleration" NumberOfComponents="3" format="ascii">
                       0.04937                      -0.02074                      -0.04187
                       0.01220                      -0.00977                      -0.05469
                       0.02845                      -0.02340                      -0.15725
                       0.03575                      -0.03163                      -0.25275
                       0.03657                      -0.03756                      -0.36542
                       0.03031                      -0.04578                      -0.49376
                       0.02100                      -0.05655                      -0.61868
                       0.01184                      -0.06710                      -0.74352
                       0.00460                      -0.07819                      -0.86982
                      -0.00004                      -0.08999                      -0.99804
                      -0.00221                      -0.10233                      -1.12788
                      -0.00254                      -0.11497                      -1.25859
                      -0.00187                      -0.12752                      -1.38928
                      -0.00089                      -0.13967                      -1.51922
                       0.00012                      -0.15122                      -1.64817
                       0.00130                      -0.16045                      -1.75516
                       0.00298                      -0.16809                      -1.84095
                       0.00611                      -0.17780                      -1.92752
                       0.00849                      -0.18159                      -1.97153
        </DataArray>
        <DataArray type="Float32" Name="OrientationX" NumberOfComponents="3" format="ascii">
                       0.96897                      -0.23401                      -0.07957
                       0.96897                      -0.23400                      -0.07961
                       0.96896                      -0.23399                      -0.07974
                       0.96895                      -0.23397                      -0.07992
                       0.96893                      -0.23396                      -0.08022
                       0.97617                      -0.20323                      -0.07602
                       0.98077                      -0.18096                      -0.07314
                       0.98434                      -0.16144                      -0.07074
                       0.98769                      -0.14076                      -0.06820
                       0.99067                      -0.11944                      -0.06560
                       0.99306                      -0.09922                      -0.06322
                       0.99500                      -0.07915                      -0.06089
                       0.99641                      -0.06093                      -0.05886
                       0.99723                      -0.04712                      -0.05753
                       0.99786                      -0.03352                      -0.05618
                       0.99824                      -0.02215                      -0.05498
                       0.99845                      -0.01370                      -0.05403
                       0.99852                      -0.00921                      -0.05363
                       0.99851                      -0.00924                      -0.05375
        </DataArray>
        <DataArray type="Float32" Name="OrientationY" NumberOfComponents="3" format="ascii">
                       0.24347                       0.95915                       0.14408
                       0.24347                       0.95915                       0.14410
                       0.24348                       0.95913                       0.14415
                       0.24350                       0.95912                       0.14421
                       0.24353                       0.95910                       0.14430
                       0.21256                       0.96604                       0.14690
                       0.19014                       0.97043                       0.14873
                       0.17052                       0.97383                       0.15028
                       0.14972                       0.97700                       0.15184
                       0.12828                       0.97981                       0.15338
                       0.10797                       0.98203                       0.15477
                       0.08781                       0.98383                       0.15609
                       0.06953                       0.98511                       0.15724
                       0.05570                       0.98585                       0.15809
                       0.04208                       0.98640                       0.15890
                       0.03068                       0.98671                       0.15956
                       0.02220                       0.98686                       0.16004
                       0.01771                       0.98691                       0.16029
                       0.01776                       0.98691                       0.16028
        </DataArray>
        <DataArray type="Float32" Name="OrientationZ" NumberOfComponents="3" format="ascii">
                       0.04260                      -0.15898                       0.98636
                       0.04264                      -0.15901                       0.98636
                       0.04275                      -0.15909                       0.98634
                       0.04291                      -0.15920                       0.98631
                       0.04318                      -0.15935                       0.98628
                       0.04358                      -0.15956                       0.98623
                       0.04407                      -0.15978                       0.98617
                       0.04463                      -0.15999                       0.98611
                       0.04526                      -0.16018                       0.98605
                       0.04596                      -0.16036                       0.98599
                       0.04673                      -0.16052                       0.98593
                       0.04755                      -0.16065                       0.98587
                       0.04841                      -0.16076                       0.98581
                       0.04927                      -0.16086                       0.98575
                       0.05009                      -0.16093                       0.98569
                       0.05071                      -0.16097                       0.98566
                       0.05113                      -0.16099                       0.98563
                       0.05145                      -0.16100                       0.98561
                       0.05156                      -0.16100                       0.98561
        </DataArray>
        <DataArray type="Float32" Name="Force" NumberOfComponents="3" format="ascii">
                      75.78756                     -90.84193                     -17.91477
                     106.46467                     -97.87305                     -20.37678
                     114.12272                     -98.59003                     -20.83664
                      85.11086                     -68.86530                     -14.80283
                     414.59495                    -140.45675                     -40.79186
                     411.41824                    -117.30742                     -37.09185
                     378.29484                     -98.47284                     -32.77957
                     343.99681                     -80.16279                     -28.49206
                     315.50717                     -61.81896                     -24.44938
                     286.34272                     -49.71106                     -21.36417
                     272.28037                     -37.30150                     -18.92122
                     248.86239                     -29.00601                     -16.68226
                     229.21050                     -22.33178                     -14.85831
                     210.49489                     -17.56590                     -13.35555
                     192.29826                     -13.23670                     -11.90921
                     178.15490                     -10.11672                     -10.79950
                     161.72597                      -7.61645                      -9.61961
                     111.22296                      -4.67794                      -6.56149
                      70.60438                      -2.85573                      -4.15505
        </DataArray>
        <DataArray type="Float32" Name="Moment" NumberOfComponents="3" format="ascii">
                       0.00000                       0.00000                       0.00000
                       0.00000                       0.00000                       0.00000
                       0.00000                       0.00000                       0.00000
                       0.00000                       0.00000                       0.00000
                     -29.66321                     109.20104                    -677.49399
                     -28.88804                     105.35868                    -653.63211
                     -25.29526                      91.23931                    -566.01286
                     -22.22483                      79.15834                    -491.04285
                     -18.95174                      66.55670                    -412.84788
                     -16.06927                      55.57045                    -344.67918
                     -12.82900                      43.63600                    -270.63657
                     -10.88917                      36.39795                    -225.72868
                      -9.13920                      30.00810                    -186.08671
                      -7.67303                      24.75360                    -153.49063
                      -6.38387                      20.25627                    -125.59467
                      -5.42629                      17.00787                    -105.44786
                      -4.44702                      13.82478                     -85.70970
                      -2.07413                       6.40801                     -39.72674
                      -1.30183                       4.01315                     -24.87945
        </DataArray>
      </PointData>
      <Lines>
        <DataArray type="Int32" Name="connectivity" format="ascii">
      0      1
      1      2
      2      3
      3      4
      4      5
      5      6
      6      7
      7      8
      8      9
      9     10
     10     11
     11     12
     12     13
     13     14
     14     15
     15     16
     16     17
     17     18
        </DataArray>
        <DataArray type="Int32" Name="offsets" format="ascii">
      2
      4
      6
      8
     10
     12
     14
     16
     18
     20
     22
     24
     26
     28
     30
     32
     34
     36
        </DataArray>
      </Lines>
    </Piece>
  </PolyData>
</VTKFile>
