<?xml version="1.0"?>
<VTKFile type="PolyData" version="0.1" byte_order="LittleEndian">
  <PolyData>
    <Piece NumberOfPoints="     19" NumberOfVerts="  0" NumberOfLines="     18"
           NumberOfStrips="  0" NumberOfPolys="      0">
      <Points>
        <DataArray type="Float32" NumberOfComponents="3" format="ascii">
                      -5.12479                       1.29592                      89.25987
                      -5.24417                       2.48030                      88.58838
                      -5.49778                       4.89499                      87.32863
                      -5.75827                       7.33110                      86.10729
                      -6.08778                      10.38854                      84.60204
                      -6.44077                      13.98617                      82.66319
                      -6.77869                      17.51742                      80.60595
                      -7.11771                      21.04525                      78.54313
                      -7.45508                      24.56902                      76.47319
                      -7.79095                      28.08990                      74.39822
                      -8.12576                      31.61000                      72.32194
                      -8.45831                      35.12892                      70.24342
                      -8.78865                      38.64692                      68.16312
                      -9.11694                      42.16426                      66.08148
                      -9.44098                      45.68123                      63.99864
                      -9.70733                      48.61183                      62.26201
                      -9.91876                      50.95209                      60.86537
                     -10.13301                      53.26423                      59.42095
                     -10.23677                      54.44127                      58.73433
        </DataArray>
      </Points>
      <PointData>
        <DataArray type="Float32" Name="TranslationalVelocity" NumberOfComponents="3" format="ascii">
                       0.02934                      -0.00788                       0.00010
                       0.02984                      -0.00646                       0.00251
                       0.03137                      -0.00381                       0.00727
                       0.03348                      -0.00128                       0.01182
                       0.03675                       0.00175                       0.01717
                       0.04159                       0.00549                       0.02312
                       0.04763                       0.00943                       0.02885
                       0.05561                       0.01367                       0.03486
                       0.06672                       0.01859                       0.04157
                       0.08267                       0.02458                       0.04940
                       0.10571                       0.03207                       0.05867
                       0.13861                       0.04140                       0.06956
                       0.18471                       0.05289                       0.08207
                       0.24791                       0.06675                       0.09590
                       0.33274                       0.08299                       0.11046
                       0.42420                       0.09827                       0.12243
                       0.51255                       0.11151                       0.13131
                       0.61599                       0.12579                       0.13889
                       0.67471                       0.13291                       0.14216
        </DataArray>
        <DataArray type="Float32" Name="RotationalVelocity" NumberOfComponents="3" format="ascii">
                       0.00214                      -0.00052                      -0.00017
                       0.00211                      -0.00054                      -0.00021
                       0.00204                      -0.00060                      -0.00033
                       0.00195                      -0.00066                      -0.00050
                       0.00186                      -0.00070                      -0.00074
                       0.00179                      -0.00070                      -0.00108
                       0.00181                      -0.00062                      -0.00157
                       0.00192                      -0.00049                      -0.00230
                       0.00213                      -0.00034                      -0.00341
                       0.00243                      -0.00024                      -0.00506
                       0.00279                      -0.00028                      -0.00739
                       0.00320                      -0.00053                      -0.01051
                       0.00359                      -0.00113                      -0.01449
                       0.00391                      -0.00220                      -0.01934
                       0.00408                      -0.00387                      -0.02499
                       0.00407                      -0.00582                      -0.03020
                       0.00390                      -0.00782                      -0.03460
                       0.00357                      -0.01027                      -0.03908
                       0.00333                      -0.01168                      -0.04131
        </DataArray>
        <DataArray type="Float32" Name="TranslationalAcceleration" NumberOfComponents="3" format="ascii">
                       0.14224                      -0.02548                       0.09729
                       0.03306                      -0.00277                       0.03948
                       0.06429                      -0.00268                       0.10846
                       0.07033                       0.00319                       0.16399
                       0.07412                       0.01685                       0.21704
                       0.10257                       0.03992                       0.25628
                       0.17733                       0.06432                       0.27380
                       0.30258                       0.08422                       0.27419
                       0.45791                       0.09574                       0.26134
                       0.60628                       0.09659                       0.24004
                       0.69775                       0.08611                       0.21660
                       0.67231                       0.06512                       0.19931
                       0.46431                       0.03618                       0.19937
                       0.00609                       0.00351                       0.23151
                      -0.76822                      -0.02705                       0.31358
                      -1.70536                      -0.04559                       0.43669
                      -2.66172                      -0.05169                       0.58139
                      -3.83775                      -0.04649                       0.77948
                      -4.48575                      -0.03860                       0.89962
        </DataArray>
        <DataArray type="Float32" Name="OrientationX" NumberOfComponents="3" format="ascii">
                       0.98405                       0.15177                       0.09278
                       0.98405                       0.15177                       0.09279
                       0.98405                       0.15176                       0.09279
                       0.98405                       0.15176                       0.09280
                       0.98405                       0.15175                       0.09282
                       0.98851                       0.13631                       0.06527
                       0.99112                       0.12498                       0.04545
                       0.99298                       0.11490                       0.02821
                       0.99452                       0.10409                       0.01007
                       0.99565                       0.09277                      -0.00849
                       0.99631                       0.08184                      -0.02592
                       0.99656                       0.07081                      -0.04307
                       0.99645                       0.06057                      -0.05845
                       0.99618                       0.05247                      -0.06986
                       0.99572                       0.04441                      -0.08101
                       0.99520                       0.03767                      -0.09033
                       0.99472                       0.03264                      -0.09725
                       0.99447                       0.02971                      -0.10078
                       0.99449                       0.02946                      -0.10059
        </DataArray>
        <DataArray type="Float32" Name="OrientationY" NumberOfComponents="3" format="ascii">
                       0.15518                      -0.47748                      -0.86483
                       0.15520                      -0.47763                      -0.86475
                       0.15524                      -0.47803                      -0.86452
                       0.15530                      -0.47853                      -0.86423
                       0.15538                      -0.47924                      -0.86382
                       0.12401                      -0.48474                      -0.86582
                       0.10136                      -0.48865                      -0.86657
                       0.08155                      -0.49189                      -0.86683
                       0.06058                      -0.49497                      -0.86680
                       0.03899                      -0.49776                      -0.86644
                       0.01856                      -0.50011                      -0.86576
                      -0.00170                      -0.50212                      -0.86480
                      -0.02004                      -0.50369                      -0.86365
                      -0.03390                      -0.50477                      -0.86259
                      -0.04753                      -0.50567                      -0.86142
                      -0.05893                      -0.50629                      -0.86035
                      -0.06740                      -0.50668                      -0.85949
                      -0.07191                      -0.50690                      -0.85900
                      -0.07187                      -0.50692                      -0.85899
        </DataArray>
        <DataArray type="Float32" Name="OrientationZ" NumberOfComponents="3" format="ascii">
                      -0.08696                       0.86544                      -0.49341
                      -0.08692                       0.86535                      -0.49356
                      -0.08684                       0.86513                      -0.49397
                      -0.08675                       0.86486                      -0.49447
                      -0.08660                       0.86447                      -0.49518
                      -0.08638                       0.86397                      -0.49608
                      -0.08610                       0.86348                      -0.49697
                      -0.08572                       0.86304                      -0.49781
                      -0.08523                       0.86266                      -0.49856
                      -0.08460                       0.86234                      -0.49922
                      -0.08381                       0.86209                      -0.49978
                      -0.08286                       0.86189                      -0.50027
                      -0.08175                       0.86176                      -0.50069
                      -0.08052                       0.86166                      -0.50106
                      -0.07922                       0.86159                      -0.50139
                      -0.07814                       0.86154                      -0.50164
                      -0.07733                       0.86151                      -0.50181
                      -0.07661                       0.86149                      -0.50196
                      -0.07630                       0.86149                      -0.50202
        </DataArray>
        <DataArray type="Float32" Name="Force" NumberOfComponents="3" format="ascii">
                      72.90103                     -14.27001                     -37.87685
                      63.59662                     -13.61787                     -35.08715
                      68.28775                     -13.54027                     -35.76084
                      56.34803                     -10.57027                     -28.43466
                     466.20964                      96.47723                      87.52878
                     404.31742                      73.50709                      58.32516
                     386.63667                      65.55459                      47.74396
                     313.38745                      48.09097                      30.13238
                     261.45828                      34.72146                      15.96007
                     243.08331                      29.47126                      10.24694
                     212.87149                      21.24469                       1.33161
                     195.68569                      17.35734                      -2.19125
                     161.67279                      11.91183                      -5.69358
                     145.75311                       9.57836                      -6.79494
                     129.61383                       7.49355                      -7.48922
                     116.03274                       5.94142                      -7.79023
                     102.03393                       4.72005                      -7.56355
                      67.25080                       2.91264                      -5.23292
                      66.02107                       2.83855                      -5.13162
        </DataArray>
        <DataArray type="Float32" Name="Moment" NumberOfComponents="3" format="ascii">
                       0.00000                       0.00000                       0.00000
                       0.00000                       0.00000                       0.00000
                       0.00000                       0.00000                       0.00000
                       0.00000                       0.00000                       0.00000
                      24.94069                    -249.68054                     142.36342
                      26.00249                    -261.20306                     148.94116
                      24.04519                    -242.55347                     138.31576
                      22.21069                    -225.21191                     128.43685
                      19.53212                    -199.34048                     113.69367
                      16.98038                    -174.70624                      99.65562
                      13.34122                    -138.63637                      79.09238
                      11.35301                    -119.39275                      68.12578
                       9.38701                    -100.09880                      57.12810
                       7.66864                     -83.05795                      47.41312
                       6.12176                     -67.41573                      38.49284
                       4.97076                     -55.51042                      31.70129
                       3.90281                     -44.05020                      25.16016
                       1.73176                     -19.73296                      11.27233
                       1.69086                     -19.34670                      11.05229
        </DataArray>
      </PointData>
      <Lines>
        <DataArray type="Int32" Name="connectivity" format="ascii">
      0      1
      1      2
      2      3
      3      4
      4      5
      5      6
      6      7
      7      8
      8      9
      9     10
     10     11
     11     12
     12     13
     13     14
     14     15
     15     16
     16     17
     17     18
        </DataArray>
        <DataArray type="Int32" Name="offsets" format="ascii">
      2
      4
      6
      8
     10
     12
     14
     16
     18
     20
     22
     24
     26
     28
     30
     32
     34
     36
        </DataArray>
      </Lines>
    </Piece>
  </PolyData>
</VTKFile>
