<?xml version="1.0"?>
<VTKFile type="PolyData" version="0.1" byte_order="LittleEndian">
  <PolyData>
    <Piece NumberOfPoints="     19" NumberOfVerts="  0" NumberOfLines="     18"
           NumberOfStrips="  0" NumberOfPolys="      0">
      <Points>
        <DataArray type="Float32" NumberOfComponents="3" format="ascii">
                      -5.06050                       1.45262                      89.63497
                      -5.15029                       2.77542                      89.30323
                      -5.34347                       5.44348                      88.73217
                      -5.54252                       8.12216                      88.20372
                      -5.79387                      11.47683                      87.56688
                      -6.05234                      15.46805                      86.65549
                      -6.29403                      19.42654                      85.61201
                      -6.53306                      23.38340                      84.56197
                      -6.76585                      27.33838                      83.50373
                      -6.99165                      31.29213                      82.43965
                      -7.21010                      35.24573                      81.37387
                      -7.41930                      39.19901                      80.30535
                      -7.61881                      43.15212                      79.23460
                      -7.80851                      47.10518                      78.16206
                      -7.98619                      51.05830                      77.08784
                      -8.12474                      54.35262                      76.19133
                      -8.23069                      56.98593                      75.46564
                      -8.33745                      59.60493                      74.68611
                      -8.38603                      60.92504                      74.33609
        </DataArray>
      </Points>
      <PointData>
        <DataArray type="Float32" Name="TranslationalVelocity" NumberOfComponents="3" format="ascii">
                       0.06136                       0.11007                       0.42663
                       0.09528                       0.20944                       0.81367
                       0.16364                       0.38144                       1.59424
                       0.23212                       0.54110                       2.37775
                       0.31763                       0.73373                       3.35870
                       0.41878                       1.00670                       4.52532
                       0.51831                       1.31768                       5.68186
                       0.61683                       1.63031                       6.83744
                       0.71408                       1.94498                       7.99203
                       0.80982                       2.26099                       9.14586
                       0.90383                       2.57713                      10.29934
                       0.99584                       2.89367                      11.45250
                       1.08564                       3.21048                      12.60546
                       1.17306                       3.52745                      13.75834
                       1.25795                       3.84453                      14.91124
                       1.32666                       4.10888                      15.87205
                       1.38031                       4.32269                      16.64011
                       1.43247                       4.55221                      17.40404
                       1.45841                       4.65528                      17.78911
        </DataArray>
        <DataArray type="Float32" Name="RotationalVelocity" NumberOfComponents="3" format="ascii">
                       0.29259                       0.00041                      -0.02575
                       0.29257                       0.00041                      -0.02573
                       0.29252                       0.00042                      -0.02569
                       0.29245                       0.00042                      -0.02563
                       0.29236                       0.00043                      -0.02553
                       0.29223                       0.00045                      -0.02537
                       0.29211                       0.00046                      -0.02516
                       0.29199                       0.00048                      -0.02490
                       0.29189                       0.00051                      -0.02458
                       0.29180                       0.00055                      -0.02420
                       0.29173                       0.00062                      -0.02376
                       0.29168                       0.00071                      -0.02325
                       0.29164                       0.00083                      -0.02269
                       0.29162                       0.00097                      -0.02209
                       0.29162                       0.00112                      -0.02149
                       0.29163                       0.00125                      -0.02101
                       0.29165                       0.00134                      -0.02065
                       0.29167                       0.00142                      -0.02034
                       0.29168                       0.00146                      -0.02021
        </DataArray>
        <DataArray type="Float32" Name="TranslationalAcceleration" NumberOfComponents="3" format="ascii">
                      -0.00352                      -0.12979                       0.05780
                       0.00411                      -0.14666                       0.06996
                       0.01236                      -0.42104                       0.19406
                       0.02157                      -0.67428                       0.30433
                       0.03515                      -0.96969                       0.43100
                       0.05556                      -1.29728                       0.58549
                       0.07922                      -1.60876                       0.74646
                       0.10273                      -1.91847                       0.90769
                       0.12328                      -2.23113                       1.07153
                       0.13802                      -2.54836                       1.23867
                       0.14443                      -2.86956                       1.40869
                       0.14101                      -3.19253                       1.58098
                       0.12751                      -3.51470                       1.75454
                       0.10546                      -3.83393                       1.92844
                       0.07858                      -4.14928                       2.10234
                       0.05706                      -4.40992                       2.24748
                       0.04484                      -4.61804                       2.36498
                       0.04501                      -4.82585                       2.48787
                       0.04556                      -4.93309                       2.54733
        </DataArray>
        <DataArray type="Float32" Name="OrientationX" NumberOfComponents="3" format="ascii">
                       0.98708                       0.09865                       0.12622
                       0.98709                       0.09860                       0.12623
                       0.98710                       0.09844                       0.12627
                       0.98712                       0.09821                       0.12632
                       0.98715                       0.09780                       0.12640
                       0.99136                       0.08953                       0.09583
                       0.99381                       0.08301                       0.07382
                       0.99554                       0.07684                       0.05464
                       0.99695                       0.07000                       0.03442
                       0.99795                       0.06258                       0.01365
                       0.99847                       0.05504                      -0.00591
                       0.99857                       0.04716                      -0.02524
                       0.99831                       0.03945                      -0.04265
                       0.99791                       0.03270                      -0.05567
                       0.99732                       0.02599                      -0.06845
                       0.99665                       0.02054                      -0.07913
                       0.99606                       0.01659                      -0.08707
                       0.99574                       0.01400                      -0.09119
                       0.99576                       0.01347                      -0.09105
        </DataArray>
        <DataArray type="Float32" Name="OrientationY" NumberOfComponents="3" format="ascii">
                       0.14627                      -0.23362                      -0.96126
                       0.14628                      -0.23381                      -0.96122
                       0.14631                      -0.23432                      -0.96109
                       0.14634                      -0.23497                      -0.96092
                       0.14638                      -0.23588                      -0.96069
                       0.11485                      -0.24003                      -0.96395
                       0.09203                      -0.24316                      -0.96561
                       0.07203                      -0.24584                      -0.96663
                       0.05083                      -0.24836                      -0.96733
                       0.02895                      -0.25063                      -0.96765
                       0.00819                      -0.25254                      -0.96755
                      -0.01244                      -0.25415                      -0.96709
                      -0.03119                      -0.25539                      -0.96634
                      -0.04547                      -0.25623                      -0.96555
                      -0.05951                      -0.25690                      -0.96460
                      -0.07121                      -0.25734                      -0.96369
                      -0.07988                      -0.25762                      -0.96294
                      -0.08452                      -0.25779                      -0.96250
                      -0.08452                      -0.25784                      -0.96248
        </DataArray>
        <DataArray type="Float32" Name="OrientationZ" NumberOfComponents="3" format="ascii">
                      -0.06535                       0.96731                      -0.24503
                      -0.06526                       0.96727                      -0.24522
                      -0.06502                       0.96716                      -0.24570
                      -0.06469                       0.96703                      -0.24631
                      -0.06415                       0.96685                      -0.24716
                      -0.06330                       0.96663                      -0.24824
                      -0.06221                       0.96643                      -0.24930
                      -0.06084                       0.96626                      -0.25028
                      -0.05916                       0.96614                      -0.25116
                      -0.05713                       0.96606                      -0.25193
                      -0.05475                       0.96602                      -0.25260
                      -0.05202                       0.96602                      -0.25319
                      -0.04901                       0.96603                      -0.25372
                      -0.04583                       0.96606                      -0.25421
                      -0.04265                       0.96609                      -0.25466
                      -0.04016                       0.96610                      -0.25502
                      -0.03841                       0.96610                      -0.25528
                      -0.03698                       0.96610                      -0.25550
                      -0.03644                       0.96610                      -0.25560
        </DataArray>
        <DataArray type="Float32" Name="Force" NumberOfComponents="3" format="ascii">
                      -0.31328                      -0.92297                      -3.56010
                      69.94466                      -2.02466                     -26.61711
                      74.89040                      -4.20976                     -36.47030
                      58.93933                      -4.81886                     -34.54816
                     561.52808                      79.23401                     166.12339
                     539.26189                      70.61318                     139.93228
                     632.93006                      80.74262                     158.77695
                     639.58511                      79.10213                     154.31010
                     642.41451                      70.28230                     123.35349
                     587.92615                      59.54775                      99.00388
                     563.88945                      56.60889                      98.45938
                     661.12387                      63.59895                     111.84410
                     702.90359                      58.02485                      89.78488
                     744.07376                      59.96628                      98.86323
                     776.48157                      54.68552                      82.19610
                     787.48580                      53.53531                      83.72549
                     761.29355                      47.44915                      69.48507
                     558.90621                      33.46752                      48.86925
                     149.92243                       1.47248                     -15.87657
        </DataArray>
        <DataArray type="Float32" Name="Moment" NumberOfComponents="3" format="ascii">
                       0.00000                       0.00000                       0.00000
                       0.00000                       0.00000                       0.00000
                       0.00000                       0.00000                       0.00000
                       0.00000                       0.00000                       0.00000
                      18.40521                    -278.33024                      70.53901
                      19.97846                    -306.61494                      77.73353
                      19.47289                    -304.52897                      77.23722
                      22.43470                    -359.22143                      91.15591
                      27.99291                    -461.57091                     117.20145
                      18.15567                    -310.38592                      78.87158
                      12.79849                    -228.61689                      58.14393
                      12.47709                    -234.83971                      59.78552
                      11.99526                    -239.92254                      61.14566
                       8.60684                    -184.33560                      47.03262
                       8.18983                    -188.76023                      48.21643
                       6.22158                    -152.48865                      38.98602
                       5.29278                    -135.79154                      34.73894
                       2.45803                     -65.54678                      16.77706
                       1.75262                     -47.45514                      12.14878
        </DataArray>
      </PointData>
      <Lines>
        <DataArray type="Int32" Name="connectivity" format="ascii">
      0      1
      1      2
      2      3
      3      4
      4      5
      5      6
      6      7
      7      8
      8      9
      9     10
     10     11
     11     12
     12     13
     13     14
     14     15
     15     16
     16     17
     17     18
        </DataArray>
        <DataArray type="Int32" Name="offsets" format="ascii">
      2
      4
      6
      8
     10
     12
     14
     16
     18
     20
     22
     24
     26
     28
     30
     32
     34
     36
        </DataArray>
      </Lines>
    </Piece>
  </PolyData>
</VTKFile>
