<?xml version="1.0"?>
<VTKFile type="PolyData" version="0.1" byte_order="LittleEndian">
  <PolyData>
    <Piece NumberOfPoints="     19" NumberOfVerts="  0" NumberOfLines="     18"
           NumberOfStrips="  0" NumberOfPolys="      0">
      <Points>
        <DataArray type="Float32" NumberOfComponents="3" format="ascii">
                      -5.00879                       1.42465                      89.54115
                      -5.10693                       2.72091                      89.11921
                      -5.31568                       5.34221                      88.36599
                      -5.52856                       7.97716                      87.65460
                      -5.79408                      11.27911                      86.78879
                      -6.06363                      15.19780                      85.60571
                      -6.30795                      19.07555                      84.29360
                      -6.53860                      22.95207                      82.97560
                      -6.74933                      26.82708                      81.65003
                      -6.93663                      30.70135                      80.31908
                      -7.09745                      34.57616                      78.98666
                      -7.22750                      38.45112                      77.65154
                      -7.32434                      42.32618                      76.31394
                      -7.38642                      46.20116                      74.97401
                      -7.41080                      50.07571                      73.63157
                      -7.40162                      53.30375                      72.51062
                      -7.37746                      55.88277                      71.60483
                      -7.34417                      58.44318                      70.64551
                      -7.31891                      59.73615                      70.20448
        </DataArray>
      </Points>
      <PointData>
        <DataArray type="Float32" Name="TranslationalVelocity" NumberOfComponents="3" format="ascii">
                       0.08020                       0.26547                       0.78790
                       0.14399                       0.50381                       1.50530
                       0.27286                       0.93090                       2.95597
                       0.40219                       1.33499                       4.41406
                       0.56385                       1.82703                       6.24104
                       0.75481                       2.49465                       8.40892
                       0.94247                       3.23221                      10.55383
                       1.12834                       3.97218                      12.69780
                       1.31190                       4.71519                      14.84078
                       1.49272                       5.45992                      16.98330
                       1.67039                       6.20412                      19.12620
                       1.84448                       6.94835                      21.26935
                       2.01469                       7.69243                      23.41283
                       2.18085                       8.43630                      25.55659
                       2.34296                       9.18003                      27.70045
                       2.47502                       9.79992                      29.48681
                       2.57883                      10.30023                      30.91412
                       2.68043                      10.82992                      32.33117
                       2.73143                      11.07309                      33.04675
        </DataArray>
        <DataArray type="Float32" Name="RotationalVelocity" NumberOfComponents="3" format="ascii">
                       0.55345                       0.00022                      -0.04928
                       0.55343                       0.00022                      -0.04926
                       0.55339                       0.00023                      -0.04921
                       0.55334                       0.00024                      -0.04912
                       0.55327                       0.00025                      -0.04895
                       0.55319                       0.00023                      -0.04867
                       0.55312                       0.00020                      -0.04828
                       0.55306                       0.00018                      -0.04779
                       0.55303                       0.00020                      -0.04718
                       0.55302                       0.00027                      -0.04647
                       0.55304                       0.00043                      -0.04566
                       0.55308                       0.00068                      -0.04477
                       0.55315                       0.00104                      -0.04385
                       0.55323                       0.00147                      -0.04292
                       0.55331                       0.00192                      -0.04205
                       0.55338                       0.00226                      -0.04141
                       0.55343                       0.00247                      -0.04100
                       0.55347                       0.00256                      -0.04070
                       0.55348                       0.00256                      -0.04060
        </DataArray>
        <DataArray type="Float32" Name="TranslationalAcceleration" NumberOfComponents="3" format="ascii">
                      -0.00741                      -0.42868                       0.20020
                       0.01447                      -0.51088                       0.24279
                       0.04476                      -1.47118                       0.67113
                       0.07936                      -2.36100                       1.05105
                       0.13000                      -3.40343                       1.48582
                       0.20367                      -4.56677                       2.01613
                       0.28605                      -5.67882                       2.56812
                       0.36739                      -6.78652                       3.11921
                       0.44026                      -7.90501                       3.67707
                       0.49737                      -9.03944                       4.24354
                       0.53254                     -10.18779                       4.81649
                       0.54197                     -11.34291                       5.39295
                       0.52496                     -12.49645                       5.96851
                       0.48499                     -13.64158                       6.53899
                       0.43065                     -14.77571                       7.10167
                       0.38492                     -15.71549                       7.56426
                       0.35694                     -16.46760                       7.93397
                       0.34414                     -17.22076                       8.31938
                       0.34645                     -17.60873                       8.50141
        </DataArray>
        <DataArray type="Float32" Name="OrientationX" NumberOfComponents="3" format="ascii">
                       0.98657                       0.11309                       0.11789
                       0.98658                       0.11291                       0.11795
                       0.98663                       0.11230                       0.11812
                       0.98670                       0.11140                       0.11837
                       0.98682                       0.10989                       0.11876
                       0.99120                       0.09777                       0.08926
                       0.99382                       0.08748                       0.06828
                       0.99575                       0.07716                       0.05021
                       0.99737                       0.06547                       0.03126
                       0.99855                       0.05251                       0.01195
                       0.99923                       0.03885                      -0.00601
                       0.99943                       0.02425                      -0.02356
                       0.99919                       0.00948                      -0.03907
                       0.99873                      -0.00431                      -0.05019
                       0.99797                      -0.01799                      -0.06102
                       0.99712                      -0.02889                      -0.07013
                       0.99636                      -0.03669                      -0.07691
                       0.99589                      -0.04223                      -0.08009
                       0.99586                      -0.04378                      -0.07961
        </DataArray>
        <DataArray type="Float32" Name="OrientationY" NumberOfComponents="3" format="ascii">
                       0.14690                      -0.29839                      -0.94307
                       0.14691                      -0.29860                      -0.94300
                       0.14693                      -0.29914                      -0.94283
                       0.14693                      -0.29982                      -0.94261
                       0.14690                      -0.30079                      -0.94231
                       0.11524                      -0.30534                      -0.94524
                       0.09221                      -0.30867                      -0.94669
                       0.07191                      -0.31144                      -0.94754
                       0.05033                      -0.31396                      -0.94810
                       0.02797                      -0.31611                      -0.94831
                       0.00665                      -0.31775                      -0.94815
                      -0.01460                      -0.31893                      -0.94767
                      -0.03400                      -0.31961                      -0.94694
                      -0.04893                      -0.31989                      -0.94619
                      -0.06356                      -0.31990                      -0.94532
                      -0.07569                      -0.31974                      -0.94448
                      -0.08462                      -0.31954                      -0.94379
                      -0.08942                      -0.31948                      -0.94336
                      -0.08946                      -0.31957                      -0.94333
        </DataArray>
        <DataArray type="Float32" Name="OrientationZ" NumberOfComponents="3" format="ascii">
                      -0.07148                       0.94772                      -0.31100
                      -0.07125                       0.94768                      -0.31118
                      -0.07055                       0.94758                      -0.31164
                      -0.06952                       0.94747                      -0.31220
                      -0.06783                       0.94734                      -0.31297
                      -0.06516                       0.94721                      -0.31392
                      -0.06174                       0.94714                      -0.31483
                      -0.05747                       0.94713                      -0.31567
                      -0.05225                       0.94718                      -0.31643
                      -0.04602                       0.94727                      -0.31712
                      -0.03874                       0.94738                      -0.31776
                      -0.03050                       0.94747                      -0.31839
                      -0.02147                       0.94750                      -0.31903
                      -0.01197                       0.94744                      -0.31970
                      -0.00252                       0.94728                      -0.32040
                       0.00486                       0.94707                      -0.32100
                       0.01005                       0.94686                      -0.32148
                       0.01425                       0.94665                      -0.32195
                       0.01586                       0.94655                      -0.32217
        </DataArray>
        <DataArray type="Float32" Name="Force" NumberOfComponents="3" format="ascii">
                      -0.71762                      -2.69873                      -8.05910
                      71.25269                      -7.55429                     -39.33906
                      78.35128                     -13.73134                     -59.58797
                      66.25211                     -15.80894                     -62.92912
                     733.06723                     128.68149                     232.36246
                     971.16590                     162.16653                     290.83794
                    1138.50597                     174.05436                     304.53494
                    1399.94368                     191.60530                     325.29798
                    1543.29113                     187.73720                     312.76493
                    1729.52102                     182.71704                     300.65158
                    1614.83985                     154.24524                     268.15460
                    1849.02837                     150.90703                     277.25388
                    2156.51368                     136.16223                     264.44289
                    2288.37192                     115.84945                     262.57942
                    2419.51401                      86.95691                     242.73513
                    2471.64556                      60.21025                     219.49880
                    2402.43730                      42.51553                     204.59388
                    1775.56341                      19.88444                     140.18613
                     561.68976                     -26.13143                     -49.19439
        </DataArray>
        <DataArray type="Float32" Name="Moment" NumberOfComponents="3" format="ascii">
                       0.00000                       0.00000                       0.00000
                       0.00000                       0.00000                       0.00000
                       0.00000                       0.00000                       0.00000
                       0.00000                       0.00000                       0.00000
                      20.73844                    -290.41338                      95.40334
                      22.03710                    -321.59275                     105.72866
                      22.30331                    -343.91220                     113.17901
                      30.09516                    -499.06855                     164.44200
                      34.12588                    -623.06329                     205.60488
                      33.60773                    -697.54405                     230.59221
                      18.01072                    -444.60549                     147.28015
                      14.76777                    -463.99766                     154.06272
                      12.11556                    -542.79940                     180.68703
                       5.99763                    -486.55091                     162.39601
                       1.18090                    -499.16566                     167.04918
                      -2.56308                    -472.80892                     158.55655
                      -4.18943                    -384.22879                     129.03877
                      -3.10421                    -202.25804                      68.00605
                      -2.79630                    -163.89840                      55.13324
        </DataArray>
      </PointData>
      <Lines>
        <DataArray type="Int32" Name="connectivity" format="ascii">
      0      1
      1      2
      2      3
      3      4
      4      5
      5      6
      6      7
      7      8
      8      9
      9     10
     10     11
     11     12
     12     13
     13     14
     14     15
     15     16
     16     17
     17     18
        </DataArray>
        <DataArray type="Int32" Name="offsets" format="ascii">
      2
      4
      6
      8
     10
     12
     14
     16
     18
     20
     22
     24
     26
     28
     30
     32
     34
     36
        </DataArray>
      </Lines>
    </Piece>
  </PolyData>
</VTKFile>
