<?xml version="1.0"?>
<VTKFile type="PolyData" version="0.1" byte_order="LittleEndian">
  <PolyData>
    <Piece NumberOfPoints="     19" NumberOfVerts="  0" NumberOfLines="     18"
           NumberOfStrips="  0" NumberOfPolys="      0">
      <Points>
        <DataArray type="Float32" NumberOfComponents="3" format="ascii">
                      -5.12589                       1.32048                      89.30117
                      -5.24192                       2.52584                      88.66750
                      -5.48871                       4.97989                      87.48482
                      -5.74228                       7.45415                      86.34118
                      -6.06301                      10.55860                      84.93339
                      -6.40546                      14.21673                      83.10923
                      -6.73276                      17.81220                      81.16457
                      -7.06094                      21.40440                      79.21412
                      -7.38733                      24.99272                      77.25635
                      -7.71214                      28.57828                      75.29339
                      -8.03595                      32.16305                      73.32902
                      -8.35771                      35.74664                      71.36232
                      -8.67764                      39.32932                      69.39378
                      -8.99613                      42.91132                      67.42387
                      -9.31120                      46.49291                      65.45277
                      -9.57092                      49.47734                      63.80931
                      -9.77769                      51.86087                      62.48714
                      -9.98802                      54.21778                      61.11637
                     -10.09003                      55.41606                      60.46725
        </DataArray>
      </Points>
      <PointData>
        <DataArray type="Float32" Name="TranslationalVelocity" NumberOfComponents="3" format="ascii">
                       0.03135                       0.00708                       0.03111
                       0.03258                       0.01926                       0.05407
                       0.03536                       0.04208                       0.10084
                       0.03846                       0.06420                       0.14802
                       0.04287                       0.09150                       0.20722
                       0.04887                       0.12684                       0.27694
                       0.05603                       0.16454                       0.34540
                       0.06503                       0.20247                       0.41372
                       0.07623                       0.24066                       0.48180
                       0.08993                       0.27905                       0.54963
                       0.10635                       0.31757                       0.61719
                       0.12559                       0.35622                       0.68445
                       0.14754                       0.39496                       0.75139
                       0.17190                       0.43378                       0.81802
                       0.19813                       0.47262                       0.88439
                       0.22085                       0.50498                       0.93956
                       0.23907                       0.53097                       0.98358
                       0.25682                       0.55786                       1.02711
                       0.26550                       0.57059                       1.04927
        </DataArray>
        <DataArray type="Float32" Name="RotationalVelocity" NumberOfComponents="3" format="ascii">
                       0.01892                       0.00119                      -0.00164
                       0.01893                       0.00118                      -0.00166
                       0.01894                       0.00116                      -0.00172
                       0.01894                       0.00112                      -0.00181
                       0.01895                       0.00104                      -0.00198
                       0.01896                       0.00093                      -0.00226
                       0.01896                       0.00078                      -0.00262
                       0.01894                       0.00060                      -0.00307
                       0.01892                       0.00038                      -0.00359
                       0.01889                       0.00013                      -0.00417
                       0.01885                      -0.00015                      -0.00478
                       0.01880                      -0.00044                      -0.00540
                       0.01874                      -0.00073                      -0.00598
                       0.01869                      -0.00098                      -0.00648
                       0.01864                      -0.00118                      -0.00682
                       0.01861                      -0.00126                      -0.00695
                       0.01860                      -0.00125                      -0.00691
                       0.01861                      -0.00116                      -0.00671
                       0.01862                      -0.00107                      -0.00654
        </DataArray>
        <DataArray type="Float32" Name="TranslationalAcceleration" NumberOfComponents="3" format="ascii">
                       0.09755                      -0.01426                      -0.01574
                       0.03314                      -0.00070                       0.00233
                       0.08207                       0.00006                       0.01027
                       0.11248                       0.00297                       0.02157
                       0.13361                       0.00909                       0.03944
                       0.14388                       0.02033                       0.06446
                       0.14390                       0.03443                       0.09220
                       0.13355                       0.04908                       0.12242
                       0.10905                       0.06331                       0.15500
                       0.06337                       0.07646                       0.19014
                      -0.01256                       0.08808                       0.22827
                      -0.12863                       0.09795                       0.26994
                      -0.29437                       0.10593                       0.31578
                      -0.51777                       0.11187                       0.36639
                      -0.80410                       0.11582                       0.42223
                      -1.09302                       0.11752                       0.47302
                      -1.35399                       0.11795                       0.51633
                      -1.63827                       0.11772                       0.56170
                      -1.78962                       0.11693                       0.58546
        </DataArray>
        <DataArray type="Float32" Name="OrientationX" NumberOfComponents="3" format="ascii">
                       0.98446                       0.14603                       0.09753
                       0.98446                       0.14602                       0.09754
                       0.98446                       0.14601                       0.09755
                       0.98446                       0.14598                       0.09756
                       0.98447                       0.14594                       0.09759
                       0.98889                       0.13133                       0.06959
                       0.99147                       0.12057                       0.04943
                       0.99331                       0.11099                       0.03189
                       0.99483                       0.10070                       0.01341
                       0.99593                       0.08995                      -0.00552
                       0.99655                       0.07959                      -0.02333
                       0.99677                       0.06915                      -0.04088
                       0.99662                       0.05949                      -0.05666
                       0.99631                       0.05188                      -0.06844
                       0.99581                       0.04435                      -0.07998
                       0.99525                       0.03809                      -0.08963
                       0.99474                       0.03345                      -0.09681
                       0.99446                       0.03081                      -0.10053
                       0.99447                       0.03065                      -0.10041
        </DataArray>
        <DataArray type="Float32" Name="OrientationY" NumberOfComponents="3" format="ascii">
                       0.15393                      -0.45028                      -0.87952
                       0.15394                      -0.45044                      -0.87943
                       0.15399                      -0.45086                      -0.87921
                       0.15404                      -0.45138                      -0.87894
                       0.15411                      -0.45212                      -0.87854
                       0.12273                      -0.45749                      -0.88070
                       0.10005                      -0.46133                      -0.88157
                       0.08022                      -0.46453                      -0.88192
                       0.05922                      -0.46756                      -0.88197
                       0.03759                      -0.47032                      -0.88169
                       0.01712                      -0.47265                      -0.88109
                      -0.00317                      -0.47464                      -0.88018
                      -0.02156                      -0.47621                      -0.87907
                      -0.03546                      -0.47729                      -0.87803
                      -0.04913                      -0.47819                      -0.87688
                      -0.06055                      -0.47882                      -0.87582
                      -0.06904                      -0.47923                      -0.87497
                      -0.07355                      -0.47945                      -0.87448
                      -0.07352                      -0.47947                      -0.87447
        </DataArray>
        <DataArray type="Float32" Name="OrientationZ" NumberOfComponents="3" format="ascii">
                      -0.08452                       0.88086                      -0.46577
                      -0.08448                       0.88078                      -0.46592
                      -0.08439                       0.88057                      -0.46634
                      -0.08427                       0.88031                      -0.46685
                      -0.08409                       0.87994                      -0.46759
                      -0.08383                       0.87946                      -0.46853
                      -0.08349                       0.87900                      -0.46946
                      -0.08307                       0.87858                      -0.47032
                      -0.08255                       0.87821                      -0.47111
                      -0.08191                       0.87790                      -0.47179
                      -0.08115                       0.87765                      -0.47238
                      -0.08026                       0.87746                      -0.47288
                      -0.07928                       0.87732                      -0.47331
                      -0.07822                       0.87721                      -0.47369
                      -0.07714                       0.87714                      -0.47401
                      -0.07628                       0.87709                      -0.47424
                      -0.07566                       0.87705                      -0.47440
                      -0.07515                       0.87703                      -0.47452
                      -0.07494                       0.87702                      -0.47457
        </DataArray>
        <DataArray type="Float32" Name="Force" NumberOfComponents="3" format="ascii">
                      72.59386                     -12.18763                     -36.22236
                      64.41794                     -11.83181                     -34.05873
                      68.25479                     -11.94848                     -34.95576
                      56.43234                      -9.52019                     -28.20230
                     467.43495                      92.51845                      90.72322
                     408.37318                      71.13503                      61.23068
                     394.50401                      64.13247                      50.82605
                     321.87997                      47.43416                      32.55762
                     269.83796                      34.48838                      17.65572
                     252.87027                      29.53405                      11.65409
                     222.42667                      21.42779                       2.03486
                     206.92281                      17.78249                      -1.76448
                     171.76942                      12.27797                      -5.78078
                     157.34379                      10.07705                      -7.13736
                     142.86635                       8.10155                      -8.12223
                     130.80491                       6.62070                      -8.69492
                     117.58135                       5.41989                      -8.66047
                      79.54135                       3.45555                      -6.16742
                      79.25478                       3.42331                      -6.14717
        </DataArray>
        <DataArray type="Float32" Name="Moment" NumberOfComponents="3" format="ascii">
                       0.00000                       0.00000                       0.00000
                       0.00000                       0.00000                       0.00000
                       0.00000                       0.00000                       0.00000
                       0.00000                       0.00000                       0.00000
                      24.33469                    -255.37205                     135.04528
                      25.39325                    -267.58990                     141.51554
                      23.53207                    -249.21535                     131.80839
                      21.79745                    -232.22289                     122.83257
                      19.23159                    -206.35087                     109.15977
                      16.79469                    -181.73727                      96.15166
                      13.25219                    -144.83969                      76.64188
                      11.37971                    -125.81109                      66.58440
                       9.52263                    -106.64356                      56.45094
                       7.90925                     -89.81508                      47.55259
                       6.45809                     -74.39029                      39.39406
                       5.37591                     -62.64025                      33.17715
                       4.32568                     -50.82424                      26.92201
                       1.97610                     -23.38043                      12.38601
                       1.96181                     -23.27599                      12.33116
        </DataArray>
      </PointData>
      <Lines>
        <DataArray type="Int32" Name="connectivity" format="ascii">
      0      1
      1      2
      2      3
      3      4
      4      5
      5      6
      6      7
      7      8
      8      9
      9     10
     10     11
     11     12
     12     13
     13     14
     14     15
     15     16
     16     17
     17     18
        </DataArray>
        <DataArray type="Int32" Name="offsets" format="ascii">
      2
      4
      6
      8
     10
     12
     14
     16
     18
     20
     22
     24
     26
     28
     30
     32
     34
     36
        </DataArray>
      </Lines>
    </Piece>
  </PolyData>
</VTKFile>
