<?xml version="1.0"?>
<VTKFile type="PolyData" version="0.1" byte_order="LittleEndian">
  <PolyData>
    <Piece NumberOfPoints="     19" NumberOfVerts="  0" NumberOfLines="     18"
           NumberOfStrips="  0" NumberOfPolys="      0">
      <Points>
        <DataArray type="Float32" NumberOfComponents="3" format="ascii">
                      -4.82424                      -1.51109                      90.11314
                      -4.87733                      -2.87440                      90.19429
                      -5.01219                      -5.60558                      90.26309
                      -5.15830                      -8.33907                      90.28605
                      -5.34350                     -11.75757                      90.28479
                      -5.48858                     -15.85436                      90.41430
                      -5.58146                     -19.94584                      90.66289
                      -5.65517                     -24.03816                      90.90540
                      -5.70242                     -28.13127                      91.14301
                      -5.71945                     -32.22508                      91.37373
                      -5.70350                     -36.31952                      91.59408
                      -5.64986                     -40.41419                      91.80578
                      -5.55621                     -44.50868                      92.00937
                      -5.42142                     -48.60254                      92.20551
                      -5.24334                     -52.69516                      92.39472
                      -5.06191                     -56.10425                      92.54766
                      -4.89690                     -58.82992                      92.67537
                      -4.71151                     -61.55197                      92.85596
                      -4.61793                     -62.91415                      92.90424
        </DataArray>
      </Points>
      <PointData>
        <DataArray type="Float32" Name="TranslationalVelocity" NumberOfComponents="3" format="ascii">
                      -0.10304                      -0.12764                      -1.36138
                      -0.21657                      -0.19712                      -2.60247
                      -0.44395                      -0.24858                      -5.08893
                      -0.67132                      -0.25740                      -7.57771
                      -0.95520                      -0.24095                     -10.69057
                      -1.29460                      -0.34697                     -14.42170
                      -1.63280                      -0.56582                     -18.14865
                      -1.97052                      -0.78077                     -21.87706
                      -2.30813                      -0.99350                     -25.60678
                      -2.64606                      -1.20249                     -29.33771
                      -2.98473                      -1.40481                     -33.06969
                      -3.32451                      -1.60242                     -36.80232
                      -3.66569                      -1.79600                     -40.53521
                      -4.00839                      -1.98628                     -44.26795
                      -4.35257                      -2.17392                     -48.00006
                      -4.64034                      -2.32881                     -51.10934
                      -4.87084                      -2.45934                     -53.59568
                      -5.10093                      -2.63987                     -56.07918
                      -5.21630                      -2.69194                     -57.32215
        </DataArray>
        <DataArray type="Float32" Name="RotationalVelocity" NumberOfComponents="3" format="ascii">
                       0.91034                       0.00014                      -0.08331
                       0.91037                       0.00013                      -0.08330
                       0.91043                       0.00012                      -0.08324
                       0.91051                       0.00009                      -0.08315
                       0.91063                       0.00001                      -0.08300
                       0.91078                      -0.00014                      -0.08281
                       0.91095                      -0.00032                      -0.08264
                       0.91111                      -0.00048                      -0.08252
                       0.91126                      -0.00054                      -0.08249
                       0.91139                      -0.00045                      -0.08257
                       0.91150                      -0.00013                      -0.08276
                       0.91158                       0.00045                      -0.08306
                       0.91165                       0.00130                      -0.08345
                       0.91170                       0.00239                      -0.08389
                       0.91173                       0.00363                      -0.08432
                       0.91175                       0.00466                      -0.08461
                       0.91176                       0.00540                      -0.08475
                       0.91178                       0.00597                      -0.08477
                       0.91179                       0.00616                      -0.08472
        </DataArray>
        <DataArray type="Float32" Name="TranslationalAcceleration" NumberOfComponents="3" format="ascii">
                      -0.19447                       1.24258                      -0.16597
                      -0.07155                       1.50604                      -0.17950
                      -0.16423                       4.31662                      -0.43530
                      -0.20811                       6.90788                      -0.62049
                      -0.22270                       9.93865                      -0.79501
                      -0.22955                      13.37273                      -1.08136
                      -0.25587                      16.70711                      -1.44445
                      -0.31445                      20.03444                      -1.78834
                      -0.41558                      23.39610                      -2.12211
                      -0.55651                      26.80455                      -2.44965
                      -0.72102                      30.25176                      -2.77213
                      -0.87950                      33.71759                      -3.09447
                      -0.98801                      37.17903                      -3.42055
                      -0.98798                      40.61876                      -3.75527
                      -0.80565                      44.03377                      -4.10506
                      -0.44476                      46.87457                      -4.41463
                       0.01468                      49.16072                      -4.68521
                       0.64169                      51.47867                      -5.01965
                       1.05437                      52.66442                      -5.16271
        </DataArray>
        <DataArray type="Float32" Name="OrientationX" NumberOfComponents="3" format="ascii">
                       0.94743                      -0.05579                      -0.31506
                       0.94744                      -0.05546                      -0.31509
                       0.94748                      -0.05440                      -0.31516
                       0.94753                      -0.05284                      -0.31528
                       0.94760                      -0.05026                      -0.31549
                       0.95734                      -0.04483                      -0.28546
                       0.96379                      -0.03882                      -0.26384
                       0.96899                      -0.03195                      -0.24503
                       0.97403                      -0.02397                      -0.22516
                       0.97871                      -0.01486                      -0.20473
                       0.98263                      -0.00476                      -0.18550
                       0.98603                       0.00628                      -0.16647
                       0.98862                       0.01792                      -0.14935
                       0.99018                       0.02963                      -0.13665
                       0.99142                       0.04100                      -0.12412
                       0.99229                       0.04969                      -0.11354
                       0.99285                       0.05563                      -0.10563
                       0.99301                       0.06013                      -0.10156
                       0.99290                       0.06167                      -0.10176
        </DataArray>
        <DataArray type="Float32" Name="OrientationY" NumberOfComponents="3" format="ascii">
                       0.31769                       0.04679                       0.94704
                       0.31769                       0.04666                       0.94705
                       0.31769                       0.04634                       0.94706
                       0.31769                       0.04595                       0.94708
                       0.31773                       0.04540                       0.94709
                       0.28743                       0.04622                       0.95669
                       0.26549                       0.04645                       0.96299
                       0.24633                       0.04647                       0.96807
                       0.22607                       0.04646                       0.97300
                       0.20521                       0.04636                       0.97762
                       0.18552                       0.04612                       0.98156
                       0.16602                       0.04571                       0.98506
                       0.14842                       0.04513                       0.98789
                       0.13527                       0.04450                       0.98981
                       0.12232                       0.04377                       0.99153
                       0.11144                       0.04309                       0.99284
                       0.10333                       0.04258                       0.99373
                       0.09912                       0.04234                       0.99417
                       0.09926                       0.04240                       0.99416
        </DataArray>
        <DataArray type="Float32" Name="OrientationZ" NumberOfComponents="3" format="ascii">
                      -0.03809                      -0.99735                       0.06205
                      -0.03782                      -0.99737                       0.06183
                      -0.03691                      -0.99744                       0.06119
                      -0.03556                      -0.99755                       0.06032
                      -0.03328                      -0.99770                       0.05899
                      -0.02969                      -0.99793                       0.05713
                      -0.02513                      -0.99817                       0.05507
                      -0.01954                      -0.99841                       0.05290
                      -0.01286                      -0.99863                       0.05067
                      -0.00504                      -0.99881                       0.04842
                       0.00389                      -0.99892                       0.04620
                       0.01380                      -0.99893                       0.04403
                       0.02444                      -0.99882                       0.04196
                       0.03541                      -0.99857                       0.04005
                       0.04609                      -0.99820                       0.03838
                       0.05423                      -0.99783                       0.03722
                       0.05978                      -0.99754                       0.03653
                       0.06408                      -0.99729                       0.03609
                       0.06562                      -0.99720                       0.03598
        </DataArray>
        <DataArray type="Float32" Name="Force" NumberOfComponents="3" format="ascii">
                       0.26822                       0.17190                       2.92781
                      90.47469                      -2.11790                      21.08218
                     112.39562                      -0.69078                      55.73972
                      99.72308                       1.07228                      74.45220
                     689.98298                     -44.04876                    -343.22125
                     751.67979                     -41.64280                    -318.51263
                    1046.58072                     -51.91763                    -428.29760
                    1309.24687                     -57.09489                    -535.15798
                    1257.57435                     -47.20881                    -535.77268
                    1757.85723                     -42.24536                    -593.52529
                    2140.50648                     -24.18447                    -598.39554
                    2382.98807                       3.03817                    -571.67810
                    2685.87046                      36.07817                    -589.23339
                    2841.21327                      73.68068                    -561.68934
                    2945.05213                     111.78831                    -525.68655
                    2916.71370                     137.80857                    -469.57232
                    2667.62371                     143.79209                    -380.76163
                    1792.53776                     106.02331                    -226.56411
                    1124.42903                      70.85653                     -92.97672
        </DataArray>
        <DataArray type="Float32" Name="Moment" NumberOfComponents="3" format="ascii">
                       0.00000                       0.00000                       0.00000
                       0.00000                       0.00000                       0.00000
                       0.00000                       0.00000                       0.00000
                       0.00000                       0.00000                       0.00000
                       5.65899                     170.84121                     -10.54927
                       6.46474                     220.03992                     -13.51176
                       5.98056                     242.57401                     -14.79048
                       6.00667                     317.78828                     -19.20904
                       8.64758                     717.36811                     -42.91208
                       4.15316                    1017.52586                     -60.12394
                      -5.64389                    1131.52345                     -65.91973
                     -18.58119                    1236.25742                     -70.88394
                     -28.70681                    1112.87911                     -62.71223
                     -40.72526                    1104.48883                     -61.11858
                     -50.68480                    1063.48653                     -57.79876
                     -56.07076                    1003.47775                     -53.78196
                     -54.35771                     884.16195                     -46.93334
                     -28.97544                     440.31492                     -23.19839
                     -27.51618                     408.49267                     -21.46365
        </DataArray>
      </PointData>
      <Lines>
        <DataArray type="Int32" Name="connectivity" format="ascii">
      0      1
      1      2
      2      3
      3      4
      4      5
      5      6
      6      7
      7      8
      8      9
      9     10
     10     11
     11     12
     12     13
     13     14
     14     15
     15     16
     16     17
     17     18
        </DataArray>
        <DataArray type="Int32" Name="offsets" format="ascii">
      2
      4
      6
      8
     10
     12
     14
     16
     18
     20
     22
     24
     26
     28
     30
     32
     34
     36
        </DataArray>
      </Lines>
    </Piece>
  </PolyData>
</VTKFile>
