<?xml version="1.0"?>
<VTKFile type="PolyData" version="0.1" byte_order="LittleEndian">
  <PolyData>
    <Piece NumberOfPoints="     19" NumberOfVerts="  0" NumberOfLines="     18"
           NumberOfStrips="  0" NumberOfPolys="      0">
      <Points>
        <DataArray type="Float32" NumberOfComponents="3" format="ascii">
                      -4.88855                      -0.01520                      91.50206
                      -4.82874                      -0.02343                      92.86741
                      -4.73116                      -0.13458                      95.59865
                      -4.64361                      -0.29062                      98.33018
                      -4.53948                      -0.51255                     101.74482
                      -4.35981                      -0.63601                     105.84038
                      -4.15363                      -0.62972                     109.93519
                      -3.94687                      -0.62117                     114.02995
                      -3.73674                      -0.60856                     118.12455
                      -3.52372                      -0.59381                     122.21900
                      -3.30888                      -0.58058                     126.31333
                      -3.09126                      -0.56734                     130.40751
                      -2.87135                      -0.55408                     134.50155
                      -2.64979                      -0.54080                     138.59551
                      -2.42488                      -0.52759                     142.68929
                      -2.23484                      -0.51663                     146.10069
                      -2.08139                      -0.49998                     148.82972
                      -1.92731                      -0.42832                     151.55897
                      -1.85060                      -0.43417                     152.92339
        </DataArray>
      </Points>
      <PointData>
        <DataArray type="Float32" Name="TranslationalVelocity" NumberOfComponents="3" format="ascii">
                       0.05404                      -0.02015                      -0.00152
                       0.05372                      -0.02925                      -0.00157
                       0.05211                      -0.04737                      -0.00226
                       0.04960                      -0.06546                      -0.00322
                       0.04566                      -0.08801                      -0.00459
                       0.04024                      -0.11494                      -0.00519
                       0.03384                      -0.14156                      -0.00483
                       0.02513                      -0.16756                      -0.00434
                       0.01203                      -0.19261                      -0.00359
                      -0.00858                      -0.21637                      -0.00244
                      -0.04085                      -0.23849                      -0.00068
                      -0.09000                      -0.25869                       0.00200
                      -0.16241                      -0.27673                       0.00596
                      -0.26566                      -0.29248                       0.01162
                      -0.40859                      -0.30601                       0.01952
                      -0.56632                      -0.31571                       0.02834
                      -0.72101                      -0.32264                       0.03708
                      -0.90382                      -0.32899                       0.04757
                      -1.00893                      -0.33199                       0.05346
        </DataArray>
        <DataArray type="Float32" Name="RotationalVelocity" NumberOfComponents="3" format="ascii">
                       0.00662                      -0.00030                      -0.00056
                       0.00662                      -0.00036                      -0.00057
                       0.00661                      -0.00055                      -0.00062
                       0.00659                      -0.00077                      -0.00074
                       0.00655                      -0.00104                      -0.00097
                       0.00647                      -0.00136                      -0.00145
                       0.00632                      -0.00177                      -0.00223
                       0.00609                      -0.00248                      -0.00341
                       0.00575                      -0.00376                      -0.00508
                       0.00530                      -0.00594                      -0.00729
                       0.00473                      -0.00932                      -0.01008
                       0.00406                      -0.01420                      -0.01338
                       0.00331                      -0.02085                      -0.01709
                       0.00253                      -0.02942                      -0.02095
                       0.00180                      -0.03998                      -0.02463
                       0.00130                      -0.05021                      -0.02724
                       0.00102                      -0.05929                      -0.02875
                       0.00091                      -0.06904                      -0.02950
                       0.00093                      -0.07411                      -0.02952
        </DataArray>
        <DataArray type="Float32" Name="TranslationalAcceleration" NumberOfComponents="3" format="ascii">
                      -0.06931                       0.00172                       0.01432
                      -0.01869                      -0.00481                       0.00413
                      -0.04770                      -0.01244                       0.00989
                      -0.07374                      -0.01846                       0.01301
                      -0.11190                      -0.02643                       0.01457
                      -0.17039                      -0.03922                       0.01594
                      -0.23776                      -0.05818                       0.01797
                      -0.29315                      -0.08559                       0.01964
                      -0.31076                      -0.12173                       0.02008
                      -0.26375                      -0.16540                       0.01792
                      -0.12892                      -0.21393                       0.01169
                       0.10682                      -0.26263                       0.00022
                       0.44214                      -0.30537                      -0.01715
                       0.85622                      -0.33449                      -0.04025
                       1.30392                      -0.33902                      -0.06815
                       1.64837                      -0.31484                      -0.09348
                       1.85603                      -0.27181                      -0.11317
                       1.92082                      -0.20295                      -0.12909
                       1.93781                      -0.15759                      -0.13746
        </DataArray>
        <DataArray type="Float32" Name="OrientationX" NumberOfComponents="3" format="ascii">
                       0.97212                      -0.23032                      -0.04394
                       0.97212                      -0.23032                      -0.04399
                       0.97211                      -0.23033                      -0.04415
                       0.97209                      -0.23036                      -0.04438
                       0.97206                      -0.23042                      -0.04475
                       0.97887                      -0.19937                      -0.04550
                       0.98313                      -0.17695                      -0.04627
                       0.98642                      -0.15738                      -0.04709
                       0.98945                      -0.13669                      -0.04798
                       0.99211                      -0.11541                      -0.04893
                       0.99419                      -0.09533                      -0.04992
                       0.99585                      -0.07546                      -0.05096
                       0.99699                      -0.05753                      -0.05201
                       0.99762                      -0.04409                      -0.05306
                       0.99806                      -0.03088                      -0.05406
                       0.99830                      -0.01980                      -0.05482
                       0.99840                      -0.01154                      -0.05533
                       0.99842                      -0.00723                      -0.05575
                       0.99841                      -0.00735                      -0.05592
        </DataArray>
        <DataArray type="Float32" Name="OrientationY" NumberOfComponents="3" format="ascii">
                       0.23024                       0.97311                      -0.00681
                       0.23025                       0.97311                      -0.00682
                       0.23026                       0.97311                      -0.00684
                       0.23029                       0.97310                      -0.00688
                       0.23034                       0.97308                      -0.00693
                       0.19933                       0.97992                      -0.00555
                       0.17693                       0.98421                      -0.00455
                       0.15738                       0.98753                      -0.00367
                       0.13671                       0.99061                      -0.00271
                       0.11546                       0.99331                      -0.00171
                       0.09541                       0.99544                      -0.00073
                       0.07557                       0.99714                       0.00025
                       0.05766                       0.99834                       0.00117
                       0.04425                       0.99902                       0.00187
                       0.03106                       0.99951                       0.00258
                       0.02000                       0.99979                       0.00318
                       0.01176                       0.99992                       0.00363
                       0.00746                       0.99996                       0.00387
                       0.00758                       0.99996                       0.00386
        </DataArray>
        <DataArray type="Float32" Name="OrientationZ" NumberOfComponents="3" format="ascii">
                       0.04433                      -0.00349                       0.99901
                       0.04438                      -0.00350                       0.99901
                       0.04454                      -0.00351                       0.99900
                       0.04477                      -0.00354                       0.99899
                       0.04514                      -0.00358                       0.99897
                       0.04569                      -0.00364                       0.99895
                       0.04634                      -0.00371                       0.99892
                       0.04708                      -0.00379                       0.99888
                       0.04790                      -0.00387                       0.99884
                       0.04880                      -0.00396                       0.99880
                       0.04977                      -0.00403                       0.99875
                       0.05079                      -0.00410                       0.99870
                       0.05186                      -0.00416                       0.99865
                       0.05293                      -0.00421                       0.99859
                       0.05396                      -0.00425                       0.99853
                       0.05474                      -0.00427                       0.99849
                       0.05528                      -0.00428                       0.99846
                       0.05572                      -0.00428                       0.99844
                       0.05589                      -0.00428                       0.99843
        </DataArray>
        <DataArray type="Float32" Name="Force" NumberOfComponents="3" format="ascii">
                     109.70044                    -110.35685                      -5.25381
                     110.30229                    -110.83884                      -5.28773
                     121.32843                    -121.63743                      -5.83474
                      92.81379                     -92.82922                      -4.48421
                     509.41626                    -170.83484                     -23.61707
                     535.72061                    -150.89548                     -25.03209
                     520.24367                    -133.58306                     -24.60269
                     498.19324                    -114.43738                     -23.88150
                     476.90612                     -92.31009                     -23.19352
                     450.46218                     -77.27871                     -22.27921
                     442.89999                     -59.87316                     -22.28026
                     417.08811                     -47.81752                     -21.38299
                     392.74738                     -37.83972                     -20.53127
                     367.69255                     -30.51817                     -19.60124
                     343.24037                     -23.96322                     -18.63856
                     323.31176                     -18.98757                     -17.80014
                     298.61424                     -15.06356                     -16.59575
                     209.10976                      -9.62161                     -11.71050
                     212.74355                      -9.78497                     -11.95011
        </DataArray>
        <DataArray type="Float32" Name="Moment" NumberOfComponents="3" format="ascii">
                       0.00000                       0.00000                       0.00000
                       0.00000                       0.00000                       0.00000
                       0.00000                       0.00000                       0.00000
                       0.00000                       0.00000                       0.00000
                     -39.43725                       3.05329                    -872.74103
                     -41.49344                       3.17381                    -907.14787
                     -39.12497                       2.95076                    -843.35051
                     -36.85964                       2.73642                    -782.04344
                     -33.56791                       2.44942                    -699.97347
                     -30.25364                       2.16698                    -619.21324
                     -25.92687                       1.82091                    -520.28256
                     -23.21331                       1.59734                    -456.36176
                     -20.48155                       1.38038                    -394.34034
                     -17.99235                       1.18803                    -339.36168
                     -15.60985                       1.01099                    -288.76473
                     -13.70592                       0.87491                    -249.87987
                     -11.52690                       0.72855                    -208.06959
                      -5.52567                       0.34650                     -98.95442
                      -5.62995                       0.35197                    -100.51610
        </DataArray>
      </PointData>
      <Lines>
        <DataArray type="Int32" Name="connectivity" format="ascii">
      0      1
      1      2
      2      3
      3      4
      4      5
      5      6
      6      7
      7      8
      8      9
      9     10
     10     11
     11     12
     12     13
     13     14
     14     15
     15     16
     16     17
     17     18
        </DataArray>
        <DataArray type="Int32" Name="offsets" format="ascii">
      2
      4
      6
      8
     10
     12
     14
     16
     18
     20
     22
     24
     26
     28
     30
     32
     34
     36
        </DataArray>
      </Lines>
    </Piece>
  </PolyData>
</VTKFile>
