<?xml version="1.0"?>
<VTKFile type="PolyData" version="0.1" byte_order="LittleEndian">
  <PolyData>
    <Piece NumberOfPoints="     19" NumberOfVerts="  0" NumberOfLines="     18"
           NumberOfStrips="  0" NumberOfPolys="      0">
      <Points>
        <DataArray type="Float32" NumberOfComponents="3" format="ascii">
                      -5.15780                       0.83291                      88.76855
                      -5.31666                       1.59863                      87.64767
                      -5.65147                       3.20754                      85.46103
                      -5.99389                       4.85272                      83.29995
                      -6.42565                       6.93029                      80.61308
                      -6.89604                       9.30430                      77.30122
                      -7.34588                      11.56911                      73.91253
                      -7.79437                      13.82996                      70.52106
                      -8.23850                      16.08564                      67.12559
                      -8.67829                      18.33799                      63.72738
                      -9.11420                      20.59031                      60.32874
                      -9.54497                      22.84168                      56.92886
                      -9.97073                      25.09235                      53.52793
                     -10.39183                      27.34255                      50.12615
                     -10.80634                      29.59252                      46.72346
                     -11.14654                      31.46733                      43.88713
                     -11.41610                      32.96042                      41.61333
                     -11.68657                      34.40750                      39.30877
                     -11.81937                      35.16554                      38.17946
        </DataArray>
      </Points>
      <PointData>
        <DataArray type="Float32" Name="TranslationalVelocity" NumberOfComponents="3" format="ascii">
                      -0.01704                       0.18839                       0.11808
                      -0.00681                       0.35182                       0.22828
                       0.01456                       0.67085                       0.45975
                       0.03632                       0.98614                       0.69632
                       0.06367                       1.37796                       0.99486
                       0.09486                       1.85975                       1.33572
                       0.12449                       2.35185                       1.66060
                       0.15383                       2.84386                       1.98464
                       0.18287                       3.33596                       2.30770
                       0.21162                       3.82801                       2.63007
                       0.24013                       4.31975                       2.95227
                       0.26840                       4.81134                       3.27419
                       0.29642                       5.30283                       3.59593
                       0.32422                       5.79424                       3.91754
                       0.35177                       6.28558                       4.23907
                       0.37455                       6.69501                       4.50697
                       0.39256                       7.02315                       4.72030
                       0.40990                       7.35564                       4.92704
                       0.41894                       7.51854                       5.03533
        </DataArray>
        <DataArray type="Float32" Name="RotationalVelocity" NumberOfComponents="3" format="ascii">
                       0.14404                      -0.00049                      -0.01264
                       0.14402                      -0.00049                      -0.01264
                       0.14396                      -0.00048                      -0.01262
                       0.14388                      -0.00047                      -0.01260
                       0.14378                      -0.00044                      -0.01257
                       0.14365                      -0.00041                      -0.01253
                       0.14351                      -0.00037                      -0.01248
                       0.14339                      -0.00033                      -0.01244
                       0.14328                      -0.00029                      -0.01239
                       0.14319                      -0.00025                      -0.01235
                       0.14311                      -0.00021                      -0.01231
                       0.14305                      -0.00016                      -0.01226
                       0.14300                      -0.00012                      -0.01222
                       0.14296                      -0.00008                      -0.01218
                       0.14293                      -0.00004                      -0.01214
                       0.14291                      -0.00001                      -0.01210
                       0.14290                       0.00001                      -0.01206
                       0.14290                       0.00002                      -0.01202
                       0.14290                       0.00003                      -0.01200
        </DataArray>
        <DataArray type="Float32" Name="TranslationalAcceleration" NumberOfComponents="3" format="ascii">
                       0.03115                      -0.00332                       0.03530
                       0.01113                      -0.00847                       0.03988
                       0.02817                      -0.02636                       0.11333
                       0.03964                      -0.04492                       0.18029
                       0.04875                      -0.06809                       0.25796
                       0.05505                      -0.09213                       0.34591
                       0.05931                      -0.11286                       0.43144
                       0.06359                      -0.13354                       0.51639
                       0.06899                      -0.15434                       0.60208
                       0.07591                      -0.17536                       0.68891
                       0.08423                      -0.19662                       0.77664
                       0.09351                      -0.21801                       0.86470
                       0.10323                      -0.23942                       0.95238
                       0.11302                      -0.26077                       1.03914
                       0.12283                      -0.28203                       1.12478
                       0.13140                      -0.29975                       1.19553
                       0.13890                      -0.31373                       1.25227
                       0.14744                      -0.32657                       1.31002
                       0.15260                      -0.33388                       1.33913
        </DataArray>
        <DataArray type="Float32" Name="OrientationX" NumberOfComponents="3" format="ascii">
                       0.97666                       0.21462                       0.00817
                       0.97667                       0.21459                       0.00821
                       0.97669                       0.21451                       0.00834
                       0.97671                       0.21438                       0.00851
                       0.97675                       0.21418                       0.00881
                       0.98210                       0.18815                      -0.00888
                       0.98537                       0.16907                      -0.02134
                       0.98784                       0.15218                      -0.03199
                       0.99002                       0.13419                      -0.04311
                       0.99182                       0.11552                      -0.05438
                       0.99311                       0.09768                      -0.06479
                       0.99399                       0.07984                      -0.07491
                       0.99446                       0.06348                      -0.08381
                       0.99464                       0.05079                      -0.09011
                       0.99462                       0.03828                      -0.09627
                       0.99445                       0.02788                      -0.10149
                       0.99422                       0.02017                      -0.10541
                       0.99410                       0.01589                      -0.10727
                       0.99413                       0.01571                      -0.10700
        </DataArray>
        <DataArray type="Float32" Name="OrientationY" NumberOfComponents="3" format="ascii">
                       0.18088                      -0.80141                      -0.57010
                       0.18089                      -0.80148                      -0.57001
                       0.18093                      -0.80165                      -0.56975
                       0.18097                      -0.80187                      -0.56943
                       0.18103                      -0.80218                      -0.56897
                       0.14985                      -0.80900                      -0.56839
                       0.12729                      -0.81349                      -0.56748
                       0.10753                      -0.81708                      -0.56641
                       0.08659                      -0.82044                      -0.56514
                       0.06501                      -0.82344                      -0.56367
                       0.04456                      -0.82587                      -0.56210
                       0.02426                      -0.82787                      -0.56040
                       0.00585                      -0.82934                      -0.55871
                      -0.00810                      -0.83025                      -0.55733
                      -0.02183                      -0.83096                      -0.55591
                      -0.03330                      -0.83140                      -0.55468
                      -0.04184                      -0.83164                      -0.55374
                      -0.04640                      -0.83175                      -0.55320
                      -0.04639                      -0.83177                      -0.55318
        </DataArray>
        <DataArray type="Float32" Name="OrientationZ" NumberOfComponents="3" format="ascii">
                      -0.11580                       0.55828                      -0.82153
                      -0.11574                       0.55819                      -0.82160
                      -0.11553                       0.55798                      -0.82178
                      -0.11525                       0.55771                      -0.82200
                      -0.11480                       0.55734                      -0.82231
                      -0.11412                       0.55689                      -0.82271
                      -0.11331                       0.55646                      -0.82311
                      -0.11234                       0.55608                      -0.82350
                      -0.11120                       0.55577                      -0.82387
                      -0.10989                       0.55552                      -0.82421
                      -0.10841                       0.55534                      -0.82453
                      -0.10676                       0.55521                      -0.82483
                      -0.10498                       0.55513                      -0.82512
                      -0.10312                       0.55507                      -0.82539
                      -0.10128                       0.55502                      -0.82565
                      -0.09984                       0.55498                      -0.82585
                      -0.09883                       0.55495                      -0.82599
                      -0.09801                       0.55492                      -0.82611
                      -0.09769                       0.55490                      -0.82616
        </DataArray>
        <DataArray type="Float32" Name="Force" NumberOfComponents="3" format="ascii">
                      80.35800                     -63.58925                     -54.53999
                      68.98022                     -63.84123                     -53.10072
                      80.76800                     -69.49956                     -58.58360
                      66.56248                     -56.20917                     -47.52904
                     694.80219                     227.07025                      57.26402
                     635.82698                     182.26288                      35.59657
                     650.94748                     171.89176                      27.12129
                     555.05972                     138.30085                      18.17918
                     483.12687                     108.66767                       8.54858
                     490.76638                     103.75286                       4.97175
                     450.68297                      84.46061                      -1.95657
                     445.72442                      73.85000                      -7.60450
                     431.32879                      72.17526                      -5.93357
                     412.73981                      66.64430                      -6.38205
                     401.71716                      61.56269                      -7.54747
                     394.37420                      58.11302                      -8.29417
                     373.20767                      51.60121                      -9.68907
                     262.29997                      36.47894                      -6.40185
                     270.44712                      38.80377                      -5.68676
        </DataArray>
        <DataArray type="Float32" Name="Moment" NumberOfComponents="3" format="ascii">
                       0.00000                       0.00000                       0.00000
                       0.00000                       0.00000                       0.00000
                       0.00000                       0.00000                       0.00000
                       0.00000                       0.00000                       0.00000
                      36.66663                    -178.41114                     262.56995
                      40.06931                    -196.17268                     288.73153
                      38.15741                    -188.21243                     277.04052
                      37.00101                    -184.13078                     271.06134
                      33.36794                    -167.78388                     247.02736
                      30.44441                    -154.93929                     228.14869
                      24.86208                    -128.28765                     188.93433
                      23.14582                    -121.29902                     178.67362
                      20.87870                    -111.29396                     163.96753
                      16.57051                     -89.93327                     132.52355
                      13.97903                     -77.25787                     113.86782
                      12.14325                     -68.08393                     100.36207
                      10.40556                     -58.94230                      86.89585
                       4.62699                     -26.43116                      38.96964
                       4.53610                     -25.99733                      38.33132
        </DataArray>
      </PointData>
      <Lines>
        <DataArray type="Int32" Name="connectivity" format="ascii">
      0      1
      1      2
      2      3
      3      4
      4      5
      5      6
      6      7
      7      8
      8      9
      9     10
     10     11
     11     12
     12     13
     13     14
     14     15
     15     16
     16     17
     17     18
        </DataArray>
        <DataArray type="Int32" Name="offsets" format="ascii">
      2
      4
      6
      8
     10
     12
     14
     16
     18
     20
     22
     24
     26
     28
     30
     32
     34
     36
        </DataArray>
      </Lines>
    </Piece>
  </PolyData>
</VTKFile>
