<?xml version="1.0"?>
<VTKFile type="PolyData" version="0.1" byte_order="LittleEndian">
  <PolyData>
    <Piece NumberOfPoints="     19" NumberOfVerts="  0" NumberOfLines="     18"
           NumberOfStrips="  0" NumberOfPolys="      0">
      <Points>
        <DataArray type="Float32" NumberOfComponents="3" format="ascii">
                      -4.98773                      -1.48926                      90.17711
                      -5.03477                      -2.84650                      90.33072
                      -5.15830                      -5.57061                      90.54482
                      -5.29461                      -8.29941                      90.71346
                      -5.47058                     -11.71338                      90.89490
                      -5.61080                     -15.79711                      91.24442
                      -5.70729                     -19.86862                      91.71416
                      -5.79475                     -23.94089                      92.17969
                      -5.86786                     -28.01386                      92.64249
                      -5.92482                     -32.08767                      93.10081
                      -5.96458                     -36.16261                      93.55139
                      -5.98390                     -40.23842                      93.99604
                      -5.98147                     -44.31492                      94.43530
                      -5.95667                     -48.39193                      94.86976
                      -5.90721                     -52.46926                      95.29977
                      -5.84686                     -55.86709                      95.65510
                      -5.78673                     -58.58442                      95.94558
                      -5.71330                     -61.29619                      96.28941
                      -5.67737                     -62.65599                      96.41960
        </DataArray>
      </Points>
      <PointData>
        <DataArray type="Float32" Name="TranslationalVelocity" NumberOfComponents="3" format="ascii">
                      -0.05605                      -0.08286                      -0.73466
                      -0.11526                      -0.15669                      -1.40492
                      -0.23369                      -0.25708                      -2.75033
                      -0.35167                      -0.33452                      -4.09833
                      -0.49809                      -0.41666                      -5.78530
                      -0.67099                      -0.58356                      -7.80415
                      -0.84016                      -0.81197                      -9.81816
                      -1.00525                      -1.03891                     -11.83389
                      -1.16535                      -1.26535                     -13.85143
                      -1.31955                      -1.49045                     -15.87093
                      -1.46704                      -1.71260                     -17.89253
                      -1.60715                      -1.93276                     -19.91609
                      -1.73938                      -2.15117                     -21.94144
                      -1.86352                      -2.36804                     -23.96837
                      -1.97966                      -2.58348                     -25.99660
                      -2.07053                      -2.76202                     -27.68754
                      -2.13988                      -2.90817                     -29.04016
                      -2.20641                      -3.08108                     -30.39022
                      -2.23898                      -3.14667                     -31.06724
        </DataArray>
        <DataArray type="Float32" Name="RotationalVelocity" NumberOfComponents="3" format="ascii">
                       0.49382                       0.00015                      -0.04366
                       0.49385                       0.00015                      -0.04360
                       0.49392                       0.00017                      -0.04343
                       0.49404                       0.00020                      -0.04317
                       0.49422                       0.00024                      -0.04274
                       0.49448                       0.00031                      -0.04205
                       0.49479                       0.00038                      -0.04117
                       0.49513                       0.00046                      -0.04009
                       0.49549                       0.00055                      -0.03880
                       0.49586                       0.00063                      -0.03730
                       0.49623                       0.00071                      -0.03560
                       0.49660                       0.00079                      -0.03372
                       0.49694                       0.00087                      -0.03172
                       0.49725                       0.00095                      -0.02970
                       0.49750                       0.00104                      -0.02777
                       0.49767                       0.00112                      -0.02636
                       0.49776                       0.00119                      -0.02544
                       0.49781                       0.00128                      -0.02481
                       0.49781                       0.00132                      -0.02462
        </DataArray>
        <DataArray type="Float32" Name="TranslationalAcceleration" NumberOfComponents="3" format="ascii">
                       0.02086                       0.36201                      -0.08613
                      -0.00086                       0.43674                      -0.10462
                      -0.00435                       1.25420                      -0.27887
                      -0.01063                       2.01039                      -0.42661
                      -0.02115                       2.89656                      -0.59144
                      -0.03894                       3.89547                      -0.81072
                      -0.05975                       4.85998                      -1.05587
                      -0.07948                       5.82244                      -1.30123
                      -0.09771                       6.79558                      -1.54978
                      -0.11465                       7.78357                      -1.80152
                      -0.13110                       8.78436                      -2.05465
                      -0.14852                       9.79188                      -2.30775
                      -0.16876                      10.79892                      -2.55889
                      -0.19399                      11.79951                      -2.80654
                      -0.22661                      12.79136                      -3.05014
                      -0.26146                      13.61366                      -3.25061
                      -0.29556                      14.27233                      -3.41283
                      -0.33806                      14.93502                      -3.59006
                      -0.36017                      15.27381                      -3.66997
        </DataArray>
        <DataArray type="Float32" Name="OrientationX" NumberOfComponents="3" format="ascii">
                       0.94872                      -0.06790                      -0.30875
                       0.94872                      -0.06772                      -0.30877
                       0.94874                      -0.06712                      -0.30885
                       0.94877                      -0.06625                      -0.30896
                       0.94880                      -0.06481                      -0.30915
                       0.95839                      -0.05951                      -0.27918
                       0.96472                      -0.05455                      -0.25756
                       0.96985                      -0.04932                      -0.23867
                       0.97484                      -0.04338                      -0.21863
                       0.97953                      -0.03674                      -0.19791
                       0.98354                      -0.02958                      -0.17823
                       0.98710                      -0.02184                      -0.15860
                       0.98995                      -0.01384                      -0.14072
                       0.99187                      -0.00604                      -0.12714
                       0.99352                       0.00164                      -0.11367
                       0.99472                       0.00765                      -0.10233
                       0.99551                       0.01187                      -0.09386
                       0.99589                       0.01499                      -0.08934
                       0.99587                       0.01599                      -0.08936
        </DataArray>
        <DataArray type="Float32" Name="OrientationY" NumberOfComponents="3" format="ascii">
                       0.31434                       0.09876                       0.94416
                       0.31433                       0.09861                       0.94418
                       0.31432                       0.09820                       0.94422
                       0.31432                       0.09770                       0.94428
                       0.31432                       0.09698                       0.94435
                       0.28393                       0.09804                       0.95382
                       0.26188                       0.09841                       0.96007
                       0.24253                       0.09855                       0.96513
                       0.22195                       0.09873                       0.97005
                       0.20063                       0.09890                       0.97466
                       0.18031                       0.09897                       0.97862
                       0.15999                       0.09897                       0.98214
                       0.14140                       0.09883                       0.98501
                       0.12712                       0.09856                       0.98698
                       0.11296                       0.09825                       0.98873
                       0.10110                       0.09797                       0.99004
                       0.09227                       0.09777                       0.99092
                       0.08746                       0.09767                       0.99137
                       0.08739                       0.09769                       0.99137
        </DataArray>
        <DataArray type="Float32" Name="OrientationZ" NumberOfComponents="3" format="ascii">
                      -0.03362                      -0.99279                       0.11504
                      -0.03349                      -0.99282                       0.11484
                      -0.03305                      -0.99290                       0.11427
                      -0.03237                      -0.99301                       0.11351
                      -0.03122                      -0.99317                       0.11239
                      -0.02939                      -0.99340                       0.11086
                      -0.02703                      -0.99365                       0.10922
                      -0.02408                      -0.99391                       0.10754
                      -0.02050                      -0.99417                       0.10588
                      -0.01624                      -0.99442                       0.10425
                      -0.01131                      -0.99465                       0.10268
                      -0.00576                      -0.99485                       0.10119
                       0.00028                      -0.99501                       0.09979
                       0.00657                      -0.99511                       0.09853
                       0.01279                      -0.99516                       0.09743
                       0.01760                      -0.99516                       0.09668
                       0.02094                      -0.99514                       0.09624
                       0.02359                      -0.99511                       0.09596
                       0.02459                      -0.99509                       0.09589
        </DataArray>
        <DataArray type="Float32" Name="Force" NumberOfComponents="3" format="ascii">
                       0.02724                       0.03478                       0.30813
                      85.67800                      -2.36583                       4.51144
                      97.51315                      -0.97246                      19.57273
                      78.55911                       0.58562                      27.10014
                     470.06160                     -33.52873                    -162.98050
                     497.16765                     -33.92281                    -167.78557
                     612.93939                     -39.55619                    -200.94632
                     614.75424                     -36.33277                    -189.50899
                     582.73246                     -30.11049                    -161.34696
                     704.54267                     -32.50872                    -188.76880
                     814.34041                     -35.75215                    -239.27951
                     984.09179                     -41.69013                    -326.35505
                    1222.40592                     -42.04568                    -387.62859
                    1353.94244                     -35.21368                    -407.48333
                    1456.49086                     -25.75530                    -414.15347
                    1522.10934                     -16.96376                    -411.58952
                    1500.60599                      -9.67218                    -388.92891
                    1098.47219                      -3.32560                    -277.93137
                     368.06186                       6.49427                     -27.72615
        </DataArray>
        <DataArray type="Float32" Name="Moment" NumberOfComponents="3" format="ascii">
                       0.00000                       0.00000                       0.00000
                       0.00000                       0.00000                       0.00000
                       0.00000                       0.00000                       0.00000
                       0.00000                       0.00000                       0.00000
                       6.52294                     208.85996                     -24.15396
                       7.84097                     267.95649                     -30.94164
                       8.98198                     335.75733                     -38.69625
                       9.01001                     380.85152                     -43.78921
                       8.12961                     407.95655                     -46.77115
                       5.81933                     374.75870                     -42.81934
                       3.05402                     291.91581                     -33.22309
                       1.26485                     264.20579                     -29.93685
                      -0.37886                     278.09520                     -31.35945
                      -2.28014                     293.85486                     -32.97040
                      -4.02418                     286.16600                     -31.94825
                      -5.41499                     286.08790                     -31.81648
                      -5.80268                     260.19461                     -28.85922
                      -3.30764                     132.43412                     -14.65748
                      -3.11707                     120.00165                     -13.27089
        </DataArray>
      </PointData>
      <Lines>
        <DataArray type="Int32" Name="connectivity" format="ascii">
      0      1
      1      2
      2      3
      3      4
      4      5
      5      6
      6      7
      7      8
      8      9
      9     10
     10     11
     11     12
     12     13
     13     14
     14     15
     15     16
     16     17
     17     18
        </DataArray>
        <DataArray type="Int32" Name="offsets" format="ascii">
      2
      4
      6
      8
     10
     12
     14
     16
     18
     20
     22
     24
     26
     28
     30
     32
     34
     36
        </DataArray>
      </Lines>
    </Piece>
  </PolyData>
</VTKFile>
