<?xml version="1.0"?>
<VTKFile type="PolyData" version="0.1" byte_order="LittleEndian">
  <PolyData>
    <Piece NumberOfPoints="     19" NumberOfVerts="  0" NumberOfLines="     18"
           NumberOfStrips="  0" NumberOfPolys="      0">
      <Points>
        <DataArray type="Float32" NumberOfComponents="3" format="ascii">
                      -5.15402                      -0.75717                      88.71518
                      -5.31765                      -1.43804                      87.54148
                      -5.67051                      -2.71674                      85.14932
                      -6.03471                      -3.95552                      82.73551
                      -6.49532                      -5.47921                      79.70463
                      -6.98552                      -7.43029                      76.13058
                      -7.44099                      -9.49183                      72.61604
                      -7.89211                     -11.55284                      69.10058
                      -8.33522                     -13.61506                      65.58472
                      -8.77000                     -15.67699                      62.06759
                      -9.19684                     -17.73569                      58.54757
                      -9.61400                     -19.79279                      55.02541
                     -10.02139                     -21.84858                      51.50132
                     -10.41924                     -23.90335                      47.97551
                     -10.80570                     -25.95727                      44.44793
                     -11.11893                     -27.66838                      41.50702
                     -11.36412                     -29.04384                      39.15757
                     -11.60355                     -30.46690                      36.83477
                     -11.72402                     -31.14209                      35.65275
        </DataArray>
      </Points>
      <PointData>
        <DataArray type="Float32" Name="TranslationalVelocity" NumberOfComponents="3" format="ascii">
                      -0.04057                       0.25315                      -0.14517
                      -0.05130                       0.47858                      -0.27445
                      -0.07127                       0.93820                      -0.51719
                      -0.09044                       1.40190                      -0.75229
                      -0.11377                       1.98383                      -1.04135
                      -0.14348                       2.66864                      -1.41123
                      -0.17453                       3.34106                      -1.80176
                      -0.20488                       4.01306                      -2.19196
                      -0.23440                       4.68456                      -2.58221
                      -0.26290                       5.35579                      -2.97229
                      -0.29015                       6.02713                      -3.36169
                      -0.31606                       6.69850                      -3.75079
                      -0.34052                       7.36992                      -4.13969
                      -0.36346                       8.04141                      -4.52847
                      -0.38489                       8.71297                      -4.91718
                      -0.40159                       9.27263                      -5.24105
                      -0.41442                       9.71960                      -5.50140
                      -0.42756                      10.16137                      -5.77070
                      -0.43330                      10.38612                      -5.89848
        </DataArray>
        <DataArray type="Float32" Name="RotationalVelocity" NumberOfComponents="3" format="ascii">
                       0.18977                      -0.00052                      -0.01667
                       0.18974                      -0.00053                      -0.01666
                       0.18967                      -0.00056                      -0.01664
                       0.18959                      -0.00060                      -0.01661
                       0.18947                      -0.00066                      -0.01657
                       0.18932                      -0.00076                      -0.01651
                       0.18917                      -0.00089                      -0.01645
                       0.18905                      -0.00106                      -0.01638
                       0.18894                      -0.00127                      -0.01631
                       0.18885                      -0.00153                      -0.01624
                       0.18879                      -0.00183                      -0.01617
                       0.18874                      -0.00218                      -0.01609
                       0.18871                      -0.00256                      -0.01601
                       0.18868                      -0.00295                      -0.01593
                       0.18866                      -0.00333                      -0.01585
                       0.18864                      -0.00361                      -0.01578
                       0.18863                      -0.00380                      -0.01574
                       0.18862                      -0.00393                      -0.01569
                       0.18861                      -0.00397                      -0.01567
        </DataArray>
        <DataArray type="Float32" Name="TranslationalAcceleration" NumberOfComponents="3" format="ascii">
                      -0.00405                       0.05454                       0.03918
                       0.00226                       0.05193                       0.04811
                       0.00761                       0.14446                       0.13973
                       0.01383                       0.22582                       0.22585
                       0.02240                       0.31752                       0.32760
                       0.03304                       0.42229                       0.43960
                       0.04372                       0.52595                       0.54496
                       0.05448                       0.62870                       0.64999
                       0.06511                       0.73252                       0.75614
                       0.07546                       0.83799                       0.86392
                       0.08538                       0.94473                       0.97320
                       0.09474                       1.05194                       1.08327
                       0.10335                       1.15859                       1.19336
                       0.11099                       1.26385                       1.30283
                       0.11736                       1.36743                       1.41152
                       0.12136                       1.45280                       1.50185
                       0.12355                       1.52144                       1.57418
                       0.12459                       1.59262                       1.64605
                       0.12464                       1.62784                       1.68364
        </DataArray>
        <DataArray type="Float32" Name="OrientationX" NumberOfComponents="3" format="ascii">
                       0.95520                       0.17797                      -0.23649
                       0.95521                       0.17803                      -0.23638
                       0.95526                       0.17822                      -0.23606
                       0.95532                       0.17850                      -0.23558
                       0.95542                       0.17895                      -0.23482
                       0.96373                       0.15250                      -0.21902
                       0.96918                       0.13365                      -0.20696
                       0.97356                       0.11735                      -0.19597
                       0.97779                       0.10015                      -0.18414
                       0.98169                       0.08249                      -0.17170
                       0.98499                       0.06592                      -0.15953
                       0.98787                       0.04955                      -0.14716
                       0.99016                       0.03488                      -0.13550
                       0.99175                       0.02410                      -0.12591
                       0.99311                       0.01343                      -0.11645
                       0.99406                       0.00440                      -0.10870
                       0.99468                      -0.00240                      -0.10302
                       0.99501                      -0.00587                      -0.09958
                       0.99506                      -0.00569                      -0.09913
        </DataArray>
        <DataArray type="Float32" Name="OrientationY" NumberOfComponents="3" format="ascii">
                       0.27097                      -0.84727                       0.45685
                       0.27096                      -0.84731                       0.45678
                       0.27093                      -0.84742                       0.45660
                       0.27090                      -0.84755                       0.45637
                       0.27087                      -0.84773                       0.45604
                       0.24021                      -0.85326                       0.46286
                       0.21795                      -0.85680                       0.46733
                       0.19841                      -0.85955                       0.47096
                       0.17768                      -0.86207                       0.47461
                       0.15625                      -0.86426                       0.47817
                       0.13590                      -0.86596                       0.48130
                       0.11563                      -0.86728                       0.48420
                       0.09718                      -0.86820                       0.48661
                       0.08310                      -0.86873                       0.48827
                       0.06919                      -0.86908                       0.48981
                       0.05754                      -0.86924                       0.49103
                       0.04885                      -0.86928                       0.49189
                       0.04414                      -0.86928                       0.49235
                       0.04409                      -0.86928                       0.49236
        </DataArray>
        <DataArray type="Float32" Name="OrientationZ" NumberOfComponents="3" format="ascii">
                      -0.11906                      -0.50046                      -0.85753
                      -0.11897                      -0.50037                      -0.85760
                      -0.11866                      -0.50012                      -0.85779
                      -0.11820                      -0.49980                      -0.85804
                      -0.11745                      -0.49932                      -0.85842
                      -0.11629                      -0.49869                      -0.85895
                      -0.11487                      -0.49803                      -0.85952
                      -0.11318                      -0.49739                      -0.86011
                      -0.11121                      -0.49679                      -0.86072
                      -0.10895                      -0.49624                      -0.86132
                      -0.10642                      -0.49576                      -0.86192
                      -0.10364                      -0.49534                      -0.86250
                      -0.10067                      -0.49499                      -0.86305
                      -0.09761                      -0.49471                      -0.86356
                      -0.09463                      -0.49449                      -0.86402
                      -0.09233                      -0.49437                      -0.86434
                      -0.09073                      -0.49431                      -0.86454
                      -0.08946                      -0.49429                      -0.86468
                      -0.08897                      -0.49430                      -0.86473
        </DataArray>
        <DataArray type="Float32" Name="Force" NumberOfComponents="3" format="ascii">
                      59.40512                     -79.88878                      38.37548
                     116.56559                    -113.33366                      49.97058
                     138.36795                    -131.25258                      57.45358
                     108.63214                    -103.65878                      45.52247
                     870.80827                     239.56562                    -258.96680
                     778.80484                     183.21826                    -212.38404
                     797.38662                     173.59796                    -207.89566
                     692.66126                     141.33345                    -173.64075
                     619.65258                     117.93393                    -148.89730
                     632.04424                     116.00593                    -147.65250
                     599.80854                     105.97689                    -135.89512
                     609.70535                     104.53142                    -134.24103
                     634.23531                     108.05244                    -136.99029
                     647.65492                     108.26954                    -136.32314
                     651.79740                     107.00380                    -133.73629
                     646.48006                     103.05905                    -129.09087
                     618.56750                      96.13205                    -120.90423
                     450.02929                      69.83614                     -87.22280
                     424.07846                      60.54128                     -78.88638
        </DataArray>
        <DataArray type="Float32" Name="Moment" NumberOfComponents="3" format="ascii">
                       0.00000                       0.00000                       0.00000
                       0.00000                       0.00000                       0.00000
                       0.00000                       0.00000                       0.00000
                       0.00000                       0.00000                       0.00000
                      44.89969                     191.43015                     328.06948
                      48.83600                     210.35628                     360.54888
                      46.38315                     202.34113                     346.86297
                      45.07234                     199.63754                     342.28901
                      39.74662                     179.23699                     307.37441
                      35.53617                     163.63009                     280.67588
                      27.19900                     128.27014                     220.08048
                      23.91015                     115.82839                     198.79057
                      22.02893                     109.90020                     188.67404
                      17.65188                      90.84787                     156.01446
                      14.37939                      76.36389                     131.18113
                      12.21769                      66.51303                     114.28585
                      10.07918                      55.84340                      95.96846
                       4.65004                      26.13262                      44.91550
                       4.18532                      23.64913                      40.64900
        </DataArray>
      </PointData>
      <Lines>
        <DataArray type="Int32" Name="connectivity" format="ascii">
      0      1
      1      2
      2      3
      3      4
      4      5
      5      6
      6      7
      7      8
      8      9
      9     10
     10     11
     11     12
     12     13
     13     14
     14     15
     15     16
     16     17
     17     18
        </DataArray>
        <DataArray type="Int32" Name="offsets" format="ascii">
      2
      4
      6
      8
     10
     12
     14
     16
     18
     20
     22
     24
     26
     28
     30
     32
     34
     36
        </DataArray>
      </Lines>
    </Piece>
  </PolyData>
</VTKFile>
