<?xml version="1.0"?>
<VTKFile type="PolyData" version="0.1" byte_order="LittleEndian">
  <PolyData>
    <Piece NumberOfPoints="     22" NumberOfVerts="  0" NumberOfLines="     21"
           NumberOfStrips="  0" NumberOfPolys="      0">
      <Points>
        <DataArray type="Float32" NumberOfComponents="3" format="ascii">
                       0.00001                      -0.00000                       2.19000
                       0.00014                      -0.00002                       6.57000
                       0.00042                      -0.00006                      10.95000
                       0.00085                      -0.00011                      15.33000
                       0.00142                      -0.00018                      19.71000
                       0.00213                      -0.00026                      24.09000
                       0.00295                      -0.00035                      28.47000
                       0.00386                      -0.00045                      32.85000
                       0.00486                      -0.00056                      37.23000
                       0.00592                      -0.00068                      41.61000
                       0.00703                      -0.00081                      45.99000
                       0.00819                      -0.00094                      50.37000
                       0.00938                      -0.00109                      54.75000
                       0.01060                      -0.00124                      59.13000
                       0.01184                      -0.00139                      63.51000
                       0.01310                      -0.00155                      67.89000
                       0.01437                      -0.00170                      72.27000
                       0.01563                      -0.00186                      76.65000
                       0.01684                      -0.00202                      81.03000
                       0.01798                      -0.00218                      85.41000
                       0.01849                      -0.00226                      87.60000
                       0.00000                       0.00000                       0.00000
        </DataArray>
      </Points>
      <PointData>
        <DataArray type="Float32" Name="TranslationalVelocity" NumberOfComponents="3" format="ascii">
                       0.00002                      -0.00001                      -0.00000
                       0.00016                      -0.00007                      -0.00000
                       0.00049                      -0.00017                      -0.00000
                       0.00100                      -0.00032                      -0.00000
                       0.00172                      -0.00052                      -0.00000
                       0.00263                      -0.00075                      -0.00000
                       0.00373                      -0.00102                      -0.00000
                       0.00501                      -0.00134                      -0.00000
                       0.00648                      -0.00170                      -0.00000
                       0.00813                      -0.00210                      -0.00000
                       0.00997                      -0.00255                      -0.00000
                       0.01201                      -0.00304                      -0.00000
                       0.01426                      -0.00358                      -0.00000
                       0.01674                      -0.00416                      -0.00000
                       0.01945                      -0.00478                      -0.00000
                       0.02237                      -0.00545                      -0.00001
                       0.02550                      -0.00615                      -0.00001
                       0.02878                      -0.00688                      -0.00001
                       0.03214                      -0.00763                      -0.00001
                       0.03546                      -0.00840                      -0.00001
                       0.03705                      -0.00880                      -0.00001
                       0.00000                      -0.00000                       0.00000
        </DataArray>
        <DataArray type="Float32" Name="RotationalVelocity" NumberOfComponents="3" format="ascii">
                       0.00001                       0.00002                       0.00000
                       0.00002                       0.00005                       0.00000
                       0.00003                       0.00010                       0.00000
                       0.00004                       0.00014                       0.00000
                       0.00005                       0.00019                       0.00000
                       0.00006                       0.00023                       0.00000
                       0.00007                       0.00027                       0.00000
                       0.00008                       0.00031                       0.00000
                       0.00009                       0.00036                       0.00000
                       0.00010                       0.00040                       0.00000
                       0.00011                       0.00044                       0.00000
                       0.00012                       0.00049                       0.00000
                       0.00013                       0.00054                       0.00000
                       0.00014                       0.00059                       0.00000
                       0.00015                       0.00064                       0.00000
                       0.00016                       0.00069                       0.00000
                       0.00016                       0.00073                       0.00000
                       0.00017                       0.00076                       0.00000
                       0.00017                       0.00077                       0.00000
                       0.00018                       0.00074                       0.00000
                       0.00018                       0.00071                       0.00000
                       0.00000                      -0.00000                       0.00000
        </DataArray>
        <DataArray type="Float32" Name="TranslationalAcceleration" NumberOfComponents="3" format="ascii">
                       0.00002                      -0.00001                      -0.00000
                       0.00020                      -0.00006                      -0.00000
                       0.00057                      -0.00016                      -0.00000
                       0.00110                      -0.00029                      -0.00000
                       0.00177                      -0.00046                      -0.00000
                       0.00254                      -0.00067                      -0.00000
                       0.00336                      -0.00090                      -0.00000
                       0.00418                      -0.00117                      -0.00000
                       0.00494                      -0.00147                      -0.00000
                       0.00559                      -0.00179                      -0.00000
                       0.00605                      -0.00215                      -0.00000
                       0.00630                      -0.00253                      -0.00001
                       0.00627                      -0.00293                      -0.00001
                       0.00593                      -0.00336                      -0.00001
                       0.00525                      -0.00380                      -0.00001
                       0.00423                      -0.00426                      -0.00001
                       0.00286                      -0.00473                      -0.00001
                       0.00117                      -0.00522                      -0.00002
                      -0.00081                      -0.00570                      -0.00002
                      -0.00301                      -0.00619                      -0.00002
                      -0.00416                      -0.00644                      -0.00002
                       0.00000                      -0.00000                       0.00000
        </DataArray>
        <DataArray type="Float32" Name="RotationalAcceleration" NumberOfComponents="3" format="ascii">
                       0.00001                       0.00002                       0.00000
                       0.00002                       0.00006                       0.00000
                       0.00003                       0.00010                       0.00000
                       0.00004                       0.00014                       0.00000
                       0.00004                       0.00017                       0.00000
                       0.00005                       0.00018                       0.00000
                       0.00006                       0.00019                       0.00000
                       0.00006                       0.00018                       0.00000
                       0.00007                       0.00016                       0.00000
                       0.00008                       0.00013                       0.00000
                       0.00008                       0.00008                       0.00000
                       0.00009                       0.00003                       0.00000
                       0.00010                      -0.00004                       0.00000
                       0.00010                      -0.00011                       0.00000
                       0.00010                      -0.00019                       0.00000
                       0.00011                      -0.00027                       0.00000
                       0.00011                      -0.00035                       0.00000
                       0.00011                      -0.00042                       0.00000
                       0.00011                      -0.00048                       0.00000
                       0.00011                      -0.00052                       0.00000
                       0.00011                      -0.00053                       0.00000
                       0.00000                      -0.00000                       0.00000
        </DataArray>
        <DataArray type="Float32" Name="OrientationX" NumberOfComponents="3" format="ascii">
                       1.00000                       0.00000                      -0.00001
                       1.00000                       0.00000                      -0.00005
                       1.00000                       0.00000                      -0.00008
                       1.00000                       0.00000                      -0.00011
                       1.00000                       0.00000                      -0.00015
                       1.00000                       0.00000                      -0.00017
                       1.00000                       0.00000                      -0.00020
                       1.00000                       0.00000                      -0.00022
                       1.00000                       0.00000                      -0.00024
                       1.00000                       0.00000                      -0.00025
                       1.00000                       0.00000                      -0.00026
                       1.00000                       0.00000                      -0.00027
                       1.00000                       0.00000                      -0.00028
                       1.00000                       0.00000                      -0.00028
                       1.00000                       0.00000                      -0.00029
                       1.00000                       0.00000                      -0.00029
                       1.00000                       0.00000                      -0.00029
                       1.00000                       0.00000                      -0.00028
                       1.00000                       0.00000                      -0.00027
                       1.00000                       0.00000                      -0.00024
                       1.00000                       0.00000                      -0.00022
                       1.00000                      -0.00000                       0.00000
        </DataArray>
        <DataArray type="Float32" Name="OrientationY" NumberOfComponents="3" format="ascii">
                       0.00000                       1.00000                       0.00000
                       0.00000                       1.00000                       0.00001
                       0.00000                       1.00000                       0.00001
                       0.00000                       1.00000                       0.00001
                       0.00000                       1.00000                       0.00002
                       0.00000                       1.00000                       0.00002
                       0.00000                       1.00000                       0.00002
                       0.00000                       1.00000                       0.00002
                       0.00000                       1.00000                       0.00003
                       0.00000                       1.00000                       0.00003
                       0.00000                       1.00000                       0.00003
                       0.00000                       1.00000                       0.00003
                       0.00000                       1.00000                       0.00003
                       0.00000                       1.00000                       0.00003
                       0.00000                       1.00000                       0.00004
                       0.00000                       1.00000                       0.00004
                       0.00000                       1.00000                       0.00004
                       0.00000                       1.00000                       0.00004
                       0.00000                       1.00000                       0.00004
                       0.00000                       1.00000                       0.00004
                       0.00000                       1.00000                       0.00004
                      -0.00000                       1.00000                      -0.00000
        </DataArray>
        <DataArray type="Float32" Name="OrientationZ" NumberOfComponents="3" format="ascii">
                       0.00001                      -0.00000                       1.00000
                       0.00005                      -0.00001                       1.00000
                       0.00008                      -0.00001                       1.00000
                       0.00011                      -0.00001                       1.00000
                       0.00015                      -0.00002                       1.00000
                       0.00017                      -0.00002                       1.00000
                       0.00020                      -0.00002                       1.00000
                       0.00022                      -0.00002                       1.00000
                       0.00024                      -0.00003                       1.00000
                       0.00025                      -0.00003                       1.00000
                       0.00026                      -0.00003                       1.00000
                       0.00027                      -0.00003                       1.00000
                       0.00028                      -0.00003                       1.00000
                       0.00028                      -0.00003                       1.00000
                       0.00029                      -0.00004                       1.00000
                       0.00029                      -0.00004                       1.00000
                       0.00029                      -0.00004                       1.00000
                       0.00028                      -0.00004                       1.00000
                       0.00027                      -0.00004                       1.00000
                       0.00024                      -0.00004                       1.00000
                       0.00022                      -0.00004                       1.00000
                       0.00000                      -0.00000                       1.00000
        </DataArray>
      </PointData>
      <Lines>
        <DataArray type="Int32" Name="connectivity" format="ascii">
      0      1
      1      2
      2      3
      3      4
      4      5
      5      6
      6      7
      7      8
      8      9
      9     10
     10     11
     11     12
     12     13
     13     14
     14     15
     15     16
     16     17
     17     18
     18     19
     19     20
     21      0
        </DataArray>
        <DataArray type="Int32" Name="offsets" format="ascii">
      2
      4
      6
      8
     10
     12
     14
     16
     18
     20
     22
     24
     26
     28
     30
     32
     34
     36
     38
     40
     42
        </DataArray>
      </Lines>
    </Piece>
  </PolyData>
</VTKFile>
