<?xml version="1.0"?>
<VTKFile type="PolyData" version="0.1" byte_order="LittleEndian">
  <PolyData>
    <Piece NumberOfPoints="     19" NumberOfVerts="  0" NumberOfLines="     18"
           NumberOfStrips="  0" NumberOfPolys="      0">
      <Points>
        <DataArray type="Float32" NumberOfComponents="3" format="ascii">
                      -5.07566                      -1.44570                      89.61137
                      -5.16780                      -2.76118                      89.25232
                      -5.38197                      -5.36566                      88.44444
                      -5.60982                      -7.95722                      87.59288
                      -5.90196                     -11.18837                      86.50052
                      -6.18558                     -15.10473                      85.31743
                      -6.43118                     -19.05569                      84.25161
                      -6.67498                     -23.00614                      83.18327
                      -6.91379                     -26.95681                      82.11417
                      -7.14805                     -30.90729                      81.04297
                      -7.37891                     -34.85668                      79.96681
                      -7.60517                     -38.80559                      78.88765
                      -7.82723                     -42.75414                      77.80614
                      -8.04576                     -46.70244                      76.72283
                      -8.25916                     -50.65059                      75.63785
                      -8.43315                     -53.94066                      74.73258
                      -8.56966                     -56.57477                      74.01529
                      -8.70070                     -59.22394                      73.35012
                      -8.76974                     -60.53693                      72.97741
        </DataArray>
      </Points>
      <PointData>
        <DataArray type="Float32" Name="TranslationalVelocity" NumberOfComponents="3" format="ascii">
                       0.01274                       0.05422                      -0.21985
                      -0.00525                       0.11082                      -0.42261
                      -0.04087                       0.23825                      -0.82400
                      -0.07625                       0.37257                      -1.22335
                      -0.12023                       0.54482                      -1.72118
                      -0.17320                       0.73088                      -2.32454
                      -0.22621                       0.89831                      -2.93317
                      -0.27881                       1.06607                      -3.54164
                      -0.33092                       1.23383                      -4.15011
                      -0.38249                       1.40183                      -4.75854
                      -0.43344                       1.57052                      -5.36682
                      -0.48374                       1.73959                      -5.97507
                      -0.53335                       1.90896                      -6.58334
                      -0.58223                       2.07854                      -7.19164
                      -0.63039                       2.24829                      -7.80001
                      -0.66996                       2.38988                      -8.30703
                      -0.70130                       2.50203                      -8.71298
                      -0.73252                       2.60609                      -9.12126
                      -0.74789                       2.66434                      -9.32362
        </DataArray>
        <DataArray type="Float32" Name="RotationalVelocity" NumberOfComponents="3" format="ascii">
                       0.15418                       0.00058                      -0.01353
                       0.15418                       0.00058                      -0.01352
                       0.15416                       0.00057                      -0.01349
                       0.15414                       0.00056                      -0.01346
                       0.15412                       0.00055                      -0.01341
                       0.15409                       0.00053                      -0.01333
                       0.15407                       0.00051                      -0.01324
                       0.15406                       0.00048                      -0.01314
                       0.15405                       0.00045                      -0.01302
                       0.15405                       0.00041                      -0.01289
                       0.15405                       0.00037                      -0.01274
                       0.15406                       0.00033                      -0.01258
                       0.15408                       0.00028                      -0.01241
                       0.15409                       0.00022                      -0.01224
                       0.15411                       0.00017                      -0.01207
                       0.15412                       0.00012                      -0.01194
                       0.15412                       0.00009                      -0.01185
                       0.15413                       0.00006                      -0.01178
                       0.15413                       0.00004                      -0.01175
        </DataArray>
        <DataArray type="Float32" Name="TranslationalAcceleration" NumberOfComponents="3" format="ascii">
                      -0.00276                       0.02587                      -0.00114
                      -0.00114                       0.04192                      -0.00134
                      -0.00275                       0.12144                      -0.00192
                      -0.00370                       0.19656                      -0.00083
                      -0.00430                       0.28621                       0.00155
                      -0.00481                       0.38919                       0.00139
                      -0.00529                       0.48970                      -0.00163
                      -0.00551                       0.58984                      -0.00422
                      -0.00547                       0.69064                      -0.00652
                      -0.00507                       0.79243                      -0.00859
                      -0.00417                       0.89505                      -0.01050
                      -0.00262                       0.99808                      -0.01244
                      -0.00030                       1.10099                      -0.01451
                       0.00287                       1.20338                      -0.01684
                       0.00688                       1.30510                      -0.01946
                       0.01079                       1.38957                      -0.02184
                       0.01414                       1.45730                      -0.02415
                       0.01749                       1.52561                      -0.02799
                       0.01923                       1.56016                      -0.02895
        </DataArray>
        <DataArray type="Float32" Name="OrientationX" NumberOfComponents="3" format="ascii">
                       0.94809                       0.02013                      -0.31735
                       0.94810                       0.02022                      -0.31733
                       0.94812                       0.02053                      -0.31725
                       0.94815                       0.02098                      -0.31714
                       0.94819                       0.02169                      -0.31697
                       0.95767                       0.01408                      -0.28751
                       0.96393                       0.00898                      -0.26602
                       0.96898                       0.00476                      -0.24710
                       0.97389                       0.00031                      -0.22702
                       0.97849                      -0.00425                      -0.20627
                       0.98241                      -0.00841                      -0.18655
                       0.98589                      -0.01248                      -0.16692
                       0.98870                      -0.01600                      -0.14905
                       0.99062                      -0.01831                      -0.13541
                       0.99232                      -0.02065                      -0.12198
                       0.99359                      -0.02275                      -0.11076
                       0.99444                      -0.02440                      -0.10241
                       0.99488                      -0.02511                      -0.09792
                       0.99489                      -0.02492                      -0.09789
        </DataArray>
        <DataArray type="Float32" Name="OrientationY" NumberOfComponents="3" format="ascii">
                       0.31093                      -0.26780                       0.91193
                       0.31092                      -0.26796                       0.91188
                       0.31089                      -0.26839                       0.91176
                       0.31087                      -0.26892                       0.91161
                       0.31084                      -0.26968                       0.91140
                       0.28042                      -0.27122                       0.92076
                       0.25832                      -0.27245                       0.92684
                       0.23894                      -0.27350                       0.93172
                       0.21839                      -0.27437                       0.93650
                       0.19718                      -0.27504                       0.94100
                       0.17706                      -0.27550                       0.94485
                       0.15706                      -0.27579                       0.94830
                       0.13891                      -0.27594                       0.95108
                       0.12516                      -0.27603                       0.95296
                       0.11161                      -0.27603                       0.95465
                       0.10024                      -0.27596                       0.95593
                       0.09177                      -0.27587                       0.95680
                       0.08725                      -0.27582                       0.95724
                       0.08728                      -0.27584                       0.95723
        </DataArray>
        <DataArray type="Float32" Name="OrientationZ" NumberOfComponents="3" format="ascii">
                      -0.06663                      -0.96327                      -0.26015
                      -0.06659                      -0.96322                      -0.26034
                      -0.06643                      -0.96309                      -0.26085
                      -0.06616                      -0.96293                      -0.26150
                      -0.06572                      -0.96271                      -0.26245
                      -0.06501                      -0.96241                      -0.26369
                      -0.06415                      -0.96213                      -0.26494
                      -0.06315                      -0.96186                      -0.26615
                      -0.06200                      -0.96162                      -0.26727
                      -0.06073                      -0.96142                      -0.26828
                      -0.05934                      -0.96126                      -0.26917
                      -0.05787                      -0.96114                      -0.26994
                      -0.05634                      -0.96104                      -0.27060
                      -0.05482                      -0.96097                      -0.27115
                      -0.05339                      -0.96093                      -0.27161
                      -0.05231                      -0.96090                      -0.27191
                      -0.05160                      -0.96089                      -0.27210
                      -0.05105                      -0.96088                      -0.27222
                      -0.05086                      -0.96088                      -0.27226
        </DataArray>
        <DataArray type="Float32" Name="Force" NumberOfComponents="3" format="ascii">
                      79.40977                     -11.27570                      21.41174
                      91.79625                     -12.99538                      24.62660
                     108.97125                     -16.56966                      33.54985
                      85.36910                     -13.77298                      29.31732
                     615.46316                      32.69116                    -275.94703
                     544.70604                      21.59828                    -215.33383
                     551.62335                      18.69025                    -204.18282
                     459.39605                      11.46575                    -152.87179
                     391.02131                       5.46455                    -112.33663
                     386.41934                       3.40396                    -101.58300
                     353.78139                      -0.23326                     -78.61550
                     350.66095                      -1.57805                     -70.85398
                     295.57364                      -3.37907                     -50.35575
                     287.98526                      -3.91974                     -45.00853
                     277.83644                      -4.38220                     -39.62799
                     268.04580                      -4.75543                     -35.15635
                     251.45146                      -4.82540                     -30.92942
                     178.97695                      -3.45484                     -21.55785
                     175.96551                      -2.66019                     -23.77408
        </DataArray>
        <DataArray type="Float32" Name="Moment" NumberOfComponents="3" format="ascii">
                       0.00000                       0.00000                       0.00000
                       0.00000                       0.00000                       0.00000
                       0.00000                       0.00000                       0.00000
                       0.00000                       0.00000                       0.00000
                      24.37204                     358.31325                      96.80758
                      24.74490                     368.31565                      99.53699
                      22.89255                     345.89930                      93.50940
                      21.33890                     328.11678                      88.73521
                      19.08162                     299.31252                      80.97917
                      17.07670                     273.89975                      74.13752
                      13.52916                     222.38528                      60.22338
                      11.97880                     202.18358                      54.78085
                      10.31632                     179.05103                      48.53881
                       8.85233                     158.07457                      42.87475
                       7.47994                     137.30322                      37.25928
                       6.42630                     120.46496                      32.70193
                       5.31487                     101.06352                      27.44185
                       2.49659                      47.99727                      13.03515
                       2.30478                      44.48316                      12.08158
        </DataArray>
      </PointData>
      <Lines>
        <DataArray type="Int32" Name="connectivity" format="ascii">
      0      1
      1      2
      2      3
      3      4
      4      5
      5      6
      6      7
      7      8
      8      9
      9     10
     10     11
     11     12
     12     13
     13     14
     14     15
     15     16
     16     17
     17     18
        </DataArray>
        <DataArray type="Int32" Name="offsets" format="ascii">
      2
      4
      6
      8
     10
     12
     14
     16
     18
     20
     22
     24
     26
     28
     30
     32
     34
     36
        </DataArray>
      </Lines>
    </Piece>
  </PolyData>
</VTKFile>
