<?xml version="1.0"?>
<VTKFile type="PolyData" version="0.1" byte_order="LittleEndian">
  <PolyData>
    <Piece NumberOfPoints="     19" NumberOfVerts="  0" NumberOfLines="     18"
           NumberOfStrips="  0" NumberOfPolys="      0">
      <Points>
        <DataArray type="Float32" NumberOfComponents="3" format="ascii">
                      -4.94874                      -1.00385                      91.11734
                      -4.92037                      -1.91904                      92.13197
                      -4.89124                      -3.81966                      94.09880
                      -4.87488                      -5.75413                      96.03544
                      -4.86143                      -8.19334                      98.43727
                      -4.78251                     -11.01777                     101.40959
                      -4.66970                     -13.74898                     104.46483
                      -4.55624                     -16.48089                     107.51947
                      -4.43919                     -19.21210                     110.57470
                      -4.31908                     -21.94376                     113.62951
                      -4.19716                     -24.67824                     116.68176
                      -4.07235                     -27.41411                     119.73270
                      -3.94519                     -30.15105                     122.78263
                      -3.81637                     -32.88878                     125.83182
                      -3.68429                     -35.62721                     128.88029
                      -3.57179                     -37.90971                     131.42022
                      -3.48014                     -39.73013                     133.45715
                      -3.38508                     -41.51017                     135.53080
                      -3.34030                     -42.43107                     136.53952
        </DataArray>
      </Points>
      <PointData>
        <DataArray type="Float32" Name="TranslationalVelocity" NumberOfComponents="3" format="ascii">
                       0.03169                      -0.10958                      -0.08629
                       0.02523                      -0.20081                      -0.16839
                       0.01175                      -0.37750                      -0.33893
                      -0.00196                      -0.55148                      -0.51260
                      -0.01920                      -0.76734                      -0.73175
                      -0.03885                      -1.03520                      -0.98580
                      -0.05749                      -1.31108                      -1.23178
                      -0.07587                      -1.58721                      -1.47811
                      -0.09391                      -1.86373                      -1.72464
                      -0.11157                      -2.14051                      -1.97148
                      -0.12881                      -2.41732                      -2.21881
                      -0.14557                      -2.69427                      -2.46648
                      -0.16177                      -2.97132                      -2.71443
                      -0.17737                      -3.24848                      -2.96263
                      -0.19231                      -3.52573                      -3.21103
                      -0.20420                      -3.75682                      -3.41818
                      -0.21330                      -3.94221                      -3.58345
                      -0.22171                      -4.13099                      -3.74512
                      -0.22605                      -4.22283                      -3.82877
        </DataArray>
        <DataArray type="Float32" Name="RotationalVelocity" NumberOfComponents="3" format="ascii">
                       0.08968                       0.00071                      -0.00785
                       0.08969                       0.00071                      -0.00785
                       0.08973                       0.00073                      -0.00784
                       0.08978                       0.00074                      -0.00783
                       0.08985                       0.00077                      -0.00781
                       0.08995                       0.00081                      -0.00777
                       0.09005                       0.00085                      -0.00773
                       0.09015                       0.00091                      -0.00769
                       0.09024                       0.00097                      -0.00763
                       0.09032                       0.00104                      -0.00756
                       0.09040                       0.00112                      -0.00748
                       0.09047                       0.00122                      -0.00739
                       0.09053                       0.00132                      -0.00729
                       0.09059                       0.00143                      -0.00718
                       0.09063                       0.00155                      -0.00706
                       0.09066                       0.00165                      -0.00696
                       0.09068                       0.00172                      -0.00688
                       0.09070                       0.00180                      -0.00681
                       0.09070                       0.00183                      -0.00677
        </DataArray>
        <DataArray type="Float32" Name="TranslationalAcceleration" NumberOfComponents="3" format="ascii">
                      -0.00744                      -0.00495                      -0.01735
                      -0.00400                       0.00026                      -0.01843
                      -0.01090                       0.00221                      -0.05242
                      -0.01649                       0.00582                      -0.08332
                      -0.02220                       0.01159                      -0.11911
                      -0.02784                       0.01793                      -0.15917
                      -0.03294                       0.02341                      -0.19778
                      -0.03815                       0.02930                      -0.23598
                      -0.04412                       0.03557                      -0.27437
                      -0.05151                       0.04225                      -0.31303
                      -0.06096                       0.04947                      -0.35174
                      -0.07322                       0.05728                      -0.39011
                      -0.08908                       0.06579                      -0.42768
                      -0.10952                       0.07505                      -0.46410
                      -0.13565                       0.08507                      -0.49922
                      -0.16286                       0.09398                      -0.52758
                      -0.18866                       0.10126                      -0.54998
                      -0.21865                       0.10814                      -0.57257
                      -0.23537                       0.11193                      -0.58391
        </DataArray>
        <DataArray type="Float32" Name="OrientationX" NumberOfComponents="3" format="ascii">
                       0.95782                      -0.19960                      -0.20674
                       0.95782                      -0.19955                      -0.20680
                       0.95781                      -0.19941                      -0.20696
                       0.95780                      -0.19922                      -0.20721
                       0.95778                      -0.19891                      -0.20761
                       0.96640                      -0.17553                      -0.18778
                       0.97199                      -0.15842                      -0.17361
                       0.97644                      -0.14332                      -0.16131
                       0.98072                      -0.12732                      -0.14826
                       0.98466                      -0.11081                      -0.13479
                       0.98795                      -0.09511                      -0.12209
                       0.99081                      -0.07948                      -0.10948
                       0.99303                      -0.06525                      -0.09811
                       0.99449                      -0.05431                      -0.08969
                       0.99573                      -0.04359                      -0.08133
                       0.99664                      -0.03467                      -0.07425
                       0.99723                      -0.02808                      -0.06892
                       0.99751                      -0.02452                      -0.06617
                       0.99750                      -0.02448                      -0.06629
        </DataArray>
        <DataArray type="Float32" Name="OrientationY" NumberOfComponents="3" format="ascii">
                       0.28657                       0.71720                       0.63522
                       0.28657                       0.71712                       0.63531
                       0.28659                       0.71691                       0.63554
                       0.28661                       0.71664                       0.63583
                       0.28666                       0.71627                       0.63623
                       0.25605                       0.72176                       0.64304
                       0.23387                       0.72511                       0.64770
                       0.21444                       0.72768                       0.65154
                       0.19384                       0.73013                       0.65524
                       0.17258                       0.73236                       0.65868
                       0.15244                       0.73417                       0.66163
                       0.13241                       0.73570                       0.66424
                       0.11425                       0.73682                       0.66637
                       0.10051                       0.73748                       0.66785
                       0.08696                       0.73802                       0.66916
                       0.07561                       0.73838                       0.67014
                       0.06716                       0.73859                       0.67080
                       0.06268                       0.73867                       0.67114
                       0.06273                       0.73867                       0.67115
        </DataArray>
        <DataArray type="Float32" Name="OrientationZ" NumberOfComponents="3" format="ascii">
                       0.02149                      -0.66768                       0.74414
                       0.02152                      -0.66777                       0.74405
                       0.02164                      -0.66804                       0.74381
                       0.02183                      -0.66838                       0.74350
                       0.02215                      -0.66887                       0.74305
                       0.02266                      -0.66952                       0.74245
                       0.02328                      -0.67016                       0.74185
                       0.02400                      -0.67078                       0.74127
                       0.02482                      -0.67134                       0.74073
                       0.02572                      -0.67184                       0.74025
                       0.02671                      -0.67227                       0.73982
                       0.02775                      -0.67263                       0.73946
                       0.02881                      -0.67293                       0.73914
                       0.02987                      -0.67318                       0.73888
                       0.03086                      -0.67337                       0.73866
                       0.03159                      -0.67350                       0.73851
                       0.03206                      -0.67357                       0.73843
                       0.03242                      -0.67362                       0.73837
                       0.03254                      -0.67363                       0.73835
        </DataArray>
        <DataArray type="Float32" Name="Force" NumberOfComponents="3" format="ascii">
                      94.14889                     -50.62294                     -48.13963
                      94.02605                     -49.49213                     -47.12657
                     102.02445                     -51.40689                     -49.09593
                      77.00002                     -37.08122                     -35.53680
                     360.60562                    -102.07677                    -102.37652
                     370.19468                     -89.25430                     -91.43890
                     350.48858                     -77.67535                     -80.76512
                     327.73974                     -65.56798                     -69.52649
                     307.39302                     -52.63946                     -57.62113
                     284.52690                     -43.69168                     -49.18400
                     274.07409                     -34.29784                     -40.76298
                     252.87540                     -27.51305                     -34.26629
                     233.27032                     -21.88167                     -28.81316
                     212.90747                     -17.57731                     -24.45774
                     193.26158                     -13.82729                     -20.55245
                     177.38348                     -11.06746                     -17.58233
                     160.11372                      -8.90295                     -14.99894
                     109.01170                      -5.66178                      -9.90531
                     109.04369                      -5.65944                      -9.92224
        </DataArray>
        <DataArray type="Float32" Name="Moment" NumberOfComponents="3" format="ascii">
                       0.00000                       0.00000                       0.00000
                       0.00000                       0.00000                       0.00000
                       0.00000                       0.00000                       0.00000
                       0.00000                       0.00000                       0.00000
                     -12.98764                     389.81540                    -434.42102
                     -13.32804                     390.31238                    -434.94646
                     -12.31351                     350.34481                    -390.37769
                     -11.41949                     314.60973                    -350.52752
                     -10.24717                     272.63579                    -303.73077
                      -9.12435                     233.97312                    -260.62952
                      -7.61882                     188.05441                    -209.45431
                      -6.73238                     159.88742                    -178.05968
                      -5.84340                     133.60801                    -148.77436
                      -5.03158                     110.97366                    -123.55507
                      -4.25824                      90.90867                    -101.20329
                      -3.64461                      76.02035                     -84.62165
                      -2.99073                      61.45437                     -68.40371
                      -1.39003                      28.25377                     -31.44742
                      -1.38984                      28.14782                     -31.32906
        </DataArray>
      </PointData>
      <Lines>
        <DataArray type="Int32" Name="connectivity" format="ascii">
      0      1
      1      2
      2      3
      3      4
      4      5
      5      6
      6      7
      7      8
      8      9
      9     10
     10     11
     11     12
     12     13
     13     14
     14     15
     15     16
     16     17
     17     18
        </DataArray>
        <DataArray type="Int32" Name="offsets" format="ascii">
      2
      4
      6
      8
     10
     12
     14
     16
     18
     20
     22
     24
     26
     28
     30
     32
     34
     36
        </DataArray>
      </Lines>
    </Piece>
  </PolyData>
</VTKFile>
