<?xml version="1.0"?>
<VTKFile type="PolyData" version="0.1" byte_order="LittleEndian">
  <PolyData>
    <Piece NumberOfPoints="     22" NumberOfVerts="  0" NumberOfLines="     21"
           NumberOfStrips="  0" NumberOfPolys="      0">
      <Points>
        <DataArray type="Float32" NumberOfComponents="3" format="ascii">
                       0.00001                      -0.00000                       2.19000
                       0.00009                      -0.00002                       6.57000
                       0.00026                      -0.00005                      10.95000
                       0.00052                      -0.00010                      15.33000
                       0.00087                      -0.00016                      19.71000
                       0.00130                      -0.00023                      24.09000
                       0.00179                      -0.00031                      28.47000
                       0.00233                      -0.00039                      32.85000
                       0.00292                      -0.00049                      37.23000
                       0.00353                      -0.00060                      41.61000
                       0.00417                      -0.00071                      45.99000
                       0.00482                      -0.00083                      50.37000
                       0.00547                      -0.00096                      54.75000
                       0.00613                      -0.00109                      59.13000
                       0.00678                      -0.00122                      63.51000
                       0.00743                      -0.00135                      67.89000
                       0.00806                      -0.00149                      72.27000
                       0.00868                      -0.00162                      76.65000
                       0.00925                      -0.00176                      81.03000
                       0.00977                      -0.00189                      85.41000
                       0.01000                      -0.00196                      87.60000
                       0.00000                       0.00000                       0.00000
        </DataArray>
      </Points>
      <PointData>
        <DataArray type="Float32" Name="TranslationalVelocity" NumberOfComponents="3" format="ascii">
                       0.00004                      -0.00001                      -0.00000
                       0.00039                      -0.00007                      -0.00000
                       0.00114                      -0.00018                      -0.00000
                       0.00229                      -0.00034                      -0.00000
                       0.00383                      -0.00055                      -0.00000
                       0.00571                      -0.00079                      -0.00000
                       0.00789                      -0.00107                      -0.00000
                       0.01031                      -0.00140                      -0.00000
                       0.01293                      -0.00176                      -0.00000
                       0.01568                      -0.00216                      -0.00000
                       0.01855                      -0.00261                      -0.00000
                       0.02148                      -0.00309                      -0.00000
                       0.02446                      -0.00361                      -0.00000
                       0.02747                      -0.00417                      -0.00000
                       0.03050                      -0.00477                      -0.00000
                       0.03351                      -0.00539                      -0.00000
                       0.03650                      -0.00603                      -0.00000
                       0.03940                      -0.00670                      -0.00001
                       0.04217                      -0.00739                      -0.00001
                       0.04468                      -0.00809                      -0.00001
                       0.04581                      -0.00844                      -0.00001
                       0.00000                      -0.00000                       0.00000
        </DataArray>
        <DataArray type="Float32" Name="RotationalVelocity" NumberOfComponents="3" format="ascii">
                       0.00001                       0.00004                       0.00000
                       0.00002                       0.00012                       0.00000
                       0.00003                       0.00022                       0.00000
                       0.00004                       0.00031                       0.00000
                       0.00005                       0.00039                       0.00000
                       0.00006                       0.00047                       0.00000
                       0.00007                       0.00053                       0.00000
                       0.00008                       0.00058                       0.00000
                       0.00009                       0.00061                       0.00000
                       0.00010                       0.00064                       0.00000
                       0.00011                       0.00066                       0.00000
                       0.00012                       0.00068                       0.00000
                       0.00012                       0.00068                       0.00000
                       0.00013                       0.00069                       0.00000
                       0.00014                       0.00069                       0.00000
                       0.00015                       0.00069                       0.00000
                       0.00015                       0.00067                       0.00000
                       0.00015                       0.00065                       0.00000
                       0.00016                       0.00061                       0.00000
                       0.00016                       0.00054                       0.00000
                       0.00016                       0.00049                       0.00000
                       0.00000                      -0.00000                       0.00000
        </DataArray>
        <DataArray type="Float32" Name="TranslationalAcceleration" NumberOfComponents="3" format="ascii">
                      -0.00003                      -0.00002                      -0.00000
                      -0.00027                      -0.00014                      -0.00000
                      -0.00071                      -0.00037                      -0.00000
                      -0.00129                      -0.00070                      -0.00000
                      -0.00194                      -0.00110                      -0.00000
                      -0.00257                      -0.00158                      -0.00000
                      -0.00309                      -0.00214                      -0.00000
                      -0.00336                      -0.00276                      -0.00000
                      -0.00327                      -0.00344                      -0.00001
                      -0.00268                      -0.00419                      -0.00001
                      -0.00143                      -0.00499                      -0.00001
                       0.00059                      -0.00584                      -0.00001
                       0.00351                      -0.00674                      -0.00001
                       0.00743                      -0.00767                      -0.00002
                       0.01241                      -0.00863                      -0.00002
                       0.01849                      -0.00961                      -0.00002
                       0.02561                      -0.01060                      -0.00003
                       0.03369                      -0.01160                      -0.00003
                       0.04252                      -0.01259                      -0.00003
                       0.05181                      -0.01358                      -0.00004
                       0.05650                      -0.01408                      -0.00004
                       0.00000                      -0.00000                       0.00000
        </DataArray>
        <DataArray type="Float32" Name="RotationalAcceleration" NumberOfComponents="3" format="ascii">
                       0.00002                      -0.00003                       0.00000
                       0.00004                      -0.00008                       0.00000
                       0.00006                      -0.00012                       0.00000
                       0.00008                      -0.00014                       0.00000
                       0.00010                      -0.00015                       0.00000
                       0.00012                      -0.00014                       0.00000
                       0.00013                      -0.00010                       0.00000
                       0.00015                      -0.00003                       0.00000
                       0.00016                       0.00007                       0.00000
                       0.00018                       0.00020                       0.00000
                       0.00019                       0.00037                       0.00000
                       0.00020                       0.00056                       0.00000
                       0.00021                       0.00078                       0.00000
                       0.00022                       0.00101                       0.00000
                       0.00022                       0.00126                       0.00000
                       0.00023                       0.00151                       0.00000
                       0.00023                       0.00174                       0.00000
                       0.00023                       0.00194                       0.00000
                       0.00023                       0.00208                       0.00000
                       0.00023                       0.00214                       0.00000
                       0.00023                       0.00214                       0.00000
                       0.00000                      -0.00000                       0.00000
        </DataArray>
        <DataArray type="Float32" Name="OrientationX" NumberOfComponents="3" format="ascii">
                       1.00000                       0.00000                      -0.00001
                       1.00000                       0.00000                      -0.00003
                       1.00000                       0.00000                      -0.00005
                       1.00000                       0.00000                      -0.00007
                       1.00000                       0.00000                      -0.00009
                       1.00000                       0.00000                      -0.00011
                       1.00000                       0.00000                      -0.00012
                       1.00000                       0.00000                      -0.00013
                       1.00000                       0.00000                      -0.00014
                       1.00000                       0.00000                      -0.00014
                       1.00000                       0.00000                      -0.00015
                       1.00000                       0.00000                      -0.00015
                       1.00000                       0.00000                      -0.00015
                       1.00000                       0.00000                      -0.00015
                       1.00000                       0.00000                      -0.00015
                       1.00000                       0.00000                      -0.00015
                       1.00000                       0.00000                      -0.00014
                       1.00000                       0.00000                      -0.00014
                       1.00000                       0.00000                      -0.00013
                       1.00000                       0.00000                      -0.00011
                       1.00000                       0.00000                      -0.00010
                       1.00000                      -0.00000                       0.00000
        </DataArray>
        <DataArray type="Float32" Name="OrientationY" NumberOfComponents="3" format="ascii">
                       0.00000                       1.00000                       0.00000
                       0.00000                       1.00000                       0.00001
                       0.00000                       1.00000                       0.00001
                       0.00000                       1.00000                       0.00001
                       0.00000                       1.00000                       0.00001
                       0.00000                       1.00000                       0.00002
                       0.00000                       1.00000                       0.00002
                       0.00000                       1.00000                       0.00002
                       0.00000                       1.00000                       0.00002
                       0.00000                       1.00000                       0.00002
                       0.00000                       1.00000                       0.00003
                       0.00000                       1.00000                       0.00003
                       0.00000                       1.00000                       0.00003
                       0.00000                       1.00000                       0.00003
                       0.00000                       1.00000                       0.00003
                       0.00000                       1.00000                       0.00003
                       0.00000                       1.00000                       0.00003
                       0.00000                       1.00000                       0.00003
                       0.00000                       1.00000                       0.00003
                       0.00000                       1.00000                       0.00003
                       0.00000                       1.00000                       0.00003
                      -0.00000                       1.00000                      -0.00000
        </DataArray>
        <DataArray type="Float32" Name="OrientationZ" NumberOfComponents="3" format="ascii">
                       0.00001                      -0.00000                       1.00000
                       0.00003                      -0.00001                       1.00000
                       0.00005                      -0.00001                       1.00000
                       0.00007                      -0.00001                       1.00000
                       0.00009                      -0.00001                       1.00000
                       0.00011                      -0.00002                       1.00000
                       0.00012                      -0.00002                       1.00000
                       0.00013                      -0.00002                       1.00000
                       0.00014                      -0.00002                       1.00000
                       0.00014                      -0.00002                       1.00000
                       0.00015                      -0.00003                       1.00000
                       0.00015                      -0.00003                       1.00000
                       0.00015                      -0.00003                       1.00000
                       0.00015                      -0.00003                       1.00000
                       0.00015                      -0.00003                       1.00000
                       0.00015                      -0.00003                       1.00000
                       0.00014                      -0.00003                       1.00000
                       0.00014                      -0.00003                       1.00000
                       0.00013                      -0.00003                       1.00000
                       0.00011                      -0.00003                       1.00000
                       0.00010                      -0.00003                       1.00000
                       0.00000                      -0.00000                       1.00000
        </DataArray>
      </PointData>
      <Lines>
        <DataArray type="Int32" Name="connectivity" format="ascii">
      0      1
      1      2
      2      3
      3      4
      4      5
      5      6
      6      7
      7      8
      8      9
      9     10
     10     11
     11     12
     12     13
     13     14
     14     15
     15     16
     16     17
     17     18
     18     19
     19     20
     21      0
        </DataArray>
        <DataArray type="Int32" Name="offsets" format="ascii">
      2
      4
      6
      8
     10
     12
     14
     16
     18
     20
     22
     24
     26
     28
     30
     32
     34
     36
     38
     40
     42
        </DataArray>
      </Lines>
    </Piece>
  </PolyData>
</VTKFile>
